(kicad_symbol_lib (version 20211014) (generator kicad_symbol_editor)
  (symbol "ADP123" (in_bom yes) (on_board yes)
    (property "Reference" "U4" (id 0) (at 0 8.89 0)
      (effects (font (size 1.27 1.27)))
    )
    (property "Value" "ADP123" (id 1) (at 0 6.35 0)
      (effects (font (size 1.27 1.27)))
    )
    (property "Footprint" "Package_TO_SOT_SMD:SOT-23-5" (id 2) (at 0 0 0)
      (effects (font (size 1.27 1.27)) hide)
    )
    (property "Datasheet" "" (id 3) (at 0 0 0)
      (effects (font (size 1.27 1.27)) hide)
    )
    (symbol "ADP123_0_1"
      (polyline
        (pts
          (xy -5.08 3.81)
          (xy -5.08 -3.81)
          (xy 5.08 -3.81)
          (xy 5.08 3.81)
          (xy -5.08 3.81)
        )
        (stroke (width 0) (type default) (color 0 0 0 0))
        (fill (type none))
      )
    )
    (symbol "ADP123_1_1"
      (pin power_in line (at -7.62 2.54 0) (length 2.54)
        (name "VIN" (effects (font (size 1.27 1.27))))
        (number "1" (effects (font (size 1.27 1.27))))
      )
      (pin power_in line (at -7.62 -2.54 0) (length 2.54)
        (name "GND" (effects (font (size 1.27 1.27))))
        (number "2" (effects (font (size 1.27 1.27))))
      )
      (pin input line (at -7.62 0 0) (length 2.54)
        (name "EN" (effects (font (size 1.27 1.27))))
        (number "3" (effects (font (size 1.27 1.27))))
      )
      (pin input line (at 7.62 -2.54 180) (length 2.54)
        (name "ADJ" (effects (font (size 1.27 1.27))))
        (number "4" (effects (font (size 1.27 1.27))))
      )
      (pin power_out line (at 7.62 2.54 180) (length 2.54)
        (name "VOUT" (effects (font (size 1.27 1.27))))
        (number "5" (effects (font (size 1.27 1.27))))
      )
    )
  )
  (symbol "comp_single_5pin" (in_bom yes) (on_board yes)
    (property "Reference" "U" (id 0) (at -5.08 5.08 0)
      (effects (font (size 1.27 1.27)))
    )
    (property "Value" "comp_single_5pin" (id 1) (at 0 7.62 0)
      (effects (font (size 1.27 1.27)) hide)
    )
    (property "Footprint" "" (id 2) (at 0 -1.27 0)
      (effects (font (size 1.27 1.27)) hide)
    )
    (property "Datasheet" "" (id 3) (at 0 -1.27 0)
      (effects (font (size 1.27 1.27)) hide)
    )
    (symbol "comp_single_5pin_0_0"
      (polyline
        (pts
          (xy -6.35 3.81)
          (xy -6.35 -3.81)
          (xy 6.35 -3.81)
          (xy 6.35 3.81)
          (xy -6.35 3.81)
        )
        (stroke (width 0) (type default) (color 0 0 0 0))
        (fill (type none))
      )
      (text "Comparator" (at 0 0 900)
        (effects (font (size 0.8 0.8)))
      )
    )
    (symbol "comp_single_5pin_1_1"
      (pin input line (at -8.89 2.54 0) (length 2.54)
        (name "IN-" (effects (font (size 1.27 1.27))))
        (number "1" (effects (font (size 1.27 1.27))))
      )
      (pin power_in line (at 8.89 -2.54 180) (length 2.54)
        (name "GND" (effects (font (size 1.27 1.27))))
        (number "2" (effects (font (size 1.27 1.27))))
      )
      (pin input line (at -8.89 0 0) (length 2.54)
        (name "IN+" (effects (font (size 1.27 1.27))))
        (number "3" (effects (font (size 1.27 1.27))))
      )
      (pin output line (at 8.89 2.54 180) (length 2.54)
        (name "OUT" (effects (font (size 1.27 1.27))))
        (number "4" (effects (font (size 1.27 1.27))))
      )
      (pin power_in line (at -8.89 -2.54 0) (length 2.54)
        (name "VCC" (effects (font (size 1.27 1.27))))
        (number "5" (effects (font (size 1.27 1.27))))
      )
    )
  )
)
