(kicad_symbol_lib (version 20211014) (generator kicad_symbol_editor)
  (symbol "4_Circuit" (pin_names (offset 1.016)) (in_bom yes) (on_board yes)
    (property "Reference" "J" (id 0) (at 5.715 2.54 0)
      (effects (font (size 1.524 1.524)))
    )
    (property "Value" "4_Circuit" (id 1) (at -0.635 0 0)
      (effects (font (size 1.524 1.524)) hide)
    )
    (property "Footprint" "" (id 2) (at -0.635 0 0)
      (effects (font (size 1.524 1.524)) hide)
    )
    (property "Datasheet" "" (id 3) (at -0.635 0 0)
      (effects (font (size 1.524 1.524)) hide)
    )
    (symbol "4_Circuit_0_1"
      (polyline
        (pts
          (xy -4.445 1.27)
          (xy 4.445 1.27)
          (xy 4.445 -1.27)
          (xy -4.445 -1.27)
          (xy -4.445 1.27)
        )
        (stroke (width 0) (type default) (color 0 0 0 0))
        (fill (type none))
      )
    )
    (symbol "4_Circuit_1_1"
      (pin input line (at -3.81 6.35 270) (length 5.08)
        (name "~" (effects (font (size 1.27 1.27))))
        (number "1" (effects (font (size 1.27 1.27))))
      )
      (pin input line (at -1.27 6.35 270) (length 5.08)
        (name "~" (effects (font (size 1.27 1.27))))
        (number "2" (effects (font (size 1.27 1.27))))
      )
      (pin input line (at 1.27 6.35 270) (length 5.08)
        (name "~" (effects (font (size 1.27 1.27))))
        (number "3" (effects (font (size 1.27 1.27))))
      )
      (pin input line (at 3.81 6.35 270) (length 5.08)
        (name "~" (effects (font (size 1.27 1.27))))
        (number "4" (effects (font (size 1.27 1.27))))
      )
    )
  )
  (symbol "ESP32_CAM" (in_bom yes) (on_board yes)
    (property "Reference" "U" (id 0) (at -8.89 10.16 0)
      (effects (font (size 1.27 1.27)))
    )
    (property "Value" "ESP32_CAM" (id 1) (at 2.54 10.16 0)
      (effects (font (size 1.27 1.27)) hide)
    )
    (property "Footprint" "" (id 2) (at 0 0 0)
      (effects (font (size 1.27 1.27)) hide)
    )
    (property "Datasheet" "" (id 3) (at 0 0 0)
      (effects (font (size 1.27 1.27)) hide)
    )
    (symbol "ESP32_CAM_0_0"
      (text "ESP32 CAMERA" (at 0 -3.81 900)
        (effects (font (size 1.27 1.27)))
      )
    )
    (symbol "ESP32_CAM_0_1"
      (rectangle (start -10.16 -16.51) (end 8.89 8.89)
        (stroke (width 0) (type default) (color 0 0 0 0))
        (fill (type none))
      )
    )
    (symbol "ESP32_CAM_1_1"
      (pin power_in line (at -12.7 7.62 0) (length 2.54)
        (name "5V" (effects (font (size 1.27 1.27))))
        (number "1" (effects (font (size 1.27 1.27))))
      )
      (pin bidirectional line (at 11.43 -7.62 180) (length 2.54)
        (name "GPIO1" (effects (font (size 1.27 1.27))))
        (number "10" (effects (font (size 1.27 1.27))))
      )
      (pin bidirectional line (at 11.43 -5.08 180) (length 2.54)
        (name "GPIO3" (effects (font (size 1.27 1.27))))
        (number "11" (effects (font (size 1.27 1.27))))
      )
      (pin power_out line (at 11.43 7.62 180) (length 2.54)
        (name "VCC" (effects (font (size 1.27 1.27))))
        (number "12" (effects (font (size 1.27 1.27))))
      )
      (pin power_in line (at 11.43 -10.16 180) (length 2.54)
        (name "GND" (effects (font (size 1.27 1.27))))
        (number "13" (effects (font (size 1.27 1.27))))
      )
      (pin bidirectional line (at 11.43 -2.54 180) (length 2.54)
        (name "GPIO0" (effects (font (size 1.27 1.27))))
        (number "14" (effects (font (size 1.27 1.27))))
      )
      (pin bidirectional line (at 11.43 0 180) (length 2.54)
        (name "GPIO16" (effects (font (size 1.27 1.27))))
        (number "15" (effects (font (size 1.27 1.27))))
      )
      (pin power_in line (at -12.7 5.08 0) (length 2.54)
        (name "3.3V" (effects (font (size 1.27 1.27))))
        (number "16" (effects (font (size 1.27 1.27))))
      )
      (pin power_in line (at 11.43 -15.24 180) (length 2.54)
        (name "GND" (effects (font (size 1.27 1.27))))
        (number "2" (effects (font (size 1.27 1.27))))
      )
      (pin bidirectional line (at -12.7 -2.54 0) (length 2.54)
        (name "GPIO12" (effects (font (size 1.27 1.27))))
        (number "3" (effects (font (size 1.27 1.27))))
      )
      (pin bidirectional line (at -12.7 0 0) (length 2.54)
        (name "GPIO13" (effects (font (size 1.27 1.27))))
        (number "4" (effects (font (size 1.27 1.27))))
      )
      (pin bidirectional line (at -12.7 -5.08 0) (length 2.54)
        (name "GPIO15" (effects (font (size 1.27 1.27))))
        (number "5" (effects (font (size 1.27 1.27))))
      )
      (pin bidirectional line (at -12.7 -7.62 0) (length 2.54)
        (name "GPIO14" (effects (font (size 1.27 1.27))))
        (number "6" (effects (font (size 1.27 1.27))))
      )
      (pin bidirectional line (at -12.7 -10.16 0) (length 2.54)
        (name "GPIO2" (effects (font (size 1.27 1.27))))
        (number "7" (effects (font (size 1.27 1.27))))
      )
      (pin bidirectional line (at -12.7 -12.7 0) (length 2.54)
        (name "GPIO4" (effects (font (size 1.27 1.27))))
        (number "8" (effects (font (size 1.27 1.27))))
      )
      (pin power_out line (at 11.43 -12.7 180) (length 2.54)
        (name "GND" (effects (font (size 1.27 1.27))))
        (number "9" (effects (font (size 1.27 1.27))))
      )
    )
  )
  (symbol "RaspberryPiHeader" (pin_names (offset 1.016)) (in_bom yes) (on_board yes)
    (property "Reference" "J" (id 0) (at -8.636 27.178 0)
      (effects (font (size 1.524 1.524)))
    )
    (property "Value" "RaspberryPiHeader" (id 1) (at 0 0.762 90)
      (effects (font (size 1.524 1.524)))
    )
    (property "Footprint" "" (id 2) (at -8.636 27.178 0)
      (effects (font (size 1.524 1.524)) hide)
    )
    (property "Datasheet" "" (id 3) (at -8.636 27.178 0)
      (effects (font (size 1.524 1.524)) hide)
    )
    (symbol "RaspberryPiHeader_0_1"
      (polyline
        (pts
          (xy -10.16 -25.4)
          (xy -10.16 25.4)
          (xy 10.16 25.4)
          (xy 10.16 -25.4)
          (xy -10.16 -25.4)
        )
        (stroke (width 0) (type default) (color 0 0 0 0))
        (fill (type none))
      )
    )
    (symbol "RaspberryPiHeader_1_1"
      (pin input line (at -15.24 24.13 0) (length 5.08)
        (name "3V3" (effects (font (size 1.27 1.27))))
        (number "1" (effects (font (size 1.27 1.27))))
      )
      (pin input line (at 15.24 13.97 180) (length 5.08)
        (name "BCM_15" (effects (font (size 1.27 1.27))))
        (number "10" (effects (font (size 1.27 1.27))))
      )
      (pin input line (at -15.24 11.43 0) (length 5.08)
        (name "BCM_17" (effects (font (size 1.27 1.27))))
        (number "11" (effects (font (size 1.27 1.27))))
      )
      (pin input line (at 15.24 11.43 180) (length 5.08)
        (name "BCM_18" (effects (font (size 1.27 1.27))))
        (number "12" (effects (font (size 1.27 1.27))))
      )
      (pin input line (at -15.24 8.89 0) (length 5.08)
        (name "BCM_27" (effects (font (size 1.27 1.27))))
        (number "13" (effects (font (size 1.27 1.27))))
      )
      (pin input line (at 15.24 8.89 180) (length 5.08)
        (name "GND" (effects (font (size 1.27 1.27))))
        (number "14" (effects (font (size 1.27 1.27))))
      )
      (pin input line (at -15.24 6.35 0) (length 5.08)
        (name "BCM_22" (effects (font (size 1.27 1.27))))
        (number "15" (effects (font (size 1.27 1.27))))
      )
      (pin input line (at 15.24 6.35 180) (length 5.08)
        (name "BCM_23" (effects (font (size 1.27 1.27))))
        (number "16" (effects (font (size 1.27 1.27))))
      )
      (pin input line (at -15.24 3.81 0) (length 5.08)
        (name "3V3" (effects (font (size 1.27 1.27))))
        (number "17" (effects (font (size 1.27 1.27))))
      )
      (pin input line (at 15.24 3.81 180) (length 5.08)
        (name "BCM_24" (effects (font (size 1.27 1.27))))
        (number "18" (effects (font (size 1.27 1.27))))
      )
      (pin input line (at -15.24 1.27 0) (length 5.08)
        (name "BCM_10" (effects (font (size 1.27 1.27))))
        (number "19" (effects (font (size 1.27 1.27))))
      )
      (pin input line (at 15.24 24.13 180) (length 5.08)
        (name "5V" (effects (font (size 1.27 1.27))))
        (number "2" (effects (font (size 1.27 1.27))))
      )
      (pin input line (at 15.24 1.27 180) (length 5.08)
        (name "GND" (effects (font (size 1.27 1.27))))
        (number "20" (effects (font (size 1.27 1.27))))
      )
      (pin input line (at -15.24 -1.27 0) (length 5.08)
        (name "BCM_9" (effects (font (size 1.27 1.27))))
        (number "21" (effects (font (size 1.27 1.27))))
      )
      (pin input line (at 15.24 -1.27 180) (length 5.08)
        (name "BCM_25" (effects (font (size 1.27 1.27))))
        (number "22" (effects (font (size 1.27 1.27))))
      )
      (pin input line (at -15.24 -3.81 0) (length 5.08)
        (name "BCM_11" (effects (font (size 1.27 1.27))))
        (number "23" (effects (font (size 1.27 1.27))))
      )
      (pin input line (at 15.24 -3.81 180) (length 5.08)
        (name "BCM_8" (effects (font (size 1.27 1.27))))
        (number "24" (effects (font (size 1.27 1.27))))
      )
      (pin input line (at -15.24 -6.35 0) (length 5.08)
        (name "GND" (effects (font (size 1.27 1.27))))
        (number "25" (effects (font (size 1.27 1.27))))
      )
      (pin input line (at 15.24 -6.35 180) (length 5.08)
        (name "BCM_7" (effects (font (size 1.27 1.27))))
        (number "26" (effects (font (size 1.27 1.27))))
      )
      (pin input line (at -15.24 -8.89 0) (length 5.08)
        (name "BCM_0" (effects (font (size 1.27 1.27))))
        (number "27" (effects (font (size 1.27 1.27))))
      )
      (pin input line (at 15.24 -8.89 180) (length 5.08)
        (name "BCM_1" (effects (font (size 1.27 1.27))))
        (number "28" (effects (font (size 1.27 1.27))))
      )
      (pin input line (at -15.24 -11.43 0) (length 5.08)
        (name "BCM_5" (effects (font (size 1.27 1.27))))
        (number "29" (effects (font (size 1.27 1.27))))
      )
      (pin input line (at -15.24 21.59 0) (length 5.08)
        (name "BCM_2" (effects (font (size 1.27 1.27))))
        (number "3" (effects (font (size 1.27 1.27))))
      )
      (pin input line (at 15.24 -11.43 180) (length 5.08)
        (name "GND" (effects (font (size 1.27 1.27))))
        (number "30" (effects (font (size 1.27 1.27))))
      )
      (pin input line (at -15.24 -13.97 0) (length 5.08)
        (name "BCM_6" (effects (font (size 1.27 1.27))))
        (number "31" (effects (font (size 1.27 1.27))))
      )
      (pin input line (at 15.24 -13.97 180) (length 5.08)
        (name "BCM_12" (effects (font (size 1.27 1.27))))
        (number "32" (effects (font (size 1.27 1.27))))
      )
      (pin input line (at -15.24 -16.51 0) (length 5.08)
        (name "BCM_13" (effects (font (size 1.27 1.27))))
        (number "33" (effects (font (size 1.27 1.27))))
      )
      (pin input line (at 15.24 -16.51 180) (length 5.08)
        (name "GND" (effects (font (size 1.27 1.27))))
        (number "34" (effects (font (size 1.27 1.27))))
      )
      (pin input line (at -15.24 -19.05 0) (length 5.08)
        (name "BCM_19" (effects (font (size 1.27 1.27))))
        (number "35" (effects (font (size 1.27 1.27))))
      )
      (pin input line (at 15.24 -19.05 180) (length 5.08)
        (name "BCM_16" (effects (font (size 1.27 1.27))))
        (number "36" (effects (font (size 1.27 1.27))))
      )
      (pin input line (at -15.24 -21.59 0) (length 5.08)
        (name "BCM_26" (effects (font (size 1.27 1.27))))
        (number "37" (effects (font (size 1.27 1.27))))
      )
      (pin input line (at 15.24 -21.59 180) (length 5.08)
        (name "BCM_20" (effects (font (size 1.27 1.27))))
        (number "38" (effects (font (size 1.27 1.27))))
      )
      (pin input line (at -15.24 -24.13 0) (length 5.08)
        (name "GND" (effects (font (size 1.27 1.27))))
        (number "39" (effects (font (size 1.27 1.27))))
      )
      (pin input line (at 15.24 21.59 180) (length 5.08)
        (name "5V" (effects (font (size 1.27 1.27))))
        (number "4" (effects (font (size 1.27 1.27))))
      )
      (pin input line (at 15.24 -24.13 180) (length 5.08)
        (name "BCM_21" (effects (font (size 1.27 1.27))))
        (number "40" (effects (font (size 1.27 1.27))))
      )
      (pin input line (at -15.24 19.05 0) (length 5.08)
        (name "BCM_3" (effects (font (size 1.27 1.27))))
        (number "5" (effects (font (size 1.27 1.27))))
      )
      (pin input line (at 15.24 19.05 180) (length 5.08)
        (name "GND" (effects (font (size 1.27 1.27))))
        (number "6" (effects (font (size 1.27 1.27))))
      )
      (pin input line (at -15.24 16.51 0) (length 5.08)
        (name "BCM_4" (effects (font (size 1.27 1.27))))
        (number "7" (effects (font (size 1.27 1.27))))
      )
      (pin input line (at 15.24 16.51 180) (length 5.08)
        (name "BCM_14" (effects (font (size 1.27 1.27))))
        (number "8" (effects (font (size 1.27 1.27))))
      )
      (pin input line (at -15.24 13.97 0) (length 5.08)
        (name "GND" (effects (font (size 1.27 1.27))))
        (number "9" (effects (font (size 1.27 1.27))))
      )
    )
  )
  (symbol "Teensy3_2" (pin_names (offset 1.016)) (in_bom yes) (on_board yes)
    (property "Reference" "M" (id 0) (at -13.97 19.05 0)
      (effects (font (size 1.524 1.524)))
    )
    (property "Value" "Teensy3_2" (id 1) (at 8.89 20.32 0)
      (effects (font (size 1.524 1.524)) hide)
    )
    (property "Footprint" "" (id 2) (at -11.684 2.286 0)
      (effects (font (size 1.524 1.524)) hide)
    )
    (property "Datasheet" "" (id 3) (at -11.684 2.286 0)
      (effects (font (size 1.524 1.524)) hide)
    )
    (symbol "Teensy3_2_0_0"
      (rectangle (start -15.24 17.78) (end 15.24 -17.78)
        (stroke (width 0) (type default) (color 0 0 0 0))
        (fill (type none))
      )
      (text "Teensy 3.2" (at 0 16.51 0)
        (effects (font (size 1.27 1.27)))
      )
    )
    (symbol "Teensy3_2_1_1"
      (pin power_in line (at -17.78 16.51 0) (length 2.54)
        (name "GND" (effects (font (size 1.27 1.27))))
        (number "1" (effects (font (size 1.27 1.27))))
      )
      (pin bidirectional line (at -17.78 -6.35 0) (length 2.54)
        (name "D8/TX3" (effects (font (size 1.27 1.27))))
        (number "10" (effects (font (size 1.27 1.27))))
      )
      (pin bidirectional line (at -17.78 -8.89 0) (length 2.54)
        (name "D9/RX2" (effects (font (size 1.27 1.27))))
        (number "11" (effects (font (size 1.27 1.27))))
      )
      (pin bidirectional line (at -17.78 -11.43 0) (length 2.54)
        (name "D10/TX2/CS" (effects (font (size 1.27 1.27))))
        (number "12" (effects (font (size 1.27 1.27))))
      )
      (pin bidirectional line (at -17.78 -13.97 0) (length 2.54)
        (name "D11/DOUT" (effects (font (size 1.27 1.27))))
        (number "13" (effects (font (size 1.27 1.27))))
      )
      (pin bidirectional line (at -17.78 -16.51 0) (length 2.54)
        (name "D12/DIN" (effects (font (size 1.27 1.27))))
        (number "14" (effects (font (size 1.27 1.27))))
      )
      (pin bidirectional line (at 17.78 -16.51 180) (length 2.54)
        (name "D13/LED/SCK" (effects (font (size 1.27 1.27))))
        (number "15" (effects (font (size 1.27 1.27))))
      )
      (pin bidirectional line (at 17.78 -13.97 180) (length 2.54)
        (name "D14/A0" (effects (font (size 1.27 1.27))))
        (number "16" (effects (font (size 1.27 1.27))))
      )
      (pin bidirectional line (at 17.78 -11.43 180) (length 2.54)
        (name "D15/A1" (effects (font (size 1.27 1.27))))
        (number "17" (effects (font (size 1.27 1.27))))
      )
      (pin bidirectional line (at 17.78 -8.89 180) (length 2.54)
        (name "D16/A2" (effects (font (size 1.27 1.27))))
        (number "18" (effects (font (size 1.27 1.27))))
      )
      (pin bidirectional line (at 17.78 -6.35 180) (length 2.54)
        (name "D17/A3" (effects (font (size 1.27 1.27))))
        (number "19" (effects (font (size 1.27 1.27))))
      )
      (pin bidirectional line (at -17.78 13.97 0) (length 2.54)
        (name "D0/RX1" (effects (font (size 1.27 1.27))))
        (number "2" (effects (font (size 1.27 1.27))))
      )
      (pin bidirectional line (at 17.78 -3.81 180) (length 2.54)
        (name "D18/A4/SDA0" (effects (font (size 1.27 1.27))))
        (number "20" (effects (font (size 1.27 1.27))))
      )
      (pin bidirectional line (at 17.78 -1.27 180) (length 2.54)
        (name "D19/A5/SCL0" (effects (font (size 1.27 1.27))))
        (number "21" (effects (font (size 1.27 1.27))))
      )
      (pin bidirectional line (at 17.78 1.27 180) (length 2.54)
        (name "D20/A6" (effects (font (size 1.27 1.27))))
        (number "22" (effects (font (size 1.27 1.27))))
      )
      (pin bidirectional line (at 17.78 3.81 180) (length 2.54)
        (name "D21/A7" (effects (font (size 1.27 1.27))))
        (number "23" (effects (font (size 1.27 1.27))))
      )
      (pin bidirectional line (at 17.78 6.35 180) (length 2.54)
        (name "D22/A8" (effects (font (size 1.27 1.27))))
        (number "24" (effects (font (size 1.27 1.27))))
      )
      (pin bidirectional line (at 17.78 8.89 180) (length 2.54)
        (name "D23/A9" (effects (font (size 1.27 1.27))))
        (number "25" (effects (font (size 1.27 1.27))))
      )
      (pin power_in line (at 17.78 11.43 180) (length 2.54)
        (name "3.3V" (effects (font (size 1.27 1.27))))
        (number "26" (effects (font (size 1.27 1.27))))
      )
      (pin power_in line (at 17.78 13.97 180) (length 2.54)
        (name "AGND" (effects (font (size 1.27 1.27))))
        (number "27" (effects (font (size 1.27 1.27))))
      )
      (pin power_in line (at 17.78 16.51 180) (length 2.54)
        (name "VIN" (effects (font (size 1.27 1.27))))
        (number "28" (effects (font (size 1.27 1.27))))
      )
      (pin bidirectional line (at -17.78 11.43 0) (length 2.54)
        (name "D1/TX1" (effects (font (size 1.27 1.27))))
        (number "3" (effects (font (size 1.27 1.27))))
      )
      (pin bidirectional line (at -17.78 8.89 0) (length 2.54)
        (name "D2" (effects (font (size 1.27 1.27))))
        (number "4" (effects (font (size 1.27 1.27))))
      )
      (pin bidirectional line (at -17.78 6.35 0) (length 2.54)
        (name "D3/CAN_TX" (effects (font (size 1.27 1.27))))
        (number "5" (effects (font (size 1.27 1.27))))
      )
      (pin bidirectional line (at -17.78 3.81 0) (length 2.54)
        (name "D4/CAN_RX" (effects (font (size 1.27 1.27))))
        (number "6" (effects (font (size 1.27 1.27))))
      )
      (pin bidirectional line (at -17.78 1.27 0) (length 2.54)
        (name "D5" (effects (font (size 1.27 1.27))))
        (number "7" (effects (font (size 1.27 1.27))))
      )
      (pin bidirectional line (at -17.78 -1.27 0) (length 2.54)
        (name "D6" (effects (font (size 1.27 1.27))))
        (number "8" (effects (font (size 1.27 1.27))))
      )
      (pin bidirectional line (at -17.78 -3.81 0) (length 2.54)
        (name "D7/RX3" (effects (font (size 1.27 1.27))))
        (number "9" (effects (font (size 1.27 1.27))))
      )
    )
  )
  (symbol "Traco_Power_Module" (pin_numbers hide) (pin_names (offset 1.016)) (in_bom yes) (on_board yes)
    (property "Reference" "M" (id 0) (at -2.54 5.08 0)
      (effects (font (size 1.27 1.27)))
    )
    (property "Value" "Traco_Power_Module" (id 1) (at 0 7.62 0)
      (effects (font (size 1.27 1.27)))
    )
    (property "Footprint" "" (id 2) (at 0 0 0)
      (effects (font (size 0.508 0.508)) hide)
    )
    (property "Datasheet" "" (id 3) (at 0 0 0)
      (effects (font (size 0.508 0.508)) hide)
    )
    (symbol "Traco_Power_Module_0_1"
      (rectangle (start -2.54 -5.08) (end 5.08 5.08)
        (stroke (width 0) (type default) (color 0 0 0 0))
        (fill (type none))
      )
    )
    (symbol "Traco_Power_Module_1_1"
      (pin power_in line (at -5.08 2.54 0) (length 2.54)
        (name "VIN" (effects (font (size 1.27 1.27))))
        (number "1" (effects (font (size 1.27 1.27))))
      )
      (pin power_out line (at -5.08 0 0) (length 2.54)
        (name "GND" (effects (font (size 1.27 1.27))))
        (number "2" (effects (font (size 1.27 1.27))))
      )
      (pin power_out line (at -5.08 -2.54 0) (length 2.54)
        (name "VOUT" (effects (font (size 1.27 1.27))))
        (number "3" (effects (font (size 1.27 1.27))))
      )
    )
  )
  (symbol "XBee" (pin_names (offset 1.016)) (in_bom yes) (on_board yes)
    (property "Reference" "M" (id 0) (at -15.24 17.78 0)
      (effects (font (size 1.524 1.524)))
    )
    (property "Value" "XBee" (id 1) (at 12.7 17.78 0)
      (effects (font (size 1.524 1.524)))
    )
    (property "Footprint" "" (id 2) (at -2.794 2.286 0)
      (effects (font (size 1.524 1.524)) hide)
    )
    (property "Datasheet" "" (id 3) (at -2.794 2.286 0)
      (effects (font (size 1.524 1.524)) hide)
    )
    (symbol "XBee_0_1"
      (polyline
        (pts
          (xy -15.24 -15.24)
          (xy -15.24 12.7)
          (xy -5.08 17.78)
          (xy 5.08 17.78)
          (xy 15.24 12.7)
          (xy 15.24 -15.24)
          (xy -15.24 -15.24)
        )
        (stroke (width 0) (type default) (color 0 0 0 0))
        (fill (type none))
      )
    )
    (symbol "XBee_1_1"
      (pin power_in line (at -17.78 10.16 0) (length 2.54)
        (name "VCC" (effects (font (size 1.27 1.27))))
        (number "1" (effects (font (size 1.27 1.27))))
      )
      (pin bidirectional line (at -17.78 -12.7 0) (length 2.54)
        (name "GND" (effects (font (size 1.27 1.27))))
        (number "10" (effects (font (size 1.27 1.27))))
      )
      (pin bidirectional line (at 17.78 -12.7 180) (length 2.54)
        (name "AD4/DIO4" (effects (font (size 1.27 1.27))))
        (number "11" (effects (font (size 1.27 1.27))))
      )
      (pin bidirectional line (at 17.78 -10.16 180) (length 2.54)
        (name "~{CTS}/DIO7" (effects (font (size 1.27 1.27))))
        (number "12" (effects (font (size 1.27 1.27))))
      )
      (pin bidirectional line (at 17.78 -7.62 180) (length 2.54)
        (name "ON/~{SLEEP}" (effects (font (size 1.27 1.27))))
        (number "13" (effects (font (size 1.27 1.27))))
      )
      (pin bidirectional line (at 17.78 -5.08 180) (length 2.54)
        (name "VREF" (effects (font (size 1.27 1.27))))
        (number "14" (effects (font (size 1.27 1.27))))
      )
      (pin bidirectional line (at 17.78 -2.54 180) (length 2.54)
        (name "ASSOC/AD5/DIO5" (effects (font (size 1.27 1.27))))
        (number "15" (effects (font (size 1.27 1.27))))
      )
      (pin bidirectional line (at 17.78 0 180) (length 2.54)
        (name "~{RTS}/AD6/DIO6" (effects (font (size 1.27 1.27))))
        (number "16" (effects (font (size 1.27 1.27))))
      )
      (pin bidirectional line (at 17.78 2.54 180) (length 2.54)
        (name "AD3/DIO3" (effects (font (size 1.27 1.27))))
        (number "17" (effects (font (size 1.27 1.27))))
      )
      (pin bidirectional line (at 17.78 5.08 180) (length 2.54)
        (name "AD2/DIO2" (effects (font (size 1.27 1.27))))
        (number "18" (effects (font (size 1.27 1.27))))
      )
      (pin bidirectional line (at 17.78 10.16 180) (length 2.54)
        (name "AD1/DIO1" (effects (font (size 1.27 1.27))))
        (number "19" (effects (font (size 1.27 1.27))))
      )
      (pin bidirectional line (at -17.78 7.62 0) (length 2.54)
        (name "DOUT" (effects (font (size 1.27 1.27))))
        (number "2" (effects (font (size 1.27 1.27))))
      )
      (pin bidirectional line (at 17.78 7.62 180) (length 2.54)
        (name "AD0/DIO0" (effects (font (size 1.27 1.27))))
        (number "20" (effects (font (size 1.27 1.27))))
      )
      (pin bidirectional line (at -17.78 5.08 0) (length 2.54)
        (name "DIN/~{CONFIG}" (effects (font (size 1.27 1.27))))
        (number "3" (effects (font (size 1.27 1.27))))
      )
      (pin bidirectional line (at -17.78 2.54 0) (length 2.54)
        (name "D08" (effects (font (size 1.27 1.27))))
        (number "4" (effects (font (size 1.27 1.27))))
      )
      (pin input line (at -17.78 0 0) (length 2.54)
        (name "~{RESET}" (effects (font (size 1.27 1.27))))
        (number "5" (effects (font (size 1.27 1.27))))
      )
      (pin bidirectional line (at -17.78 -2.54 0) (length 2.54)
        (name "PWM0/RSSI" (effects (font (size 1.27 1.27))))
        (number "6" (effects (font (size 1.27 1.27))))
      )
      (pin bidirectional line (at -17.78 -5.08 0) (length 2.54)
        (name "PWM1" (effects (font (size 1.27 1.27))))
        (number "7" (effects (font (size 1.27 1.27))))
      )
      (pin bidirectional line (at -17.78 -7.62 0) (length 2.54)
        (name "RESERVED" (effects (font (size 1.27 1.27))))
        (number "8" (effects (font (size 1.27 1.27))))
      )
      (pin bidirectional line (at -17.78 -10.16 0) (length 2.54)
        (name "~{DTR}/SLEEP_RQ/DI8" (effects (font (size 1.27 1.27))))
        (number "9" (effects (font (size 1.27 1.27))))
      )
    )
  )
)
