(kicad_symbol_lib (version 20211014) (generator kicad_symbol_editor)
  (symbol "SPDT" (pin_numbers hide) (pin_names (offset 0) hide) (in_bom yes) (on_board yes)
    (property "Reference" "SW" (id 0) (at 0.254 -2.667 0)
      (effects (font (size 1.524 1.524)))
    )
    (property "Value" "SPDT" (id 1) (at 0 0 0)
      (effects (font (size 1.524 1.524)) hide)
    )
    (property "Footprint" "" (id 2) (at 0 0 0)
      (effects (font (size 1.524 1.524)) hide)
    )
    (property "Datasheet" "" (id 3) (at 0 0 0)
      (effects (font (size 1.524 1.524)) hide)
    )
    (symbol "SPDT_0_1"
      (rectangle (start -1.27 -1.27) (end 1.27 1.27)
        (stroke (width 0) (type default) (color 0 0 0 0))
        (fill (type none))
      )
      (polyline
        (pts
          (xy -1.27 -0.762)
          (xy -0.508 -0.762)
        )
        (stroke (width 0) (type default) (color 0 0 0 0))
        (fill (type none))
      )
      (polyline
        (pts
          (xy -1.27 0.762)
          (xy -0.508 0.762)
        )
        (stroke (width 0) (type default) (color 0 0 0 0))
        (fill (type none))
      )
      (polyline
        (pts
          (xy 1.27 0)
          (xy 0.508 0)
          (xy -0.508 -0.381)
        )
        (stroke (width 0) (type default) (color 0 0 0 0))
        (fill (type none))
      )
    )
    (symbol "SPDT_1_1"
      (pin bidirectional line (at -2.54 -0.762 0) (length 1.2446)
        (name "1" (effects (font (size 1.27 1.27))))
        (number "1" (effects (font (size 1.27 1.27))))
      )
      (pin bidirectional line (at -2.54 0.762 0) (length 1.2446)
        (name "2" (effects (font (size 1.27 1.27))))
        (number "2" (effects (font (size 1.27 1.27))))
      )
      (pin bidirectional line (at 2.54 0 180) (length 1.2446)
        (name "3" (effects (font (size 1.27 1.27))))
        (number "3" (effects (font (size 1.27 1.27))))
      )
    )
  )
  (symbol "SPST" (pin_numbers hide) (pin_names (offset 0) hide) (in_bom yes) (on_board yes)
    (property "Reference" "SW" (id 0) (at 0.254 -2.413 0)
      (effects (font (size 1.524 1.524)))
    )
    (property "Value" "SPST" (id 1) (at 0 0 0)
      (effects (font (size 1.524 1.524)) hide)
    )
    (property "Footprint" "" (id 2) (at 0 0 0)
      (effects (font (size 1.524 1.524)) hide)
    )
    (property "Datasheet" "" (id 3) (at 0 0 0)
      (effects (font (size 1.524 1.524)) hide)
    )
    (symbol "SPST_0_1"
      (rectangle (start -1.27 -1.016) (end 1.27 1.016)
        (stroke (width 0) (type default) (color 0 0 0 0))
        (fill (type none))
      )
      (polyline
        (pts
          (xy 1.27 0)
          (xy 0.508 0)
        )
        (stroke (width 0) (type default) (color 0 0 0 0))
        (fill (type none))
      )
      (polyline
        (pts
          (xy -1.27 0)
          (xy -0.508 0)
          (xy 0.508 0.508)
        )
        (stroke (width 0) (type default) (color 0 0 0 0))
        (fill (type none))
      )
    )
    (symbol "SPST_1_1"
      (pin bidirectional line (at -2.54 0 0) (length 1.2446)
        (name "1" (effects (font (size 1.27 1.27))))
        (number "1" (effects (font (size 1.27 1.27))))
      )
      (pin bidirectional line (at 2.54 0 180) (length 1.2446)
        (name "2" (effects (font (size 1.27 1.27))))
        (number "2" (effects (font (size 1.27 1.27))))
      )
    )
  )
)
