(kicad_symbol_lib (version 20211014) (generator kicad_symbol_editor)
  (symbol "ADM8829" (in_bom yes) (on_board yes)
    (property "Reference" "U" (id 0) (at -6.35 6.35 0)
      (effects (font (size 1.27 1.27)))
    )
    (property "Value" "ADM8829" (id 1) (at 13.97 -12.7 0)
      (effects (font (size 1.27 1.27)) hide)
    )
    (property "Footprint" "" (id 2) (at -2.54 5.08 0)
      (effects (font (size 1.27 1.27)) hide)
    )
    (property "Datasheet" "" (id 3) (at -2.54 5.08 0)
      (effects (font (size 1.27 1.27)) hide)
    )
    (symbol "ADM8829_0_0"
      (rectangle (start -7.62 5.08) (end 7.62 -7.62)
        (stroke (width 0) (type default) (color 0 0 0 0))
        (fill (type none))
      )
      (text "ADM8829" (at 0 0 0)
        (effects (font (size 1.27 1.27)))
      )
    )
    (symbol "ADM8829_1_1"
      (pin power_out line (at 10.16 2.54 180) (length 2.54)
        (name "OUT" (effects (font (size 1.27 1.27))))
        (number "1" (effects (font (size 1.27 1.27))))
      )
      (pin power_in line (at -10.16 2.54 0) (length 2.54)
        (name "IN" (effects (font (size 1.27 1.27))))
        (number "2" (effects (font (size 1.27 1.27))))
      )
      (pin unspecified line (at -10.16 -5.08 0) (length 2.54)
        (name "CAP-" (effects (font (size 1.27 1.27))))
        (number "3" (effects (font (size 1.27 1.27))))
      )
      (pin power_in line (at 10.16 -5.08 180) (length 2.54)
        (name "GND" (effects (font (size 1.27 1.27))))
        (number "4" (effects (font (size 1.27 1.27))))
      )
      (pin unspecified line (at 10.16 -2.54 180) (length 2.54)
        (name "NC" (effects (font (size 1.27 1.27))))
        (number "5" (effects (font (size 1.27 1.27))))
      )
      (pin unspecified line (at -10.16 -2.54 0) (length 2.54)
        (name "CAP+" (effects (font (size 1.27 1.27))))
        (number "6" (effects (font (size 1.27 1.27))))
      )
    )
  )
  (symbol "ADP123" (in_bom yes) (on_board yes)
    (property "Reference" "U" (id 0) (at -5.08 5.08 0)
      (effects (font (size 1.27 1.27)))
    )
    (property "Value" "ADP123" (id 1) (at 1.27 5.08 0)
      (effects (font (size 1.27 1.27)))
    )
    (property "Footprint" "" (id 2) (at 0 0 0)
      (effects (font (size 1.27 1.27)) hide)
    )
    (property "Datasheet" "" (id 3) (at 0 0 0)
      (effects (font (size 1.27 1.27)) hide)
    )
    (symbol "ADP123_0_1"
      (polyline
        (pts
          (xy -5.08 3.81)
          (xy -5.08 -3.81)
          (xy 5.08 -3.81)
          (xy 5.08 3.81)
          (xy -5.08 3.81)
        )
        (stroke (width 0) (type default) (color 0 0 0 0))
        (fill (type none))
      )
    )
    (symbol "ADP123_1_1"
      (pin power_in line (at -7.62 -2.54 0) (length 2.54)
        (name "GND" (effects (font (size 1.27 1.27))))
        (number "" (effects (font (size 1.27 1.27))))
      )
      (pin power_in line (at -7.62 2.54 0) (length 2.54)
        (name "VIN" (effects (font (size 1.27 1.27))))
        (number "1" (effects (font (size 1.27 1.27))))
      )
      (pin input line (at -7.62 0 0) (length 2.54)
        (name "EN" (effects (font (size 1.27 1.27))))
        (number "3" (effects (font (size 1.27 1.27))))
      )
      (pin input line (at 7.62 -2.54 180) (length 2.54)
        (name "ADJ" (effects (font (size 1.27 1.27))))
        (number "4" (effects (font (size 1.27 1.27))))
      )
      (pin power_out line (at 7.62 2.54 180) (length 2.54)
        (name "VOUT" (effects (font (size 1.27 1.27))))
        (number "5" (effects (font (size 1.27 1.27))))
      )
    )
  )
  (symbol "LinearReg_3Pin" (in_bom yes) (on_board yes)
    (property "Reference" "U" (id 0) (at -3.81 5.08 0)
      (effects (font (size 1.27 1.27)))
    )
    (property "Value" "LinearReg_3Pin" (id 1) (at 2.54 5.08 0)
      (effects (font (size 1.27 1.27)) hide)
    )
    (property "Footprint" "" (id 2) (at 0 0 0)
      (effects (font (size 1.27 1.27)) hide)
    )
    (property "Datasheet" "" (id 3) (at 0 0 0)
      (effects (font (size 1.27 1.27)) hide)
    )
    (symbol "LinearReg_3Pin_0_0"
      (text "Linear Regulator" (at 0 2.54 0)
        (effects (font (size 0.8 0.8)))
      )
    )
    (symbol "LinearReg_3Pin_0_1"
      (rectangle (start -5.08 3.81) (end 5.08 -5.08)
        (stroke (width 0) (type default) (color 0 0 0 0))
        (fill (type none))
      )
    )
    (symbol "LinearReg_3Pin_1_1"
      (pin power_in line (at 0 -7.62 90) (length 2.54)
        (name "GND" (effects (font (size 1.27 1.27))))
        (number "1" (effects (font (size 1.27 1.27))))
      )
      (pin power_out line (at 7.62 0 180) (length 2.54)
        (name "VOUT" (effects (font (size 1.27 1.27))))
        (number "2" (effects (font (size 1.27 1.27))))
      )
      (pin power_in line (at -7.62 0 0) (length 2.54)
        (name "VIN" (effects (font (size 1.27 1.27))))
        (number "3" (effects (font (size 1.27 1.27))))
      )
    )
  )
  (symbol "MP2451" (in_bom yes) (on_board yes)
    (property "Reference" "U" (id 0) (at -6.35 5.08 0)
      (effects (font (size 1.27 1.27)))
    )
    (property "Value" "MP2451" (id 1) (at 3.81 5.08 0)
      (effects (font (size 1.27 1.27)) hide)
    )
    (property "Footprint" "" (id 2) (at 0 0 0)
      (effects (font (size 1.27 1.27)) hide)
    )
    (property "Datasheet" "" (id 3) (at 0 0 0)
      (effects (font (size 1.27 1.27)) hide)
    )
    (symbol "MP2451_0_0"
      (text "MP2451" (at 0 2.54 0)
        (effects (font (size 1.27 1.27)))
      )
    )
    (symbol "MP2451_0_1"
      (rectangle (start -7.62 -3.81) (end 7.62 3.81)
        (stroke (width 0) (type default) (color 0 0 0 0))
        (fill (type none))
      )
    )
    (symbol "MP2451_1_1"
      (pin unspecified line (at 10.16 2.54 180) (length 2.54)
        (name "BST" (effects (font (size 1.27 1.27))))
        (number "1" (effects (font (size 1.27 1.27))))
      )
      (pin power_in line (at 0 -6.35 90) (length 2.54)
        (name "GND" (effects (font (size 1.27 1.27))))
        (number "2" (effects (font (size 1.27 1.27))))
      )
      (pin input line (at 10.16 -2.54 180) (length 2.54)
        (name "FB" (effects (font (size 1.27 1.27))))
        (number "3" (effects (font (size 1.27 1.27))))
      )
      (pin input line (at -10.16 -2.54 0) (length 2.54)
        (name "EN" (effects (font (size 1.27 1.27))))
        (number "4" (effects (font (size 1.27 1.27))))
      )
      (pin power_in line (at -10.16 2.54 0) (length 2.54)
        (name "IN" (effects (font (size 1.27 1.27))))
        (number "5" (effects (font (size 1.27 1.27))))
      )
      (pin power_out line (at 10.16 0 180) (length 2.54)
        (name "SW" (effects (font (size 1.27 1.27))))
        (number "6" (effects (font (size 1.27 1.27))))
      )
    )
  )
  (symbol "SN74LVC3G17" (in_bom yes) (on_board yes)
    (property "Reference" "U" (id 0) (at -5.08 8.89 0)
      (effects (font (size 1.27 1.27)))
    )
    (property "Value" "SN74LVC3G17" (id 1) (at 0 6.35 0)
      (effects (font (size 1.27 1.27)))
    )
    (property "Footprint" "" (id 2) (at 0 2.54 0)
      (effects (font (size 1.27 1.27)) hide)
    )
    (property "Datasheet" "" (id 3) (at 0 2.54 0)
      (effects (font (size 1.27 1.27)) hide)
    )
    (symbol "SN74LVC3G17_0_1"
      (rectangle (start -5.08 -5.08) (end 5.08 5.08)
        (stroke (width 0) (type default) (color 0 0 0 0))
        (fill (type none))
      )
      (polyline
        (pts
          (xy -0.508 -1.27)
          (xy -1.778 -1.27)
        )
        (stroke (width 0) (type default) (color 0 0 0 0))
        (fill (type none))
      )
      (polyline
        (pts
          (xy -0.508 3.81)
          (xy -2.032 3.81)
        )
        (stroke (width 0) (type default) (color 0 0 0 0))
        (fill (type none))
      )
      (polyline
        (pts
          (xy 0.508 -1.27)
          (xy 1.778 -1.27)
        )
        (stroke (width 0) (type default) (color 0 0 0 0))
        (fill (type none))
      )
      (polyline
        (pts
          (xy 0.508 1.27)
          (xy 2.032 1.27)
        )
        (stroke (width 0) (type default) (color 0 0 0 0))
        (fill (type none))
      )
      (polyline
        (pts
          (xy -0.508 -0.762)
          (xy -0.508 -1.778)
          (xy 0.508 -1.27)
          (xy -0.508 -0.762)
        )
        (stroke (width 0) (type default) (color 0 0 0 0))
        (fill (type none))
      )
      (polyline
        (pts
          (xy -1.778 1.27)
          (xy -0.508 1.27)
          (xy 0.508 1.778)
          (xy 0.508 0.762)
          (xy -0.508 1.27)
        )
        (stroke (width 0) (type default) (color 0 0 0 0))
        (fill (type none))
      )
      (polyline
        (pts
          (xy 1.778 3.81)
          (xy 0.508 3.81)
          (xy -0.508 4.318)
          (xy -0.508 3.302)
          (xy 0.508 3.81)
        )
        (stroke (width 0) (type default) (color 0 0 0 0))
        (fill (type none))
      )
    )
    (symbol "SN74LVC3G17_1_1"
      (pin input line (at -7.62 3.81 0) (length 2.54)
        (name "1A" (effects (font (size 1.27 1.27))))
        (number "1" (effects (font (size 1.27 1.27))))
      )
      (pin input line (at -7.62 1.27 0) (length 2.54)
        (name "3Y" (effects (font (size 1.27 1.27))))
        (number "2" (effects (font (size 1.27 1.27))))
      )
      (pin input line (at -7.62 -1.27 0) (length 2.54)
        (name "2A" (effects (font (size 1.27 1.27))))
        (number "3" (effects (font (size 1.27 1.27))))
      )
      (pin power_in line (at 7.62 -3.81 180) (length 2.54)
        (name "GND" (effects (font (size 1.27 1.27))))
        (number "4" (effects (font (size 1.27 1.27))))
      )
      (pin input line (at 7.62 -1.27 180) (length 2.54)
        (name "2Y" (effects (font (size 1.27 1.27))))
        (number "5" (effects (font (size 1.27 1.27))))
      )
      (pin input line (at 7.62 1.27 180) (length 2.54)
        (name "3A" (effects (font (size 1.27 1.27))))
        (number "6" (effects (font (size 1.27 1.27))))
      )
      (pin input line (at 7.62 3.81 180) (length 2.54)
        (name "1Y" (effects (font (size 1.27 1.27))))
        (number "7" (effects (font (size 1.27 1.27))))
      )
      (pin input line (at -7.62 -3.81 0) (length 2.54)
        (name "VCC" (effects (font (size 1.27 1.27))))
        (number "8" (effects (font (size 1.27 1.27))))
      )
    )
  )
)
