ISO-10303-21;
HEADER;
/* Generated by software containing ST-Developer
 * from STEP Tools, Inc. (www.steptools.com) 
 */

FILE_DESCRIPTION(
/* description */ (''),
/* implementation_level */ '2;1');

FILE_NAME(
/* name */ 'D:/KiCad Libraries/Switches.pretty/rockerSwitch v2.step',
/* time_stamp */ '2022-08-26T15:10:03-04:00',
/* author */ (''),
/* organization */ (''),
/* preprocessor_version */ 'ST-DEVELOPER v19',
/* originating_system */ 'Autodesk Translation Framework v11.7.0.108',
/* authorisation */ '');

FILE_SCHEMA (('AUTOMOTIVE_DESIGN { 1 0 10303 214 3 1 1 }'));
ENDSEC;

DATA;
#10=MECHANICAL_DESIGN_GEOMETRIC_PRESENTATION_REPRESENTATION('',(#13,#14),
#1442);
#11=SHAPE_REPRESENTATION_RELATIONSHIP('SRR','None',#1449,#12);
#12=ADVANCED_BREP_SHAPE_REPRESENTATION('',(#15,#16),#1441);
#13=STYLED_ITEM('',(#1458),#15);
#14=STYLED_ITEM('',(#1458),#16);
#15=MANIFOLD_SOLID_BREP('Body1',#901);
#16=MANIFOLD_SOLID_BREP('Body2',#902);
#17=FACE_BOUND('',#122,.T.);
#18=FACE_BOUND('',#123,.T.);
#19=FACE_BOUND('',#124,.T.);
#20=FACE_BOUND('',#130,.T.);
#21=FACE_BOUND('',#131,.T.);
#22=FACE_BOUND('',#164,.T.);
#23=FACE_BOUND('',#165,.T.);
#24=FACE_BOUND('',#166,.T.);
#25=PLANE('',#922);
#26=PLANE('',#923);
#27=PLANE('',#924);
#28=PLANE('',#925);
#29=PLANE('',#926);
#30=PLANE('',#927);
#31=PLANE('',#928);
#32=PLANE('',#929);
#33=PLANE('',#930);
#34=PLANE('',#931);
#35=PLANE('',#932);
#36=PLANE('',#933);
#37=PLANE('',#934);
#38=PLANE('',#935);
#39=PLANE('',#936);
#40=PLANE('',#937);
#41=PLANE('',#938);
#42=PLANE('',#939);
#43=PLANE('',#940);
#44=PLANE('',#941);
#45=PLANE('',#942);
#46=PLANE('',#943);
#47=PLANE('',#944);
#48=PLANE('',#945);
#49=PLANE('',#946);
#50=PLANE('',#947);
#51=PLANE('',#948);
#52=PLANE('',#949);
#53=PLANE('',#950);
#54=PLANE('',#951);
#55=PLANE('',#952);
#56=PLANE('',#953);
#57=PLANE('',#954);
#58=PLANE('',#955);
#59=PLANE('',#956);
#60=PLANE('',#957);
#61=PLANE('',#958);
#62=PLANE('',#959);
#63=PLANE('',#960);
#64=PLANE('',#961);
#65=PLANE('',#962);
#66=PLANE('',#963);
#67=PLANE('',#964);
#68=PLANE('',#965);
#69=PLANE('',#966);
#70=PLANE('',#967);
#71=FACE_OUTER_BOUND('',#119,.T.);
#72=FACE_OUTER_BOUND('',#120,.T.);
#73=FACE_OUTER_BOUND('',#121,.T.);
#74=FACE_OUTER_BOUND('',#125,.T.);
#75=FACE_OUTER_BOUND('',#126,.T.);
#76=FACE_OUTER_BOUND('',#127,.T.);
#77=FACE_OUTER_BOUND('',#128,.T.);
#78=FACE_OUTER_BOUND('',#129,.T.);
#79=FACE_OUTER_BOUND('',#132,.T.);
#80=FACE_OUTER_BOUND('',#133,.T.);
#81=FACE_OUTER_BOUND('',#134,.T.);
#82=FACE_OUTER_BOUND('',#135,.T.);
#83=FACE_OUTER_BOUND('',#136,.T.);
#84=FACE_OUTER_BOUND('',#137,.T.);
#85=FACE_OUTER_BOUND('',#138,.T.);
#86=FACE_OUTER_BOUND('',#139,.T.);
#87=FACE_OUTER_BOUND('',#140,.T.);
#88=FACE_OUTER_BOUND('',#141,.T.);
#89=FACE_OUTER_BOUND('',#142,.T.);
#90=FACE_OUTER_BOUND('',#143,.T.);
#91=FACE_OUTER_BOUND('',#144,.T.);
#92=FACE_OUTER_BOUND('',#145,.T.);
#93=FACE_OUTER_BOUND('',#146,.T.);
#94=FACE_OUTER_BOUND('',#147,.T.);
#95=FACE_OUTER_BOUND('',#148,.T.);
#96=FACE_OUTER_BOUND('',#149,.T.);
#97=FACE_OUTER_BOUND('',#150,.T.);
#98=FACE_OUTER_BOUND('',#151,.T.);
#99=FACE_OUTER_BOUND('',#152,.T.);
#100=FACE_OUTER_BOUND('',#153,.T.);
#101=FACE_OUTER_BOUND('',#154,.T.);
#102=FACE_OUTER_BOUND('',#155,.T.);
#103=FACE_OUTER_BOUND('',#156,.T.);
#104=FACE_OUTER_BOUND('',#157,.T.);
#105=FACE_OUTER_BOUND('',#158,.T.);
#106=FACE_OUTER_BOUND('',#159,.T.);
#107=FACE_OUTER_BOUND('',#160,.T.);
#108=FACE_OUTER_BOUND('',#161,.T.);
#109=FACE_OUTER_BOUND('',#162,.T.);
#110=FACE_OUTER_BOUND('',#163,.T.);
#111=FACE_OUTER_BOUND('',#167,.T.);
#112=FACE_OUTER_BOUND('',#168,.T.);
#113=FACE_OUTER_BOUND('',#169,.T.);
#114=FACE_OUTER_BOUND('',#170,.T.);
#115=FACE_OUTER_BOUND('',#171,.T.);
#116=FACE_OUTER_BOUND('',#172,.T.);
#117=FACE_OUTER_BOUND('',#173,.T.);
#118=FACE_OUTER_BOUND('',#174,.T.);
#119=EDGE_LOOP('',(#611,#612,#613,#614));
#120=EDGE_LOOP('',(#615,#616,#617,#618));
#121=EDGE_LOOP('',(#619,#620,#621,#622));
#122=EDGE_LOOP('',(#623));
#123=EDGE_LOOP('',(#624));
#124=EDGE_LOOP('',(#625,#626,#627,#628));
#125=EDGE_LOOP('',(#629,#630,#631,#632));
#126=EDGE_LOOP('',(#633,#634,#635,#636));
#127=EDGE_LOOP('',(#637,#638,#639,#640));
#128=EDGE_LOOP('',(#641,#642,#643,#644));
#129=EDGE_LOOP('',(#645,#646,#647,#648));
#130=EDGE_LOOP('',(#649));
#131=EDGE_LOOP('',(#650));
#132=EDGE_LOOP('',(#651,#652,#653,#654,#655,#656,#657,#658));
#133=EDGE_LOOP('',(#659,#660,#661,#662));
#134=EDGE_LOOP('',(#663,#664,#665,#666));
#135=EDGE_LOOP('',(#667,#668,#669,#670));
#136=EDGE_LOOP('',(#671,#672,#673,#674));
#137=EDGE_LOOP('',(#675,#676,#677,#678));
#138=EDGE_LOOP('',(#679,#680,#681,#682));
#139=EDGE_LOOP('',(#683,#684,#685,#686));
#140=EDGE_LOOP('',(#687,#688,#689,#690,#691,#692,#693,#694));
#141=EDGE_LOOP('',(#695,#696,#697,#698,#699,#700,#701,#702));
#142=EDGE_LOOP('',(#703,#704,#705,#706));
#143=EDGE_LOOP('',(#707,#708,#709,#710));
#144=EDGE_LOOP('',(#711,#712,#713,#714));
#145=EDGE_LOOP('',(#715,#716,#717,#718));
#146=EDGE_LOOP('',(#719,#720,#721,#722));
#147=EDGE_LOOP('',(#723,#724,#725,#726));
#148=EDGE_LOOP('',(#727,#728,#729,#730));
#149=EDGE_LOOP('',(#731,#732,#733,#734,#735,#736,#737,#738));
#150=EDGE_LOOP('',(#739,#740,#741,#742,#743,#744,#745,#746));
#151=EDGE_LOOP('',(#747,#748,#749,#750));
#152=EDGE_LOOP('',(#751,#752,#753,#754));
#153=EDGE_LOOP('',(#755,#756,#757,#758));
#154=EDGE_LOOP('',(#759,#760,#761,#762));
#155=EDGE_LOOP('',(#763,#764,#765,#766));
#156=EDGE_LOOP('',(#767,#768,#769,#770));
#157=EDGE_LOOP('',(#771,#772,#773,#774));
#158=EDGE_LOOP('',(#775,#776,#777,#778,#779,#780,#781,#782));
#159=EDGE_LOOP('',(#783,#784,#785,#786));
#160=EDGE_LOOP('',(#787,#788,#789,#790));
#161=EDGE_LOOP('',(#791,#792,#793,#794));
#162=EDGE_LOOP('',(#795,#796,#797,#798));
#163=EDGE_LOOP('',(#799,#800,#801,#802));
#164=EDGE_LOOP('',(#803,#804,#805,#806));
#165=EDGE_LOOP('',(#807,#808,#809,#810));
#166=EDGE_LOOP('',(#811,#812,#813,#814));
#167=EDGE_LOOP('',(#815,#816,#817,#818,#819,#820));
#168=EDGE_LOOP('',(#821,#822,#823,#824));
#169=EDGE_LOOP('',(#825,#826,#827,#828));
#170=EDGE_LOOP('',(#829,#830,#831,#832));
#171=EDGE_LOOP('',(#833,#834,#835,#836));
#172=EDGE_LOOP('',(#837,#838,#839,#840));
#173=EDGE_LOOP('',(#841,#842,#843,#844));
#174=EDGE_LOOP('',(#845,#846,#847,#848,#849,#850));
#175=LINE('',#1195,#291);
#176=LINE('',#1201,#292);
#177=LINE('',#1206,#293);
#178=LINE('',#1208,#294);
#179=LINE('',#1210,#295);
#180=LINE('',#1211,#296);
#181=LINE('',#1214,#297);
#182=LINE('',#1216,#298);
#183=LINE('',#1218,#299);
#184=LINE('',#1219,#300);
#185=LINE('',#1222,#301);
#186=LINE('',#1224,#302);
#187=LINE('',#1225,#303);
#188=LINE('',#1228,#304);
#189=LINE('',#1229,#305);
#190=LINE('',#1232,#306);
#191=LINE('',#1233,#307);
#192=LINE('',#1235,#308);
#193=LINE('',#1240,#309);
#194=LINE('',#1242,#310);
#195=LINE('',#1244,#311);
#196=LINE('',#1246,#312);
#197=LINE('',#1248,#313);
#198=LINE('',#1250,#314);
#199=LINE('',#1252,#315);
#200=LINE('',#1253,#316);
#201=LINE('',#1256,#317);
#202=LINE('',#1258,#318);
#203=LINE('',#1259,#319);
#204=LINE('',#1262,#320);
#205=LINE('',#1263,#321);
#206=LINE('',#1266,#322);
#207=LINE('',#1268,#323);
#208=LINE('',#1269,#324);
#209=LINE('',#1272,#325);
#210=LINE('',#1273,#326);
#211=LINE('',#1276,#327);
#212=LINE('',#1277,#328);
#213=LINE('',#1280,#329);
#214=LINE('',#1281,#330);
#215=LINE('',#1283,#331);
#216=LINE('',#1285,#332);
#217=LINE('',#1289,#333);
#218=LINE('',#1291,#334);
#219=LINE('',#1293,#335);
#220=LINE('',#1295,#336);
#221=LINE('',#1297,#337);
#222=LINE('',#1299,#338);
#223=LINE('',#1301,#339);
#224=LINE('',#1302,#340);
#225=LINE('',#1305,#341);
#226=LINE('',#1307,#342);
#227=LINE('',#1308,#343);
#228=LINE('',#1311,#344);
#229=LINE('',#1312,#345);
#230=LINE('',#1315,#346);
#231=LINE('',#1317,#347);
#232=LINE('',#1318,#348);
#233=LINE('',#1321,#349);
#234=LINE('',#1322,#350);
#235=LINE('',#1325,#351);
#236=LINE('',#1326,#352);
#237=LINE('',#1329,#353);
#238=LINE('',#1330,#354);
#239=LINE('',#1332,#355);
#240=LINE('',#1334,#356);
#241=LINE('',#1338,#357);
#242=LINE('',#1340,#358);
#243=LINE('',#1342,#359);
#244=LINE('',#1344,#360);
#245=LINE('',#1346,#361);
#246=LINE('',#1348,#362);
#247=LINE('',#1350,#363);
#248=LINE('',#1351,#364);
#249=LINE('',#1354,#365);
#250=LINE('',#1356,#366);
#251=LINE('',#1357,#367);
#252=LINE('',#1360,#368);
#253=LINE('',#1361,#369);
#254=LINE('',#1364,#370);
#255=LINE('',#1366,#371);
#256=LINE('',#1367,#372);
#257=LINE('',#1370,#373);
#258=LINE('',#1371,#374);
#259=LINE('',#1374,#375);
#260=LINE('',#1375,#376);
#261=LINE('',#1378,#377);
#262=LINE('',#1379,#378);
#263=LINE('',#1381,#379);
#264=LINE('',#1383,#380);
#265=LINE('',#1387,#381);
#266=LINE('',#1388,#382);
#267=LINE('',#1389,#383);
#268=LINE('',#1392,#384);
#269=LINE('',#1393,#385);
#270=LINE('',#1396,#386);
#271=LINE('',#1397,#387);
#272=LINE('',#1399,#388);
#273=LINE('',#1404,#389);
#274=LINE('',#1406,#390);
#275=LINE('',#1408,#391);
#276=LINE('',#1410,#392);
#277=LINE('',#1412,#393);
#278=LINE('',#1413,#394);
#279=LINE('',#1416,#395);
#280=LINE('',#1418,#396);
#281=LINE('',#1419,#397);
#282=LINE('',#1422,#398);
#283=LINE('',#1423,#399);
#284=LINE('',#1426,#400);
#285=LINE('',#1427,#401);
#286=LINE('',#1430,#402);
#287=LINE('',#1431,#403);
#288=LINE('',#1434,#404);
#289=LINE('',#1435,#405);
#290=LINE('',#1437,#406);
#291=VECTOR('',#974,1.25);
#292=VECTOR('',#981,1.25);
#293=VECTOR('',#986,10.);
#294=VECTOR('',#987,10.);
#295=VECTOR('',#988,10.);
#296=VECTOR('',#989,10.);
#297=VECTOR('',#990,10.);
#298=VECTOR('',#991,10.);
#299=VECTOR('',#992,10.);
#300=VECTOR('',#993,10.);
#301=VECTOR('',#996,10.);
#302=VECTOR('',#997,10.);
#303=VECTOR('',#998,10.);
#304=VECTOR('',#1001,10.);
#305=VECTOR('',#1002,10.);
#306=VECTOR('',#1005,10.);
#307=VECTOR('',#1006,10.);
#308=VECTOR('',#1009,10.);
#309=VECTOR('',#1014,10.);
#310=VECTOR('',#1015,10.);
#311=VECTOR('',#1016,10.);
#312=VECTOR('',#1017,10.);
#313=VECTOR('',#1018,10.);
#314=VECTOR('',#1019,10.);
#315=VECTOR('',#1020,10.);
#316=VECTOR('',#1021,10.);
#317=VECTOR('',#1024,10.);
#318=VECTOR('',#1025,10.);
#319=VECTOR('',#1026,10.);
#320=VECTOR('',#1029,10.);
#321=VECTOR('',#1030,10.);
#322=VECTOR('',#1033,10.);
#323=VECTOR('',#1034,10.);
#324=VECTOR('',#1035,10.);
#325=VECTOR('',#1038,10.);
#326=VECTOR('',#1039,10.);
#327=VECTOR('',#1042,10.);
#328=VECTOR('',#1043,10.);
#329=VECTOR('',#1046,10.);
#330=VECTOR('',#1047,10.);
#331=VECTOR('',#1050,10.);
#332=VECTOR('',#1053,10.);
#333=VECTOR('',#1056,10.);
#334=VECTOR('',#1057,10.);
#335=VECTOR('',#1058,10.);
#336=VECTOR('',#1059,10.);
#337=VECTOR('',#1060,10.);
#338=VECTOR('',#1061,10.);
#339=VECTOR('',#1062,10.);
#340=VECTOR('',#1063,10.);
#341=VECTOR('',#1066,10.);
#342=VECTOR('',#1067,10.);
#343=VECTOR('',#1068,10.);
#344=VECTOR('',#1071,10.);
#345=VECTOR('',#1072,10.);
#346=VECTOR('',#1075,10.);
#347=VECTOR('',#1076,10.);
#348=VECTOR('',#1077,10.);
#349=VECTOR('',#1080,10.);
#350=VECTOR('',#1081,10.);
#351=VECTOR('',#1084,10.);
#352=VECTOR('',#1085,10.);
#353=VECTOR('',#1088,10.);
#354=VECTOR('',#1089,10.);
#355=VECTOR('',#1092,10.);
#356=VECTOR('',#1095,10.);
#357=VECTOR('',#1098,10.);
#358=VECTOR('',#1099,10.);
#359=VECTOR('',#1100,10.);
#360=VECTOR('',#1101,10.);
#361=VECTOR('',#1102,10.);
#362=VECTOR('',#1103,10.);
#363=VECTOR('',#1104,10.);
#364=VECTOR('',#1105,10.);
#365=VECTOR('',#1108,10.);
#366=VECTOR('',#1109,10.);
#367=VECTOR('',#1110,10.);
#368=VECTOR('',#1113,10.);
#369=VECTOR('',#1114,10.);
#370=VECTOR('',#1117,10.);
#371=VECTOR('',#1118,10.);
#372=VECTOR('',#1119,10.);
#373=VECTOR('',#1122,10.);
#374=VECTOR('',#1123,10.);
#375=VECTOR('',#1126,10.);
#376=VECTOR('',#1127,10.);
#377=VECTOR('',#1130,10.);
#378=VECTOR('',#1131,10.);
#379=VECTOR('',#1134,10.);
#380=VECTOR('',#1137,10.);
#381=VECTOR('',#1140,10.);
#382=VECTOR('',#1141,10.);
#383=VECTOR('',#1142,10.);
#384=VECTOR('',#1145,10.);
#385=VECTOR('',#1146,10.);
#386=VECTOR('',#1149,10.);
#387=VECTOR('',#1150,10.);
#388=VECTOR('',#1153,10.);
#389=VECTOR('',#1158,10.);
#390=VECTOR('',#1159,10.);
#391=VECTOR('',#1160,10.);
#392=VECTOR('',#1161,10.);
#393=VECTOR('',#1162,10.);
#394=VECTOR('',#1163,10.);
#395=VECTOR('',#1166,10.);
#396=VECTOR('',#1167,10.);
#397=VECTOR('',#1168,10.);
#398=VECTOR('',#1171,10.);
#399=VECTOR('',#1172,10.);
#400=VECTOR('',#1175,10.);
#401=VECTOR('',#1176,10.);
#402=VECTOR('',#1179,10.);
#403=VECTOR('',#1180,10.);
#404=VECTOR('',#1183,10.);
#405=VECTOR('',#1184,10.);
#406=VECTOR('',#1187,10.);
#407=CIRCLE('',#917,1.25);
#408=CIRCLE('',#918,1.25);
#409=CIRCLE('',#920,1.25);
#410=CIRCLE('',#921,1.25);
#411=VERTEX_POINT('',#1192);
#412=VERTEX_POINT('',#1194);
#413=VERTEX_POINT('',#1198);
#414=VERTEX_POINT('',#1200);
#415=VERTEX_POINT('',#1204);
#416=VERTEX_POINT('',#1205);
#417=VERTEX_POINT('',#1207);
#418=VERTEX_POINT('',#1209);
#419=VERTEX_POINT('',#1212);
#420=VERTEX_POINT('',#1213);
#421=VERTEX_POINT('',#1215);
#422=VERTEX_POINT('',#1217);
#423=VERTEX_POINT('',#1221);
#424=VERTEX_POINT('',#1223);
#425=VERTEX_POINT('',#1227);
#426=VERTEX_POINT('',#1231);
#427=VERTEX_POINT('',#1238);
#428=VERTEX_POINT('',#1239);
#429=VERTEX_POINT('',#1241);
#430=VERTEX_POINT('',#1243);
#431=VERTEX_POINT('',#1245);
#432=VERTEX_POINT('',#1247);
#433=VERTEX_POINT('',#1249);
#434=VERTEX_POINT('',#1251);
#435=VERTEX_POINT('',#1255);
#436=VERTEX_POINT('',#1257);
#437=VERTEX_POINT('',#1261);
#438=VERTEX_POINT('',#1265);
#439=VERTEX_POINT('',#1267);
#440=VERTEX_POINT('',#1271);
#441=VERTEX_POINT('',#1275);
#442=VERTEX_POINT('',#1279);
#443=VERTEX_POINT('',#1287);
#444=VERTEX_POINT('',#1288);
#445=VERTEX_POINT('',#1290);
#446=VERTEX_POINT('',#1292);
#447=VERTEX_POINT('',#1294);
#448=VERTEX_POINT('',#1296);
#449=VERTEX_POINT('',#1298);
#450=VERTEX_POINT('',#1300);
#451=VERTEX_POINT('',#1304);
#452=VERTEX_POINT('',#1306);
#453=VERTEX_POINT('',#1310);
#454=VERTEX_POINT('',#1314);
#455=VERTEX_POINT('',#1316);
#456=VERTEX_POINT('',#1320);
#457=VERTEX_POINT('',#1324);
#458=VERTEX_POINT('',#1328);
#459=VERTEX_POINT('',#1336);
#460=VERTEX_POINT('',#1337);
#461=VERTEX_POINT('',#1339);
#462=VERTEX_POINT('',#1341);
#463=VERTEX_POINT('',#1343);
#464=VERTEX_POINT('',#1345);
#465=VERTEX_POINT('',#1347);
#466=VERTEX_POINT('',#1349);
#467=VERTEX_POINT('',#1353);
#468=VERTEX_POINT('',#1355);
#469=VERTEX_POINT('',#1359);
#470=VERTEX_POINT('',#1363);
#471=VERTEX_POINT('',#1365);
#472=VERTEX_POINT('',#1369);
#473=VERTEX_POINT('',#1373);
#474=VERTEX_POINT('',#1377);
#475=VERTEX_POINT('',#1385);
#476=VERTEX_POINT('',#1386);
#477=VERTEX_POINT('',#1391);
#478=VERTEX_POINT('',#1395);
#479=VERTEX_POINT('',#1402);
#480=VERTEX_POINT('',#1403);
#481=VERTEX_POINT('',#1405);
#482=VERTEX_POINT('',#1407);
#483=VERTEX_POINT('',#1409);
#484=VERTEX_POINT('',#1411);
#485=VERTEX_POINT('',#1415);
#486=VERTEX_POINT('',#1417);
#487=VERTEX_POINT('',#1421);
#488=VERTEX_POINT('',#1425);
#489=VERTEX_POINT('',#1429);
#490=VERTEX_POINT('',#1433);
#491=EDGE_CURVE('',#411,#411,#407,.T.);
#492=EDGE_CURVE('',#411,#412,#175,.T.);
#493=EDGE_CURVE('',#412,#412,#408,.T.);
#494=EDGE_CURVE('',#413,#413,#409,.T.);
#495=EDGE_CURVE('',#413,#414,#176,.T.);
#496=EDGE_CURVE('',#414,#414,#410,.T.);
#497=EDGE_CURVE('',#415,#416,#177,.T.);
#498=EDGE_CURVE('',#416,#417,#178,.T.);
#499=EDGE_CURVE('',#417,#418,#179,.T.);
#500=EDGE_CURVE('',#418,#415,#180,.T.);
#501=EDGE_CURVE('',#419,#420,#181,.T.);
#502=EDGE_CURVE('',#420,#421,#182,.T.);
#503=EDGE_CURVE('',#421,#422,#183,.T.);
#504=EDGE_CURVE('',#422,#419,#184,.T.);
#505=EDGE_CURVE('',#416,#423,#185,.T.);
#506=EDGE_CURVE('',#424,#423,#186,.T.);
#507=EDGE_CURVE('',#417,#424,#187,.T.);
#508=EDGE_CURVE('',#425,#424,#188,.T.);
#509=EDGE_CURVE('',#418,#425,#189,.T.);
#510=EDGE_CURVE('',#426,#425,#190,.T.);
#511=EDGE_CURVE('',#415,#426,#191,.T.);
#512=EDGE_CURVE('',#423,#426,#192,.T.);
#513=EDGE_CURVE('',#427,#428,#193,.T.);
#514=EDGE_CURVE('',#428,#429,#194,.T.);
#515=EDGE_CURVE('',#429,#430,#195,.T.);
#516=EDGE_CURVE('',#431,#430,#196,.T.);
#517=EDGE_CURVE('',#431,#432,#197,.T.);
#518=EDGE_CURVE('',#432,#433,#198,.T.);
#519=EDGE_CURVE('',#433,#434,#199,.T.);
#520=EDGE_CURVE('',#434,#427,#200,.T.);
#521=EDGE_CURVE('',#435,#428,#201,.T.);
#522=EDGE_CURVE('',#436,#435,#202,.T.);
#523=EDGE_CURVE('',#429,#436,#203,.T.);
#524=EDGE_CURVE('',#437,#436,#204,.T.);
#525=EDGE_CURVE('',#430,#437,#205,.T.);
#526=EDGE_CURVE('',#438,#431,#206,.T.);
#527=EDGE_CURVE('',#439,#438,#207,.T.);
#528=EDGE_CURVE('',#432,#439,#208,.T.);
#529=EDGE_CURVE('',#440,#439,#209,.T.);
#530=EDGE_CURVE('',#433,#440,#210,.T.);
#531=EDGE_CURVE('',#441,#440,#211,.T.);
#532=EDGE_CURVE('',#434,#441,#212,.T.);
#533=EDGE_CURVE('',#442,#441,#213,.T.);
#534=EDGE_CURVE('',#427,#442,#214,.T.);
#535=EDGE_CURVE('',#435,#442,#215,.T.);
#536=EDGE_CURVE('',#437,#438,#216,.T.);
#537=EDGE_CURVE('',#443,#444,#217,.T.);
#538=EDGE_CURVE('',#444,#445,#218,.T.);
#539=EDGE_CURVE('',#445,#446,#219,.T.);
#540=EDGE_CURVE('',#447,#446,#220,.T.);
#541=EDGE_CURVE('',#447,#448,#221,.T.);
#542=EDGE_CURVE('',#448,#449,#222,.T.);
#543=EDGE_CURVE('',#449,#450,#223,.T.);
#544=EDGE_CURVE('',#450,#443,#224,.T.);
#545=EDGE_CURVE('',#451,#444,#225,.T.);
#546=EDGE_CURVE('',#452,#451,#226,.T.);
#547=EDGE_CURVE('',#445,#452,#227,.T.);
#548=EDGE_CURVE('',#453,#452,#228,.T.);
#549=EDGE_CURVE('',#446,#453,#229,.T.);
#550=EDGE_CURVE('',#454,#447,#230,.T.);
#551=EDGE_CURVE('',#455,#454,#231,.T.);
#552=EDGE_CURVE('',#448,#455,#232,.T.);
#553=EDGE_CURVE('',#456,#455,#233,.T.);
#554=EDGE_CURVE('',#449,#456,#234,.T.);
#555=EDGE_CURVE('',#457,#456,#235,.T.);
#556=EDGE_CURVE('',#450,#457,#236,.T.);
#557=EDGE_CURVE('',#458,#457,#237,.T.);
#558=EDGE_CURVE('',#443,#458,#238,.T.);
#559=EDGE_CURVE('',#451,#458,#239,.T.);
#560=EDGE_CURVE('',#453,#454,#240,.T.);
#561=EDGE_CURVE('',#459,#460,#241,.T.);
#562=EDGE_CURVE('',#460,#461,#242,.T.);
#563=EDGE_CURVE('',#461,#462,#243,.T.);
#564=EDGE_CURVE('',#463,#462,#244,.T.);
#565=EDGE_CURVE('',#463,#464,#245,.T.);
#566=EDGE_CURVE('',#464,#465,#246,.T.);
#567=EDGE_CURVE('',#465,#466,#247,.T.);
#568=EDGE_CURVE('',#466,#459,#248,.T.);
#569=EDGE_CURVE('',#467,#460,#249,.T.);
#570=EDGE_CURVE('',#468,#467,#250,.T.);
#571=EDGE_CURVE('',#461,#468,#251,.T.);
#572=EDGE_CURVE('',#469,#468,#252,.T.);
#573=EDGE_CURVE('',#462,#469,#253,.T.);
#574=EDGE_CURVE('',#470,#463,#254,.T.);
#575=EDGE_CURVE('',#471,#470,#255,.T.);
#576=EDGE_CURVE('',#464,#471,#256,.T.);
#577=EDGE_CURVE('',#472,#471,#257,.T.);
#578=EDGE_CURVE('',#465,#472,#258,.T.);
#579=EDGE_CURVE('',#473,#472,#259,.T.);
#580=EDGE_CURVE('',#466,#473,#260,.T.);
#581=EDGE_CURVE('',#474,#473,#261,.T.);
#582=EDGE_CURVE('',#459,#474,#262,.T.);
#583=EDGE_CURVE('',#467,#474,#263,.T.);
#584=EDGE_CURVE('',#469,#470,#264,.T.);
#585=EDGE_CURVE('',#475,#476,#265,.T.);
#586=EDGE_CURVE('',#476,#420,#266,.T.);
#587=EDGE_CURVE('',#475,#419,#267,.T.);
#588=EDGE_CURVE('',#477,#475,#268,.T.);
#589=EDGE_CURVE('',#477,#422,#269,.T.);
#590=EDGE_CURVE('',#478,#477,#270,.T.);
#591=EDGE_CURVE('',#478,#421,#271,.T.);
#592=EDGE_CURVE('',#476,#478,#272,.T.);
#593=EDGE_CURVE('',#479,#480,#273,.T.);
#594=EDGE_CURVE('',#480,#481,#274,.T.);
#595=EDGE_CURVE('',#481,#482,#275,.T.);
#596=EDGE_CURVE('',#482,#483,#276,.T.);
#597=EDGE_CURVE('',#483,#484,#277,.T.);
#598=EDGE_CURVE('',#484,#479,#278,.T.);
#599=EDGE_CURVE('',#485,#480,#279,.T.);
#600=EDGE_CURVE('',#486,#485,#280,.T.);
#601=EDGE_CURVE('',#481,#486,#281,.T.);
#602=EDGE_CURVE('',#487,#486,#282,.T.);
#603=EDGE_CURVE('',#482,#487,#283,.T.);
#604=EDGE_CURVE('',#488,#487,#284,.T.);
#605=EDGE_CURVE('',#483,#488,#285,.T.);
#606=EDGE_CURVE('',#489,#488,#286,.T.);
#607=EDGE_CURVE('',#484,#489,#287,.T.);
#608=EDGE_CURVE('',#490,#489,#288,.T.);
#609=EDGE_CURVE('',#479,#490,#289,.T.);
#610=EDGE_CURVE('',#485,#490,#290,.T.);
#611=ORIENTED_EDGE('',*,*,#491,.F.);
#612=ORIENTED_EDGE('',*,*,#492,.T.);
#613=ORIENTED_EDGE('',*,*,#493,.F.);
#614=ORIENTED_EDGE('',*,*,#492,.F.);
#615=ORIENTED_EDGE('',*,*,#494,.F.);
#616=ORIENTED_EDGE('',*,*,#495,.T.);
#617=ORIENTED_EDGE('',*,*,#496,.F.);
#618=ORIENTED_EDGE('',*,*,#495,.F.);
#619=ORIENTED_EDGE('',*,*,#497,.T.);
#620=ORIENTED_EDGE('',*,*,#498,.T.);
#621=ORIENTED_EDGE('',*,*,#499,.T.);
#622=ORIENTED_EDGE('',*,*,#500,.T.);
#623=ORIENTED_EDGE('',*,*,#493,.T.);
#624=ORIENTED_EDGE('',*,*,#496,.T.);
#625=ORIENTED_EDGE('',*,*,#501,.T.);
#626=ORIENTED_EDGE('',*,*,#502,.T.);
#627=ORIENTED_EDGE('',*,*,#503,.T.);
#628=ORIENTED_EDGE('',*,*,#504,.T.);
#629=ORIENTED_EDGE('',*,*,#498,.F.);
#630=ORIENTED_EDGE('',*,*,#505,.T.);
#631=ORIENTED_EDGE('',*,*,#506,.F.);
#632=ORIENTED_EDGE('',*,*,#507,.F.);
#633=ORIENTED_EDGE('',*,*,#499,.F.);
#634=ORIENTED_EDGE('',*,*,#507,.T.);
#635=ORIENTED_EDGE('',*,*,#508,.F.);
#636=ORIENTED_EDGE('',*,*,#509,.F.);
#637=ORIENTED_EDGE('',*,*,#500,.F.);
#638=ORIENTED_EDGE('',*,*,#509,.T.);
#639=ORIENTED_EDGE('',*,*,#510,.F.);
#640=ORIENTED_EDGE('',*,*,#511,.F.);
#641=ORIENTED_EDGE('',*,*,#497,.F.);
#642=ORIENTED_EDGE('',*,*,#511,.T.);
#643=ORIENTED_EDGE('',*,*,#512,.F.);
#644=ORIENTED_EDGE('',*,*,#505,.F.);
#645=ORIENTED_EDGE('',*,*,#512,.T.);
#646=ORIENTED_EDGE('',*,*,#510,.T.);
#647=ORIENTED_EDGE('',*,*,#508,.T.);
#648=ORIENTED_EDGE('',*,*,#506,.T.);
#649=ORIENTED_EDGE('',*,*,#491,.T.);
#650=ORIENTED_EDGE('',*,*,#494,.T.);
#651=ORIENTED_EDGE('',*,*,#513,.T.);
#652=ORIENTED_EDGE('',*,*,#514,.T.);
#653=ORIENTED_EDGE('',*,*,#515,.T.);
#654=ORIENTED_EDGE('',*,*,#516,.F.);
#655=ORIENTED_EDGE('',*,*,#517,.T.);
#656=ORIENTED_EDGE('',*,*,#518,.T.);
#657=ORIENTED_EDGE('',*,*,#519,.T.);
#658=ORIENTED_EDGE('',*,*,#520,.T.);
#659=ORIENTED_EDGE('',*,*,#521,.F.);
#660=ORIENTED_EDGE('',*,*,#522,.F.);
#661=ORIENTED_EDGE('',*,*,#523,.F.);
#662=ORIENTED_EDGE('',*,*,#514,.F.);
#663=ORIENTED_EDGE('',*,*,#523,.T.);
#664=ORIENTED_EDGE('',*,*,#524,.F.);
#665=ORIENTED_EDGE('',*,*,#525,.F.);
#666=ORIENTED_EDGE('',*,*,#515,.F.);
#667=ORIENTED_EDGE('',*,*,#526,.F.);
#668=ORIENTED_EDGE('',*,*,#527,.F.);
#669=ORIENTED_EDGE('',*,*,#528,.F.);
#670=ORIENTED_EDGE('',*,*,#517,.F.);
#671=ORIENTED_EDGE('',*,*,#528,.T.);
#672=ORIENTED_EDGE('',*,*,#529,.F.);
#673=ORIENTED_EDGE('',*,*,#530,.F.);
#674=ORIENTED_EDGE('',*,*,#518,.F.);
#675=ORIENTED_EDGE('',*,*,#530,.T.);
#676=ORIENTED_EDGE('',*,*,#531,.F.);
#677=ORIENTED_EDGE('',*,*,#532,.F.);
#678=ORIENTED_EDGE('',*,*,#519,.F.);
#679=ORIENTED_EDGE('',*,*,#532,.T.);
#680=ORIENTED_EDGE('',*,*,#533,.F.);
#681=ORIENTED_EDGE('',*,*,#534,.F.);
#682=ORIENTED_EDGE('',*,*,#520,.F.);
#683=ORIENTED_EDGE('',*,*,#534,.T.);
#684=ORIENTED_EDGE('',*,*,#535,.F.);
#685=ORIENTED_EDGE('',*,*,#521,.T.);
#686=ORIENTED_EDGE('',*,*,#513,.F.);
#687=ORIENTED_EDGE('',*,*,#535,.T.);
#688=ORIENTED_EDGE('',*,*,#533,.T.);
#689=ORIENTED_EDGE('',*,*,#531,.T.);
#690=ORIENTED_EDGE('',*,*,#529,.T.);
#691=ORIENTED_EDGE('',*,*,#527,.T.);
#692=ORIENTED_EDGE('',*,*,#536,.F.);
#693=ORIENTED_EDGE('',*,*,#524,.T.);
#694=ORIENTED_EDGE('',*,*,#522,.T.);
#695=ORIENTED_EDGE('',*,*,#537,.T.);
#696=ORIENTED_EDGE('',*,*,#538,.T.);
#697=ORIENTED_EDGE('',*,*,#539,.T.);
#698=ORIENTED_EDGE('',*,*,#540,.F.);
#699=ORIENTED_EDGE('',*,*,#541,.T.);
#700=ORIENTED_EDGE('',*,*,#542,.T.);
#701=ORIENTED_EDGE('',*,*,#543,.T.);
#702=ORIENTED_EDGE('',*,*,#544,.T.);
#703=ORIENTED_EDGE('',*,*,#545,.F.);
#704=ORIENTED_EDGE('',*,*,#546,.F.);
#705=ORIENTED_EDGE('',*,*,#547,.F.);
#706=ORIENTED_EDGE('',*,*,#538,.F.);
#707=ORIENTED_EDGE('',*,*,#547,.T.);
#708=ORIENTED_EDGE('',*,*,#548,.F.);
#709=ORIENTED_EDGE('',*,*,#549,.F.);
#710=ORIENTED_EDGE('',*,*,#539,.F.);
#711=ORIENTED_EDGE('',*,*,#550,.F.);
#712=ORIENTED_EDGE('',*,*,#551,.F.);
#713=ORIENTED_EDGE('',*,*,#552,.F.);
#714=ORIENTED_EDGE('',*,*,#541,.F.);
#715=ORIENTED_EDGE('',*,*,#552,.T.);
#716=ORIENTED_EDGE('',*,*,#553,.F.);
#717=ORIENTED_EDGE('',*,*,#554,.F.);
#718=ORIENTED_EDGE('',*,*,#542,.F.);
#719=ORIENTED_EDGE('',*,*,#554,.T.);
#720=ORIENTED_EDGE('',*,*,#555,.F.);
#721=ORIENTED_EDGE('',*,*,#556,.F.);
#722=ORIENTED_EDGE('',*,*,#543,.F.);
#723=ORIENTED_EDGE('',*,*,#556,.T.);
#724=ORIENTED_EDGE('',*,*,#557,.F.);
#725=ORIENTED_EDGE('',*,*,#558,.F.);
#726=ORIENTED_EDGE('',*,*,#544,.F.);
#727=ORIENTED_EDGE('',*,*,#558,.T.);
#728=ORIENTED_EDGE('',*,*,#559,.F.);
#729=ORIENTED_EDGE('',*,*,#545,.T.);
#730=ORIENTED_EDGE('',*,*,#537,.F.);
#731=ORIENTED_EDGE('',*,*,#559,.T.);
#732=ORIENTED_EDGE('',*,*,#557,.T.);
#733=ORIENTED_EDGE('',*,*,#555,.T.);
#734=ORIENTED_EDGE('',*,*,#553,.T.);
#735=ORIENTED_EDGE('',*,*,#551,.T.);
#736=ORIENTED_EDGE('',*,*,#560,.F.);
#737=ORIENTED_EDGE('',*,*,#548,.T.);
#738=ORIENTED_EDGE('',*,*,#546,.T.);
#739=ORIENTED_EDGE('',*,*,#561,.T.);
#740=ORIENTED_EDGE('',*,*,#562,.T.);
#741=ORIENTED_EDGE('',*,*,#563,.T.);
#742=ORIENTED_EDGE('',*,*,#564,.F.);
#743=ORIENTED_EDGE('',*,*,#565,.T.);
#744=ORIENTED_EDGE('',*,*,#566,.T.);
#745=ORIENTED_EDGE('',*,*,#567,.T.);
#746=ORIENTED_EDGE('',*,*,#568,.T.);
#747=ORIENTED_EDGE('',*,*,#569,.F.);
#748=ORIENTED_EDGE('',*,*,#570,.F.);
#749=ORIENTED_EDGE('',*,*,#571,.F.);
#750=ORIENTED_EDGE('',*,*,#562,.F.);
#751=ORIENTED_EDGE('',*,*,#571,.T.);
#752=ORIENTED_EDGE('',*,*,#572,.F.);
#753=ORIENTED_EDGE('',*,*,#573,.F.);
#754=ORIENTED_EDGE('',*,*,#563,.F.);
#755=ORIENTED_EDGE('',*,*,#574,.F.);
#756=ORIENTED_EDGE('',*,*,#575,.F.);
#757=ORIENTED_EDGE('',*,*,#576,.F.);
#758=ORIENTED_EDGE('',*,*,#565,.F.);
#759=ORIENTED_EDGE('',*,*,#576,.T.);
#760=ORIENTED_EDGE('',*,*,#577,.F.);
#761=ORIENTED_EDGE('',*,*,#578,.F.);
#762=ORIENTED_EDGE('',*,*,#566,.F.);
#763=ORIENTED_EDGE('',*,*,#578,.T.);
#764=ORIENTED_EDGE('',*,*,#579,.F.);
#765=ORIENTED_EDGE('',*,*,#580,.F.);
#766=ORIENTED_EDGE('',*,*,#567,.F.);
#767=ORIENTED_EDGE('',*,*,#580,.T.);
#768=ORIENTED_EDGE('',*,*,#581,.F.);
#769=ORIENTED_EDGE('',*,*,#582,.F.);
#770=ORIENTED_EDGE('',*,*,#568,.F.);
#771=ORIENTED_EDGE('',*,*,#582,.T.);
#772=ORIENTED_EDGE('',*,*,#583,.F.);
#773=ORIENTED_EDGE('',*,*,#569,.T.);
#774=ORIENTED_EDGE('',*,*,#561,.F.);
#775=ORIENTED_EDGE('',*,*,#583,.T.);
#776=ORIENTED_EDGE('',*,*,#581,.T.);
#777=ORIENTED_EDGE('',*,*,#579,.T.);
#778=ORIENTED_EDGE('',*,*,#577,.T.);
#779=ORIENTED_EDGE('',*,*,#575,.T.);
#780=ORIENTED_EDGE('',*,*,#584,.F.);
#781=ORIENTED_EDGE('',*,*,#572,.T.);
#782=ORIENTED_EDGE('',*,*,#570,.T.);
#783=ORIENTED_EDGE('',*,*,#585,.T.);
#784=ORIENTED_EDGE('',*,*,#586,.T.);
#785=ORIENTED_EDGE('',*,*,#501,.F.);
#786=ORIENTED_EDGE('',*,*,#587,.F.);
#787=ORIENTED_EDGE('',*,*,#588,.T.);
#788=ORIENTED_EDGE('',*,*,#587,.T.);
#789=ORIENTED_EDGE('',*,*,#504,.F.);
#790=ORIENTED_EDGE('',*,*,#589,.F.);
#791=ORIENTED_EDGE('',*,*,#590,.T.);
#792=ORIENTED_EDGE('',*,*,#589,.T.);
#793=ORIENTED_EDGE('',*,*,#503,.F.);
#794=ORIENTED_EDGE('',*,*,#591,.F.);
#795=ORIENTED_EDGE('',*,*,#592,.T.);
#796=ORIENTED_EDGE('',*,*,#591,.T.);
#797=ORIENTED_EDGE('',*,*,#502,.F.);
#798=ORIENTED_EDGE('',*,*,#586,.F.);
#799=ORIENTED_EDGE('',*,*,#592,.F.);
#800=ORIENTED_EDGE('',*,*,#585,.F.);
#801=ORIENTED_EDGE('',*,*,#588,.F.);
#802=ORIENTED_EDGE('',*,*,#590,.F.);
#803=ORIENTED_EDGE('',*,*,#516,.T.);
#804=ORIENTED_EDGE('',*,*,#525,.T.);
#805=ORIENTED_EDGE('',*,*,#536,.T.);
#806=ORIENTED_EDGE('',*,*,#526,.T.);
#807=ORIENTED_EDGE('',*,*,#540,.T.);
#808=ORIENTED_EDGE('',*,*,#549,.T.);
#809=ORIENTED_EDGE('',*,*,#560,.T.);
#810=ORIENTED_EDGE('',*,*,#550,.T.);
#811=ORIENTED_EDGE('',*,*,#564,.T.);
#812=ORIENTED_EDGE('',*,*,#573,.T.);
#813=ORIENTED_EDGE('',*,*,#584,.T.);
#814=ORIENTED_EDGE('',*,*,#574,.T.);
#815=ORIENTED_EDGE('',*,*,#593,.T.);
#816=ORIENTED_EDGE('',*,*,#594,.T.);
#817=ORIENTED_EDGE('',*,*,#595,.T.);
#818=ORIENTED_EDGE('',*,*,#596,.T.);
#819=ORIENTED_EDGE('',*,*,#597,.T.);
#820=ORIENTED_EDGE('',*,*,#598,.T.);
#821=ORIENTED_EDGE('',*,*,#599,.F.);
#822=ORIENTED_EDGE('',*,*,#600,.F.);
#823=ORIENTED_EDGE('',*,*,#601,.F.);
#824=ORIENTED_EDGE('',*,*,#594,.F.);
#825=ORIENTED_EDGE('',*,*,#601,.T.);
#826=ORIENTED_EDGE('',*,*,#602,.F.);
#827=ORIENTED_EDGE('',*,*,#603,.F.);
#828=ORIENTED_EDGE('',*,*,#595,.F.);
#829=ORIENTED_EDGE('',*,*,#603,.T.);
#830=ORIENTED_EDGE('',*,*,#604,.F.);
#831=ORIENTED_EDGE('',*,*,#605,.F.);
#832=ORIENTED_EDGE('',*,*,#596,.F.);
#833=ORIENTED_EDGE('',*,*,#605,.T.);
#834=ORIENTED_EDGE('',*,*,#606,.F.);
#835=ORIENTED_EDGE('',*,*,#607,.F.);
#836=ORIENTED_EDGE('',*,*,#597,.F.);
#837=ORIENTED_EDGE('',*,*,#607,.T.);
#838=ORIENTED_EDGE('',*,*,#608,.F.);
#839=ORIENTED_EDGE('',*,*,#609,.F.);
#840=ORIENTED_EDGE('',*,*,#598,.F.);
#841=ORIENTED_EDGE('',*,*,#609,.T.);
#842=ORIENTED_EDGE('',*,*,#610,.F.);
#843=ORIENTED_EDGE('',*,*,#599,.T.);
#844=ORIENTED_EDGE('',*,*,#593,.F.);
#845=ORIENTED_EDGE('',*,*,#610,.T.);
#846=ORIENTED_EDGE('',*,*,#608,.T.);
#847=ORIENTED_EDGE('',*,*,#606,.T.);
#848=ORIENTED_EDGE('',*,*,#604,.T.);
#849=ORIENTED_EDGE('',*,*,#602,.T.);
#850=ORIENTED_EDGE('',*,*,#600,.T.);
#851=CYLINDRICAL_SURFACE('',#916,1.25);
#852=CYLINDRICAL_SURFACE('',#919,1.25);
#853=ADVANCED_FACE('',(#71),#851,.F.);
#854=ADVANCED_FACE('',(#72),#852,.F.);
#855=ADVANCED_FACE('',(#73,#17,#18,#19),#25,.F.);
#856=ADVANCED_FACE('',(#74),#26,.T.);
#857=ADVANCED_FACE('',(#75),#27,.T.);
#858=ADVANCED_FACE('',(#76),#28,.T.);
#859=ADVANCED_FACE('',(#77),#29,.T.);
#860=ADVANCED_FACE('',(#78,#20,#21),#30,.T.);
#861=ADVANCED_FACE('',(#79),#31,.T.);
#862=ADVANCED_FACE('',(#80),#32,.T.);
#863=ADVANCED_FACE('',(#81),#33,.T.);
#864=ADVANCED_FACE('',(#82),#34,.T.);
#865=ADVANCED_FACE('',(#83),#35,.T.);
#866=ADVANCED_FACE('',(#84),#36,.T.);
#867=ADVANCED_FACE('',(#85),#37,.T.);
#868=ADVANCED_FACE('',(#86),#38,.T.);
#869=ADVANCED_FACE('',(#87),#39,.T.);
#870=ADVANCED_FACE('',(#88),#40,.T.);
#871=ADVANCED_FACE('',(#89),#41,.T.);
#872=ADVANCED_FACE('',(#90),#42,.T.);
#873=ADVANCED_FACE('',(#91),#43,.T.);
#874=ADVANCED_FACE('',(#92),#44,.T.);
#875=ADVANCED_FACE('',(#93),#45,.T.);
#876=ADVANCED_FACE('',(#94),#46,.T.);
#877=ADVANCED_FACE('',(#95),#47,.T.);
#878=ADVANCED_FACE('',(#96),#48,.T.);
#879=ADVANCED_FACE('',(#97),#49,.T.);
#880=ADVANCED_FACE('',(#98),#50,.T.);
#881=ADVANCED_FACE('',(#99),#51,.T.);
#882=ADVANCED_FACE('',(#100),#52,.T.);
#883=ADVANCED_FACE('',(#101),#53,.T.);
#884=ADVANCED_FACE('',(#102),#54,.T.);
#885=ADVANCED_FACE('',(#103),#55,.T.);
#886=ADVANCED_FACE('',(#104),#56,.T.);
#887=ADVANCED_FACE('',(#105),#57,.T.);
#888=ADVANCED_FACE('',(#106),#58,.T.);
#889=ADVANCED_FACE('',(#107),#59,.T.);
#890=ADVANCED_FACE('',(#108),#60,.T.);
#891=ADVANCED_FACE('',(#109),#61,.T.);
#892=ADVANCED_FACE('',(#110,#22,#23,#24),#62,.F.);
#893=ADVANCED_FACE('',(#111),#63,.T.);
#894=ADVANCED_FACE('',(#112),#64,.T.);
#895=ADVANCED_FACE('',(#113),#65,.T.);
#896=ADVANCED_FACE('',(#114),#66,.T.);
#897=ADVANCED_FACE('',(#115),#67,.T.);
#898=ADVANCED_FACE('',(#116),#68,.T.);
#899=ADVANCED_FACE('',(#117),#69,.T.);
#900=ADVANCED_FACE('',(#118),#70,.T.);
#901=CLOSED_SHELL('',(#853,#854,#855,#856,#857,#858,#859,#860,#861,#862,
#863,#864,#865,#866,#867,#868,#869,#870,#871,#872,#873,#874,#875,#876,#877,
#878,#879,#880,#881,#882,#883,#884,#885,#886,#887,#888,#889,#890,#891,#892));
#902=CLOSED_SHELL('',(#893,#894,#895,#896,#897,#898,#899,#900));
#903=DERIVED_UNIT_ELEMENT(#905,1.);
#904=DERIVED_UNIT_ELEMENT(#1444,-3.);
#905=(
MASS_UNIT()
NAMED_UNIT(*)
SI_UNIT(.KILO.,.GRAM.)
);
#906=DERIVED_UNIT((#903,#904));
#907=MEASURE_REPRESENTATION_ITEM('density measure',
POSITIVE_RATIO_MEASURE(7850.),#906);
#908=PROPERTY_DEFINITION_REPRESENTATION(#913,#910);
#909=PROPERTY_DEFINITION_REPRESENTATION(#914,#911);
#910=REPRESENTATION('material name',(#912),#1441);
#911=REPRESENTATION('density',(#907),#1441);
#912=DESCRIPTIVE_REPRESENTATION_ITEM('Steel','Steel');
#913=PROPERTY_DEFINITION('material property','material name',#1451);
#914=PROPERTY_DEFINITION('material property','density of part',#1451);
#915=AXIS2_PLACEMENT_3D('placement',#1190,#968,#969);
#916=AXIS2_PLACEMENT_3D('',#1191,#970,#971);
#917=AXIS2_PLACEMENT_3D('',#1193,#972,#973);
#918=AXIS2_PLACEMENT_3D('',#1196,#975,#976);
#919=AXIS2_PLACEMENT_3D('',#1197,#977,#978);
#920=AXIS2_PLACEMENT_3D('',#1199,#979,#980);
#921=AXIS2_PLACEMENT_3D('',#1202,#982,#983);
#922=AXIS2_PLACEMENT_3D('',#1203,#984,#985);
#923=AXIS2_PLACEMENT_3D('',#1220,#994,#995);
#924=AXIS2_PLACEMENT_3D('',#1226,#999,#1000);
#925=AXIS2_PLACEMENT_3D('',#1230,#1003,#1004);
#926=AXIS2_PLACEMENT_3D('',#1234,#1007,#1008);
#927=AXIS2_PLACEMENT_3D('',#1236,#1010,#1011);
#928=AXIS2_PLACEMENT_3D('',#1237,#1012,#1013);
#929=AXIS2_PLACEMENT_3D('',#1254,#1022,#1023);
#930=AXIS2_PLACEMENT_3D('',#1260,#1027,#1028);
#931=AXIS2_PLACEMENT_3D('',#1264,#1031,#1032);
#932=AXIS2_PLACEMENT_3D('',#1270,#1036,#1037);
#933=AXIS2_PLACEMENT_3D('',#1274,#1040,#1041);
#934=AXIS2_PLACEMENT_3D('',#1278,#1044,#1045);
#935=AXIS2_PLACEMENT_3D('',#1282,#1048,#1049);
#936=AXIS2_PLACEMENT_3D('',#1284,#1051,#1052);
#937=AXIS2_PLACEMENT_3D('',#1286,#1054,#1055);
#938=AXIS2_PLACEMENT_3D('',#1303,#1064,#1065);
#939=AXIS2_PLACEMENT_3D('',#1309,#1069,#1070);
#940=AXIS2_PLACEMENT_3D('',#1313,#1073,#1074);
#941=AXIS2_PLACEMENT_3D('',#1319,#1078,#1079);
#942=AXIS2_PLACEMENT_3D('',#1323,#1082,#1083);
#943=AXIS2_PLACEMENT_3D('',#1327,#1086,#1087);
#944=AXIS2_PLACEMENT_3D('',#1331,#1090,#1091);
#945=AXIS2_PLACEMENT_3D('',#1333,#1093,#1094);
#946=AXIS2_PLACEMENT_3D('',#1335,#1096,#1097);
#947=AXIS2_PLACEMENT_3D('',#1352,#1106,#1107);
#948=AXIS2_PLACEMENT_3D('',#1358,#1111,#1112);
#949=AXIS2_PLACEMENT_3D('',#1362,#1115,#1116);
#950=AXIS2_PLACEMENT_3D('',#1368,#1120,#1121);
#951=AXIS2_PLACEMENT_3D('',#1372,#1124,#1125);
#952=AXIS2_PLACEMENT_3D('',#1376,#1128,#1129);
#953=AXIS2_PLACEMENT_3D('',#1380,#1132,#1133);
#954=AXIS2_PLACEMENT_3D('',#1382,#1135,#1136);
#955=AXIS2_PLACEMENT_3D('',#1384,#1138,#1139);
#956=AXIS2_PLACEMENT_3D('',#1390,#1143,#1144);
#957=AXIS2_PLACEMENT_3D('',#1394,#1147,#1148);
#958=AXIS2_PLACEMENT_3D('',#1398,#1151,#1152);
#959=AXIS2_PLACEMENT_3D('',#1400,#1154,#1155);
#960=AXIS2_PLACEMENT_3D('',#1401,#1156,#1157);
#961=AXIS2_PLACEMENT_3D('',#1414,#1164,#1165);
#962=AXIS2_PLACEMENT_3D('',#1420,#1169,#1170);
#963=AXIS2_PLACEMENT_3D('',#1424,#1173,#1174);
#964=AXIS2_PLACEMENT_3D('',#1428,#1177,#1178);
#965=AXIS2_PLACEMENT_3D('',#1432,#1181,#1182);
#966=AXIS2_PLACEMENT_3D('',#1436,#1185,#1186);
#967=AXIS2_PLACEMENT_3D('',#1438,#1188,#1189);
#968=DIRECTION('axis',(0.,0.,1.));
#969=DIRECTION('refdir',(1.,0.,0.));
#970=DIRECTION('center_axis',(0.,0.,-1.));
#971=DIRECTION('ref_axis',(-1.,0.,0.));
#972=DIRECTION('center_axis',(0.,0.,-1.));
#973=DIRECTION('ref_axis',(-1.,0.,0.));
#974=DIRECTION('',(0.,0.,-1.));
#975=DIRECTION('center_axis',(0.,0.,1.));
#976=DIRECTION('ref_axis',(-1.,0.,0.));
#977=DIRECTION('center_axis',(0.,0.,-1.));
#978=DIRECTION('ref_axis',(-1.,0.,0.));
#979=DIRECTION('center_axis',(0.,0.,-1.));
#980=DIRECTION('ref_axis',(-1.,0.,0.));
#981=DIRECTION('',(0.,0.,-1.));
#982=DIRECTION('center_axis',(0.,0.,1.));
#983=DIRECTION('ref_axis',(-1.,0.,0.));
#984=DIRECTION('center_axis',(0.,0.,1.));
#985=DIRECTION('ref_axis',(-1.,0.,0.));
#986=DIRECTION('',(1.,0.,0.));
#987=DIRECTION('',(0.,-1.,0.));
#988=DIRECTION('',(-1.,-1.88173394004264E-17,0.));
#989=DIRECTION('',(0.,1.,0.));
#990=DIRECTION('',(1.,0.,0.));
#991=DIRECTION('',(1.63268091856641E-16,1.,0.));
#992=DIRECTION('',(-1.,4.44089209850063E-17,0.));
#993=DIRECTION('',(-1.63268091856641E-16,-1.,0.));
#994=DIRECTION('center_axis',(1.,0.,0.));
#995=DIRECTION('ref_axis',(0.,1.,0.));
#996=DIRECTION('',(0.,0.,1.));
#997=DIRECTION('',(0.,1.,0.));
#998=DIRECTION('',(0.,0.,1.));
#999=DIRECTION('center_axis',(1.88173394004264E-17,-1.,0.));
#1000=DIRECTION('ref_axis',(1.,1.88173394004264E-17,0.));
#1001=DIRECTION('',(1.,1.88173394004264E-17,0.));
#1002=DIRECTION('',(0.,0.,1.));
#1003=DIRECTION('center_axis',(-1.,0.,0.));
#1004=DIRECTION('ref_axis',(0.,-1.,0.));
#1005=DIRECTION('',(0.,-1.,0.));
#1006=DIRECTION('',(0.,0.,1.));
#1007=DIRECTION('center_axis',(0.,1.,0.));
#1008=DIRECTION('ref_axis',(-1.,0.,0.));
#1009=DIRECTION('',(-1.,0.,0.));
#1010=DIRECTION('center_axis',(0.,0.,1.));
#1011=DIRECTION('ref_axis',(1.,0.,0.));
#1012=DIRECTION('center_axis',(-1.,0.,0.));
#1013=DIRECTION('ref_axis',(0.,0.,1.));
#1014=DIRECTION('',(0.,-6.05576195250086E-16,1.));
#1015=DIRECTION('',(0.,-1.,-2.7755575615629E-16));
#1016=DIRECTION('',(0.,0.,1.));
#1017=DIRECTION('',(0.,-1.,0.));
#1018=DIRECTION('',(0.,0.,-1.));
#1019=DIRECTION('',(0.,-1.,-2.2204460492503E-15));
#1020=DIRECTION('',(0.,7.56970244062607E-16,-1.));
#1021=DIRECTION('',(0.,-1.,0.));
#1022=DIRECTION('center_axis',(0.,2.7755575615629E-16,-1.));
#1023=DIRECTION('ref_axis',(0.,1.,2.7755575615629E-16));
#1024=DIRECTION('',(-1.,0.,0.));
#1025=DIRECTION('',(0.,1.,2.7755575615629E-16));
#1026=DIRECTION('',(1.,0.,0.));
#1027=DIRECTION('center_axis',(0.,-1.,0.));
#1028=DIRECTION('ref_axis',(0.,0.,-1.));
#1029=DIRECTION('',(0.,0.,-1.));
#1030=DIRECTION('',(1.,0.,0.));
#1031=DIRECTION('center_axis',(0.,1.,0.));
#1032=DIRECTION('ref_axis',(0.,0.,1.));
#1033=DIRECTION('',(-1.,0.,0.));
#1034=DIRECTION('',(0.,0.,1.));
#1035=DIRECTION('',(1.,0.,0.));
#1036=DIRECTION('center_axis',(0.,2.2204460492503E-15,-1.));
#1037=DIRECTION('ref_axis',(0.,1.,2.2204460492503E-15));
#1038=DIRECTION('',(0.,1.,2.2204460492503E-15));
#1039=DIRECTION('',(1.,0.,0.));
#1040=DIRECTION('center_axis',(0.,1.,7.56970244062607E-16));
#1041=DIRECTION('ref_axis',(0.,-7.56970244062607E-16,1.));
#1042=DIRECTION('',(0.,-7.56970244062607E-16,1.));
#1043=DIRECTION('',(1.,0.,0.));
#1044=DIRECTION('center_axis',(0.,0.,-1.));
#1045=DIRECTION('ref_axis',(0.,1.,0.));
#1046=DIRECTION('',(0.,1.,0.));
#1047=DIRECTION('',(1.,0.,0.));
#1048=DIRECTION('center_axis',(0.,-1.,-6.05576195250086E-16));
#1049=DIRECTION('ref_axis',(0.,6.05576195250086E-16,-1.));
#1050=DIRECTION('',(0.,6.05576195250086E-16,-1.));
#1051=DIRECTION('center_axis',(1.,0.,0.));
#1052=DIRECTION('ref_axis',(0.,0.,-1.));
#1053=DIRECTION('',(0.,1.,0.));
#1054=DIRECTION('center_axis',(-1.,0.,0.));
#1055=DIRECTION('ref_axis',(0.,0.,1.));
#1056=DIRECTION('',(0.,-6.05576195250086E-16,1.));
#1057=DIRECTION('',(0.,-1.,-2.7755575615629E-16));
#1058=DIRECTION('',(0.,0.,1.));
#1059=DIRECTION('',(0.,-1.,0.));
#1060=DIRECTION('',(0.,0.,-1.));
#1061=DIRECTION('',(0.,-1.,-2.2204460492503E-15));
#1062=DIRECTION('',(0.,7.56970244062607E-16,-1.));
#1063=DIRECTION('',(0.,-1.,0.));
#1064=DIRECTION('center_axis',(0.,2.7755575615629E-16,-1.));
#1065=DIRECTION('ref_axis',(0.,1.,2.7755575615629E-16));
#1066=DIRECTION('',(-1.,0.,0.));
#1067=DIRECTION('',(0.,1.,2.7755575615629E-16));
#1068=DIRECTION('',(1.,0.,0.));
#1069=DIRECTION('center_axis',(0.,-1.,0.));
#1070=DIRECTION('ref_axis',(0.,0.,-1.));
#1071=DIRECTION('',(0.,0.,-1.));
#1072=DIRECTION('',(1.,0.,0.));
#1073=DIRECTION('center_axis',(0.,1.,0.));
#1074=DIRECTION('ref_axis',(0.,0.,1.));
#1075=DIRECTION('',(-1.,0.,0.));
#1076=DIRECTION('',(0.,0.,1.));
#1077=DIRECTION('',(1.,0.,0.));
#1078=DIRECTION('center_axis',(0.,2.2204460492503E-15,-1.));
#1079=DIRECTION('ref_axis',(0.,1.,2.2204460492503E-15));
#1080=DIRECTION('',(0.,1.,2.2204460492503E-15));
#1081=DIRECTION('',(1.,0.,0.));
#1082=DIRECTION('center_axis',(0.,1.,7.56970244062607E-16));
#1083=DIRECTION('ref_axis',(0.,-7.56970244062607E-16,1.));
#1084=DIRECTION('',(0.,-7.56970244062607E-16,1.));
#1085=DIRECTION('',(1.,0.,0.));
#1086=DIRECTION('center_axis',(0.,0.,-1.));
#1087=DIRECTION('ref_axis',(0.,1.,0.));
#1088=DIRECTION('',(0.,1.,0.));
#1089=DIRECTION('',(1.,0.,0.));
#1090=DIRECTION('center_axis',(0.,-1.,-6.05576195250086E-16));
#1091=DIRECTION('ref_axis',(0.,6.05576195250086E-16,-1.));
#1092=DIRECTION('',(0.,6.05576195250086E-16,-1.));
#1093=DIRECTION('center_axis',(1.,0.,0.));
#1094=DIRECTION('ref_axis',(0.,0.,-1.));
#1095=DIRECTION('',(0.,1.,0.));
#1096=DIRECTION('center_axis',(-1.,0.,0.));
#1097=DIRECTION('ref_axis',(0.,0.,1.));
#1098=DIRECTION('',(0.,-6.05576195250086E-16,1.));
#1099=DIRECTION('',(0.,-1.,-2.7755575615629E-16));
#1100=DIRECTION('',(0.,0.,1.));
#1101=DIRECTION('',(0.,-1.,0.));
#1102=DIRECTION('',(0.,0.,-1.));
#1103=DIRECTION('',(0.,-1.,-2.2204460492503E-15));
#1104=DIRECTION('',(0.,7.56970244062607E-16,-1.));
#1105=DIRECTION('',(0.,-1.,0.));
#1106=DIRECTION('center_axis',(0.,2.7755575615629E-16,-1.));
#1107=DIRECTION('ref_axis',(0.,1.,2.7755575615629E-16));
#1108=DIRECTION('',(-1.,0.,0.));
#1109=DIRECTION('',(0.,1.,2.7755575615629E-16));
#1110=DIRECTION('',(1.,0.,0.));
#1111=DIRECTION('center_axis',(0.,-1.,0.));
#1112=DIRECTION('ref_axis',(0.,0.,-1.));
#1113=DIRECTION('',(0.,0.,-1.));
#1114=DIRECTION('',(1.,0.,0.));
#1115=DIRECTION('center_axis',(0.,1.,0.));
#1116=DIRECTION('ref_axis',(0.,0.,1.));
#1117=DIRECTION('',(-1.,0.,0.));
#1118=DIRECTION('',(0.,0.,1.));
#1119=DIRECTION('',(1.,0.,0.));
#1120=DIRECTION('center_axis',(0.,2.2204460492503E-15,-1.));
#1121=DIRECTION('ref_axis',(0.,1.,2.2204460492503E-15));
#1122=DIRECTION('',(0.,1.,2.2204460492503E-15));
#1123=DIRECTION('',(1.,0.,0.));
#1124=DIRECTION('center_axis',(0.,1.,7.56970244062607E-16));
#1125=DIRECTION('ref_axis',(0.,-7.56970244062607E-16,1.));
#1126=DIRECTION('',(0.,-7.56970244062607E-16,1.));
#1127=DIRECTION('',(1.,0.,0.));
#1128=DIRECTION('center_axis',(0.,0.,-1.));
#1129=DIRECTION('ref_axis',(0.,1.,0.));
#1130=DIRECTION('',(0.,1.,0.));
#1131=DIRECTION('',(1.,0.,0.));
#1132=DIRECTION('center_axis',(0.,-1.,-6.05576195250086E-16));
#1133=DIRECTION('ref_axis',(0.,6.05576195250086E-16,-1.));
#1134=DIRECTION('',(0.,6.05576195250086E-16,-1.));
#1135=DIRECTION('center_axis',(1.,0.,0.));
#1136=DIRECTION('ref_axis',(0.,0.,-1.));
#1137=DIRECTION('',(0.,1.,0.));
#1138=DIRECTION('center_axis',(0.,-1.,0.));
#1139=DIRECTION('ref_axis',(1.,0.,0.));
#1140=DIRECTION('',(1.,0.,0.));
#1141=DIRECTION('',(0.,0.,1.));
#1142=DIRECTION('',(0.,0.,1.));
#1143=DIRECTION('center_axis',(-1.,1.63268091856641E-16,0.));
#1144=DIRECTION('ref_axis',(-1.63268091856641E-16,-1.,0.));
#1145=DIRECTION('',(-1.63268091856641E-16,-1.,0.));
#1146=DIRECTION('',(0.,0.,1.));
#1147=DIRECTION('center_axis',(4.44089209850063E-17,1.,0.));
#1148=DIRECTION('ref_axis',(-1.,4.44089209850063E-17,0.));
#1149=DIRECTION('',(-1.,4.44089209850063E-17,0.));
#1150=DIRECTION('',(0.,0.,1.));
#1151=DIRECTION('center_axis',(1.,-1.63268091856641E-16,0.));
#1152=DIRECTION('ref_axis',(1.63268091856641E-16,1.,0.));
#1153=DIRECTION('',(1.63268091856641E-16,1.,0.));
#1154=DIRECTION('center_axis',(0.,0.,1.));
#1155=DIRECTION('ref_axis',(1.,0.,0.));
#1156=DIRECTION('center_axis',(0.,-1.,0.));
#1157=DIRECTION('ref_axis',(0.,0.,-1.));
#1158=DIRECTION('',(-1.,0.,-5.30255772955299E-15));
#1159=DIRECTION('',(-1.29340982368831E-13,0.,-1.));
#1160=DIRECTION('',(1.,0.,-2.51160185533965E-16));
#1161=DIRECTION('',(0.866356114668882,0.,0.499426753964822));
#1162=DIRECTION('',(-0.499426753964828,0.,0.866356114668879));
#1163=DIRECTION('',(-0.86635611466888,0.,-0.499426753964825));
#1164=DIRECTION('center_axis',(-1.,0.,1.29340982368831E-13));
#1165=DIRECTION('ref_axis',(1.29340982368831E-13,0.,1.));
#1166=DIRECTION('',(0.,-1.,0.));
#1167=DIRECTION('',(1.29340982368831E-13,0.,1.));
#1168=DIRECTION('',(0.,1.,0.));
#1169=DIRECTION('center_axis',(-2.51160185533965E-16,0.,-1.));
#1170=DIRECTION('ref_axis',(-1.,0.,2.51160185533965E-16));
#1171=DIRECTION('',(-1.,0.,2.51160185533965E-16));
#1172=DIRECTION('',(0.,1.,0.));
#1173=DIRECTION('center_axis',(0.499426753964822,0.,-0.866356114668882));
#1174=DIRECTION('ref_axis',(-0.866356114668882,0.,-0.499426753964822));
#1175=DIRECTION('',(-0.866356114668882,0.,-0.499426753964822));
#1176=DIRECTION('',(0.,1.,0.));
#1177=DIRECTION('center_axis',(0.866356114668879,0.,0.499426753964828));
#1178=DIRECTION('ref_axis',(0.499426753964828,0.,-0.866356114668879));
#1179=DIRECTION('',(0.499426753964828,0.,-0.866356114668879));
#1180=DIRECTION('',(0.,1.,0.));
#1181=DIRECTION('center_axis',(-0.499426753964825,0.,0.86635611466888));
#1182=DIRECTION('ref_axis',(0.86635611466888,0.,0.499426753964825));
#1183=DIRECTION('',(0.86635611466888,0.,0.499426753964825));
#1184=DIRECTION('',(0.,1.,0.));
#1185=DIRECTION('center_axis',(-5.30255772955299E-15,0.,1.));
#1186=DIRECTION('ref_axis',(1.,0.,5.30255772955299E-15));
#1187=DIRECTION('',(1.,0.,5.30255772955299E-15));
#1188=DIRECTION('center_axis',(0.,1.,0.));
#1189=DIRECTION('ref_axis',(0.,0.,1.));
#1190=CARTESIAN_POINT('',(0.,0.,0.));
#1191=CARTESIAN_POINT('Origin',(11.5,0.,12.2));
#1192=CARTESIAN_POINT('',(12.75,1.53080849893419E-16,12.2));
#1193=CARTESIAN_POINT('Origin',(11.5,0.,12.2));
#1194=CARTESIAN_POINT('',(12.75,1.53080849893419E-16,11.5));
#1195=CARTESIAN_POINT('',(12.75,-1.53080849893419E-16,12.2));
#1196=CARTESIAN_POINT('Origin',(11.5,0.,11.5));
#1197=CARTESIAN_POINT('Origin',(-11.5,0.,12.2));
#1198=CARTESIAN_POINT('',(-10.25,1.53080849893419E-16,12.2));
#1199=CARTESIAN_POINT('Origin',(-11.5,0.,12.2));
#1200=CARTESIAN_POINT('',(-10.25,1.53080849893419E-16,11.5));
#1201=CARTESIAN_POINT('',(-10.25,-1.53080849893419E-16,12.2));
#1202=CARTESIAN_POINT('Origin',(-11.5,0.,11.5));
#1203=CARTESIAN_POINT('Origin',(4.02344824124157E-12,4.71844785465692E-14,
11.5));
#1204=CARTESIAN_POINT('',(-14.749999999996,3.50000000000005,11.5));
#1205=CARTESIAN_POINT('',(14.750000000004,3.50000000000005,11.5));
#1206=CARTESIAN_POINT('',(-14.749999999996,3.50000000000005,11.5));
#1207=CARTESIAN_POINT('',(14.750000000004,-3.49999999999995,11.5));
#1208=CARTESIAN_POINT('',(14.750000000004,3.50000000000005,11.5));
#1209=CARTESIAN_POINT('',(-14.749999999996,-3.49999999999995,11.5));
#1210=CARTESIAN_POINT('',(14.750000000004,-3.49999999999995,11.5));
#1211=CARTESIAN_POINT('',(-14.749999999996,-3.49999999999995,11.5));
#1212=CARTESIAN_POINT('',(-6.25,-3.4,11.5));
#1213=CARTESIAN_POINT('',(6.25,-3.4,11.5));
#1214=CARTESIAN_POINT('',(-6.25,-3.4,11.5));
#1215=CARTESIAN_POINT('',(6.25,3.4,11.5));
#1216=CARTESIAN_POINT('',(6.25,-3.4,11.5));
#1217=CARTESIAN_POINT('',(-6.25,3.4,11.5));
#1218=CARTESIAN_POINT('',(6.25,3.4,11.5));
#1219=CARTESIAN_POINT('',(-6.25,3.4,11.5));
#1220=CARTESIAN_POINT('Origin',(14.750000000004,-3.49999999999995,11.5));
#1221=CARTESIAN_POINT('',(14.750000000004,3.50000000000005,12.2));
#1222=CARTESIAN_POINT('',(14.750000000004,3.50000000000005,11.5));
#1223=CARTESIAN_POINT('',(14.750000000004,-3.49999999999995,12.2));
#1224=CARTESIAN_POINT('',(14.750000000004,3.50000000000005,12.2));
#1225=CARTESIAN_POINT('',(14.750000000004,-3.49999999999995,11.5));
#1226=CARTESIAN_POINT('Origin',(-14.749999999996,-3.49999999999995,11.5));
#1227=CARTESIAN_POINT('',(-14.749999999996,-3.49999999999995,12.2));
#1228=CARTESIAN_POINT('',(14.750000000004,-3.49999999999995,12.2));
#1229=CARTESIAN_POINT('',(-14.749999999996,-3.49999999999995,11.5));
#1230=CARTESIAN_POINT('Origin',(-14.749999999996,3.50000000000005,11.5));
#1231=CARTESIAN_POINT('',(-14.749999999996,3.50000000000005,12.2));
#1232=CARTESIAN_POINT('',(-14.749999999996,-3.49999999999995,12.2));
#1233=CARTESIAN_POINT('',(-14.749999999996,3.50000000000005,11.5));
#1234=CARTESIAN_POINT('Origin',(14.750000000004,3.50000000000005,11.5));
#1235=CARTESIAN_POINT('',(-14.749999999996,3.50000000000005,12.2));
#1236=CARTESIAN_POINT('Origin',(4.02344824124157E-12,4.71844785465692E-14,
12.2));
#1237=CARTESIAN_POINT('Origin',(4.6,0.,-0.375));
#1238=CARTESIAN_POINT('',(4.6,-1.,-2.75));
#1239=CARTESIAN_POINT('',(4.6,-1.,-8.32667268468867E-16));
#1240=CARTESIAN_POINT('',(4.6,-1.,-8.32667268468867E-16));
#1241=CARTESIAN_POINT('',(4.6,-1.25,-9.0205620750794E-16));
#1242=CARTESIAN_POINT('',(4.6,-1.25,-9.0205620750794E-16));
#1243=CARTESIAN_POINT('',(4.6,-1.25,2.));
#1244=CARTESIAN_POINT('',(4.6,-1.25,-9.0205620750794E-16));
#1245=CARTESIAN_POINT('',(4.6,1.25,2.));
#1246=CARTESIAN_POINT('',(4.6,0.,2.));
#1247=CARTESIAN_POINT('',(4.6,1.25,4.16333634234434E-16));
#1248=CARTESIAN_POINT('',(4.6,1.25,2.));
#1249=CARTESIAN_POINT('',(4.6,0.999999999999998,-1.38777878078145E-16));
#1250=CARTESIAN_POINT('',(4.6,0.999999999999998,-1.38777878078145E-16));
#1251=CARTESIAN_POINT('',(4.6,1.,-2.75));
#1252=CARTESIAN_POINT('',(4.6,1.,-2.75));
#1253=CARTESIAN_POINT('',(4.6,-1.,-2.75));
#1254=CARTESIAN_POINT('Origin',(5.,-1.25,-9.0205620750794E-16));
#1255=CARTESIAN_POINT('',(5.4,-1.,-8.32667268468867E-16));
#1256=CARTESIAN_POINT('',(5.,-1.,-8.32667268468867E-16));
#1257=CARTESIAN_POINT('',(5.4,-1.25,-9.0205620750794E-16));
#1258=CARTESIAN_POINT('',(5.4,-1.25,-9.0205620750794E-16));
#1259=CARTESIAN_POINT('',(5.,-1.25,-9.0205620750794E-16));
#1260=CARTESIAN_POINT('Origin',(5.,-1.25,2.));
#1261=CARTESIAN_POINT('',(5.4,-1.25,2.));
#1262=CARTESIAN_POINT('',(5.4,-1.25,-9.0205620750794E-16));
#1263=CARTESIAN_POINT('',(2.5,-1.25,2.));
#1264=CARTESIAN_POINT('Origin',(5.,1.25,5.55111512312578E-16));
#1265=CARTESIAN_POINT('',(5.4,1.25,2.));
#1266=CARTESIAN_POINT('',(2.5,1.25,2.));
#1267=CARTESIAN_POINT('',(5.4,1.25,4.16333634234434E-16));
#1268=CARTESIAN_POINT('',(5.4,1.25,2.));
#1269=CARTESIAN_POINT('',(5.,1.25,4.16333634234434E-16));
#1270=CARTESIAN_POINT('Origin',(5.,0.999999999999998,-1.38777878078145E-16));
#1271=CARTESIAN_POINT('',(5.4,0.999999999999998,-1.38777878078145E-16));
#1272=CARTESIAN_POINT('',(5.4,0.999999999999998,-1.38777878078145E-16));
#1273=CARTESIAN_POINT('',(5.,0.999999999999998,-1.38777878078145E-16));
#1274=CARTESIAN_POINT('Origin',(5.,1.,-2.75));
#1275=CARTESIAN_POINT('',(5.4,1.,-2.75));
#1276=CARTESIAN_POINT('',(5.4,1.,-2.75));
#1277=CARTESIAN_POINT('',(5.,1.,-2.75));
#1278=CARTESIAN_POINT('Origin',(5.,-1.,-2.75));
#1279=CARTESIAN_POINT('',(5.4,-1.,-2.75));
#1280=CARTESIAN_POINT('',(5.4,-1.,-2.75));
#1281=CARTESIAN_POINT('',(5.,-1.,-2.75));
#1282=CARTESIAN_POINT('Origin',(5.,-1.,-8.32667268468867E-16));
#1283=CARTESIAN_POINT('',(5.4,-1.,-8.32667268468867E-16));
#1284=CARTESIAN_POINT('Origin',(5.4,0.,-0.375));
#1285=CARTESIAN_POINT('',(5.4,0.,2.));
#1286=CARTESIAN_POINT('Origin',(-5.4,0.,-0.375));
#1287=CARTESIAN_POINT('',(-5.4,-1.,-2.75));
#1288=CARTESIAN_POINT('',(-5.4,-1.,-8.32667268468867E-16));
#1289=CARTESIAN_POINT('',(-5.4,-1.,-8.32667268468867E-16));
#1290=CARTESIAN_POINT('',(-5.4,-1.25,-9.0205620750794E-16));
#1291=CARTESIAN_POINT('',(-5.4,-1.25,-9.0205620750794E-16));
#1292=CARTESIAN_POINT('',(-5.4,-1.25,2.));
#1293=CARTESIAN_POINT('',(-5.4,-1.25,-9.0205620750794E-16));
#1294=CARTESIAN_POINT('',(-5.4,1.25,2.));
#1295=CARTESIAN_POINT('',(-5.4,0.,2.));
#1296=CARTESIAN_POINT('',(-5.4,1.25,4.16333634234434E-16));
#1297=CARTESIAN_POINT('',(-5.4,1.25,2.));
#1298=CARTESIAN_POINT('',(-5.4,0.999999999999998,-1.38777878078145E-16));
#1299=CARTESIAN_POINT('',(-5.4,0.999999999999998,-1.38777878078145E-16));
#1300=CARTESIAN_POINT('',(-5.4,1.,-2.75));
#1301=CARTESIAN_POINT('',(-5.4,1.,-2.75));
#1302=CARTESIAN_POINT('',(-5.4,-1.,-2.75));
#1303=CARTESIAN_POINT('Origin',(-5.,-1.25,-9.0205620750794E-16));
#1304=CARTESIAN_POINT('',(-4.6,-1.,-8.32667268468867E-16));
#1305=CARTESIAN_POINT('',(-5.,-1.,-8.32667268468867E-16));
#1306=CARTESIAN_POINT('',(-4.6,-1.25,-9.0205620750794E-16));
#1307=CARTESIAN_POINT('',(-4.6,-1.25,-9.0205620750794E-16));
#1308=CARTESIAN_POINT('',(-5.,-1.25,-9.0205620750794E-16));
#1309=CARTESIAN_POINT('Origin',(-5.,-1.25,2.));
#1310=CARTESIAN_POINT('',(-4.6,-1.25,2.));
#1311=CARTESIAN_POINT('',(-4.6,-1.25,-9.0205620750794E-16));
#1312=CARTESIAN_POINT('',(-2.5,-1.25,2.));
#1313=CARTESIAN_POINT('Origin',(-5.,1.25,5.55111512312578E-16));
#1314=CARTESIAN_POINT('',(-4.6,1.25,2.));
#1315=CARTESIAN_POINT('',(-2.5,1.25,2.));
#1316=CARTESIAN_POINT('',(-4.6,1.25,4.16333634234434E-16));
#1317=CARTESIAN_POINT('',(-4.6,1.25,2.));
#1318=CARTESIAN_POINT('',(-5.,1.25,4.16333634234434E-16));
#1319=CARTESIAN_POINT('Origin',(-5.,0.999999999999998,-1.38777878078145E-16));
#1320=CARTESIAN_POINT('',(-4.6,0.999999999999998,-1.38777878078145E-16));
#1321=CARTESIAN_POINT('',(-4.6,0.999999999999998,-1.38777878078145E-16));
#1322=CARTESIAN_POINT('',(-5.,0.999999999999998,-1.38777878078145E-16));
#1323=CARTESIAN_POINT('Origin',(-5.,1.,-2.75));
#1324=CARTESIAN_POINT('',(-4.6,1.,-2.75));
#1325=CARTESIAN_POINT('',(-4.6,1.,-2.75));
#1326=CARTESIAN_POINT('',(-5.,1.,-2.75));
#1327=CARTESIAN_POINT('Origin',(-5.,-1.,-2.75));
#1328=CARTESIAN_POINT('',(-4.6,-1.,-2.75));
#1329=CARTESIAN_POINT('',(-4.6,-1.,-2.75));
#1330=CARTESIAN_POINT('',(-5.,-1.,-2.75));
#1331=CARTESIAN_POINT('Origin',(-5.,-1.,-8.32667268468867E-16));
#1332=CARTESIAN_POINT('',(-4.6,-1.,-8.32667268468867E-16));
#1333=CARTESIAN_POINT('Origin',(-4.6,0.,-0.375));
#1334=CARTESIAN_POINT('',(-4.6,0.,2.));
#1335=CARTESIAN_POINT('Origin',(-0.4,0.,-0.375));
#1336=CARTESIAN_POINT('',(-0.4,-1.,-2.75));
#1337=CARTESIAN_POINT('',(-0.4,-1.,-8.32667268468867E-16));
#1338=CARTESIAN_POINT('',(-0.4,-1.,-8.32667268468867E-16));
#1339=CARTESIAN_POINT('',(-0.4,-1.25,-9.0205620750794E-16));
#1340=CARTESIAN_POINT('',(-0.4,-1.25,-9.0205620750794E-16));
#1341=CARTESIAN_POINT('',(-0.4,-1.25,2.));
#1342=CARTESIAN_POINT('',(-0.4,-1.25,-9.0205620750794E-16));
#1343=CARTESIAN_POINT('',(-0.4,1.25,2.));
#1344=CARTESIAN_POINT('',(-0.4,0.,2.));
#1345=CARTESIAN_POINT('',(-0.4,1.25,4.16333634234434E-16));
#1346=CARTESIAN_POINT('',(-0.4,1.25,2.));
#1347=CARTESIAN_POINT('',(-0.4,0.999999999999998,-1.38777878078145E-16));
#1348=CARTESIAN_POINT('',(-0.4,0.999999999999998,-1.38777878078145E-16));
#1349=CARTESIAN_POINT('',(-0.4,1.,-2.75));
#1350=CARTESIAN_POINT('',(-0.4,1.,-2.75));
#1351=CARTESIAN_POINT('',(-0.4,-1.,-2.75));
#1352=CARTESIAN_POINT('Origin',(0.,-1.25,-9.0205620750794E-16));
#1353=CARTESIAN_POINT('',(0.4,-1.,-8.32667268468867E-16));
#1354=CARTESIAN_POINT('',(0.,-1.,-8.32667268468867E-16));
#1355=CARTESIAN_POINT('',(0.4,-1.25,-9.0205620750794E-16));
#1356=CARTESIAN_POINT('',(0.4,-1.25,-9.0205620750794E-16));
#1357=CARTESIAN_POINT('',(0.,-1.25,-9.0205620750794E-16));
#1358=CARTESIAN_POINT('Origin',(0.,-1.25,2.));
#1359=CARTESIAN_POINT('',(0.4,-1.25,2.));
#1360=CARTESIAN_POINT('',(0.4,-1.25,-9.0205620750794E-16));
#1361=CARTESIAN_POINT('',(-5.55111512312578E-16,-1.25,2.));
#1362=CARTESIAN_POINT('Origin',(0.,1.25,5.55111512312578E-16));
#1363=CARTESIAN_POINT('',(0.4,1.25,2.));
#1364=CARTESIAN_POINT('',(-5.55111512312578E-16,1.25,2.));
#1365=CARTESIAN_POINT('',(0.4,1.25,4.16333634234434E-16));
#1366=CARTESIAN_POINT('',(0.4,1.25,2.));
#1367=CARTESIAN_POINT('',(0.,1.25,4.16333634234434E-16));
#1368=CARTESIAN_POINT('Origin',(0.,0.999999999999998,-1.38777878078145E-16));
#1369=CARTESIAN_POINT('',(0.4,0.999999999999998,-1.38777878078145E-16));
#1370=CARTESIAN_POINT('',(0.4,0.999999999999998,-1.38777878078145E-16));
#1371=CARTESIAN_POINT('',(0.,0.999999999999998,-1.38777878078145E-16));
#1372=CARTESIAN_POINT('Origin',(0.,1.,-2.75));
#1373=CARTESIAN_POINT('',(0.4,1.,-2.75));
#1374=CARTESIAN_POINT('',(0.4,1.,-2.75));
#1375=CARTESIAN_POINT('',(0.,1.,-2.75));
#1376=CARTESIAN_POINT('Origin',(0.,-1.,-2.75));
#1377=CARTESIAN_POINT('',(0.4,-1.,-2.75));
#1378=CARTESIAN_POINT('',(0.4,-1.,-2.75));
#1379=CARTESIAN_POINT('',(0.,-1.,-2.75));
#1380=CARTESIAN_POINT('Origin',(0.,-1.,-8.32667268468867E-16));
#1381=CARTESIAN_POINT('',(0.4,-1.,-8.32667268468867E-16));
#1382=CARTESIAN_POINT('Origin',(0.4,0.,-0.375));
#1383=CARTESIAN_POINT('',(0.4,0.,2.));
#1384=CARTESIAN_POINT('Origin',(-6.25,-3.4,2.));
#1385=CARTESIAN_POINT('',(-6.25,-3.4,2.));
#1386=CARTESIAN_POINT('',(6.25,-3.4,2.));
#1387=CARTESIAN_POINT('',(-6.25,-3.4,2.));
#1388=CARTESIAN_POINT('',(6.25,-3.4,2.));
#1389=CARTESIAN_POINT('',(-6.25,-3.4,2.));
#1390=CARTESIAN_POINT('Origin',(-6.25,3.4,2.));
#1391=CARTESIAN_POINT('',(-6.25,3.4,2.));
#1392=CARTESIAN_POINT('',(-6.25,3.4,2.));
#1393=CARTESIAN_POINT('',(-6.25,3.4,2.));
#1394=CARTESIAN_POINT('Origin',(6.25,3.4,2.));
#1395=CARTESIAN_POINT('',(6.25,3.4,2.));
#1396=CARTESIAN_POINT('',(6.25,3.4,2.));
#1397=CARTESIAN_POINT('',(6.25,3.4,2.));
#1398=CARTESIAN_POINT('Origin',(6.25,-3.4,2.));
#1399=CARTESIAN_POINT('',(6.25,-3.4,2.));
#1400=CARTESIAN_POINT('Origin',(-1.11022302462516E-15,0.,2.));
#1401=CARTESIAN_POINT('Origin',(-0.590756525675106,-4.65,19.3730796257822));
#1402=CARTESIAN_POINT('',(-2.14075652567459,-4.65,21.7));
#1403=CARTESIAN_POINT('',(-8.84075652567459,-4.65,21.7));
#1404=CARTESIAN_POINT('',(-2.14075652567459,-4.65,21.7));
#1405=CARTESIAN_POINT('',(-8.84075652567562,-4.65,13.7));
#1406=CARTESIAN_POINT('',(-8.84075652567459,-4.65,21.7));
#1407=CARTESIAN_POINT('',(4.02317068548541E-12,-4.65,13.7));
#1408=CARTESIAN_POINT('',(-8.84075652567562,-4.65,13.7));
#1409=CARTESIAN_POINT('',(7.65924347432541,-4.65,18.1153103342135));
#1410=CARTESIAN_POINT('',(4.02327476889397E-12,-4.65,13.7));
#1411=CARTESIAN_POINT('',(3.66382944260691,-4.65,25.0461592515643));
#1412=CARTESIAN_POINT('',(7.65924347432541,-4.65,18.1153103342135));
#1413=CARTESIAN_POINT('',(3.66382944260691,-4.65,25.0461592515643));
#1414=CARTESIAN_POINT('Origin',(-8.84075652567562,0.,13.7));
#1415=CARTESIAN_POINT('',(-8.84075652567459,4.65,21.7));
#1416=CARTESIAN_POINT('',(-8.84075652567459,0.,21.7));
#1417=CARTESIAN_POINT('',(-8.84075652567562,4.65,13.7));
#1418=CARTESIAN_POINT('',(-8.84075652567459,4.65,21.7));
#1419=CARTESIAN_POINT('',(-8.84075652567562,0.,13.7));
#1420=CARTESIAN_POINT('Origin',(4.02344824124157E-12,0.,13.7));
#1421=CARTESIAN_POINT('',(4.02317068548541E-12,4.65,13.7));
#1422=CARTESIAN_POINT('',(-8.84075652567562,4.65,13.7));
#1423=CARTESIAN_POINT('',(4.02327476889397E-12,0.,13.7));
#1424=CARTESIAN_POINT('Origin',(7.65924347432541,0.,18.1153103342135));
#1425=CARTESIAN_POINT('',(7.65924347432541,4.65,18.1153103342135));
#1426=CARTESIAN_POINT('',(4.02327476889397E-12,4.65,13.7));
#1427=CARTESIAN_POINT('',(7.65924347432541,0.,18.1153103342135));
#1428=CARTESIAN_POINT('Origin',(3.66382944260691,0.,25.0461592515643));
#1429=CARTESIAN_POINT('',(3.66382944260691,4.65,25.0461592515643));
#1430=CARTESIAN_POINT('',(7.65924347432541,4.65,18.1153103342135));
#1431=CARTESIAN_POINT('',(3.66382944260691,0.,25.0461592515643));
#1432=CARTESIAN_POINT('Origin',(-2.14075652567459,0.,21.7));
#1433=CARTESIAN_POINT('',(-2.14075652567459,4.65,21.7));
#1434=CARTESIAN_POINT('',(3.66382944260691,4.65,25.0461592515643));
#1435=CARTESIAN_POINT('',(-2.14075652567459,0.,21.7));
#1436=CARTESIAN_POINT('Origin',(-8.84075652567459,0.,21.7));
#1437=CARTESIAN_POINT('',(-2.14075652567459,4.65,21.7));
#1438=CARTESIAN_POINT('Origin',(-0.590756525675106,4.65,19.3730796257822));
#1439=UNCERTAINTY_MEASURE_WITH_UNIT(LENGTH_MEASURE(0.01),#1443,
'DISTANCE_ACCURACY_VALUE',
'Maximum model space distance between geometric entities at asserted c
onnectivities');
#1440=UNCERTAINTY_MEASURE_WITH_UNIT(LENGTH_MEASURE(0.01),#1443,
'DISTANCE_ACCURACY_VALUE',
'Maximum model space distance between geometric entities at asserted c
onnectivities');
#1441=(
GEOMETRIC_REPRESENTATION_CONTEXT(3)
GLOBAL_UNCERTAINTY_ASSIGNED_CONTEXT((#1439))
GLOBAL_UNIT_ASSIGNED_CONTEXT((#1443,#1445,#1446))
REPRESENTATION_CONTEXT('','3D')
);
#1442=(
GEOMETRIC_REPRESENTATION_CONTEXT(3)
GLOBAL_UNCERTAINTY_ASSIGNED_CONTEXT((#1440))
GLOBAL_UNIT_ASSIGNED_CONTEXT((#1443,#1445,#1446))
REPRESENTATION_CONTEXT('','3D')
);
#1443=(
LENGTH_UNIT()
NAMED_UNIT(*)
SI_UNIT(.MILLI.,.METRE.)
);
#1444=(
LENGTH_UNIT()
NAMED_UNIT(*)
SI_UNIT($,.METRE.)
);
#1445=(
NAMED_UNIT(*)
PLANE_ANGLE_UNIT()
SI_UNIT($,.RADIAN.)
);
#1446=(
NAMED_UNIT(*)
SI_UNIT($,.STERADIAN.)
SOLID_ANGLE_UNIT()
);
#1447=SHAPE_DEFINITION_REPRESENTATION(#1448,#1449);
#1448=PRODUCT_DEFINITION_SHAPE('',$,#1451);
#1449=SHAPE_REPRESENTATION('',(#915),#1441);
#1450=PRODUCT_DEFINITION_CONTEXT('part definition',#1455,'design');
#1451=PRODUCT_DEFINITION('rockerSwitch','rockerSwitch v1',#1452,#1450);
#1452=PRODUCT_DEFINITION_FORMATION('',$,#1457);
#1453=PRODUCT_RELATED_PRODUCT_CATEGORY('rockerSwitch v1',
'rockerSwitch v1',(#1457));
#1454=APPLICATION_PROTOCOL_DEFINITION('international standard',
'automotive_design',2009,#1455);
#1455=APPLICATION_CONTEXT(
'Core Data for Automotive Mechanical Design Process');
#1456=PRODUCT_CONTEXT('part definition',#1455,'mechanical');
#1457=PRODUCT('rockerSwitch','rockerSwitch v1',$,(#1456));
#1458=PRESENTATION_STYLE_ASSIGNMENT((#1459));
#1459=SURFACE_STYLE_USAGE(.BOTH.,#1460);
#1460=SURFACE_SIDE_STYLE('',(#1461));
#1461=SURFACE_STYLE_FILL_AREA(#1462);
#1462=FILL_AREA_STYLE('Steel - Satin',(#1463));
#1463=FILL_AREA_STYLE_COLOUR('Steel - Satin',#1464);
#1464=COLOUR_RGB('Steel - Satin',0.627450980392157,0.627450980392157,0.627450980392157);
ENDSEC;
END-ISO-10303-21;
