(footprint "RockerSwitch_5mmPitch_2x2mm" (version 20211014) (generator pcbnew)
  (layer "F.Cu")
  (tedit 6300EE0D)
  (attr through_hole)
  (fp_text reference "REF**" (at 0 -0.5 unlocked) (layer "F.SilkS")
    (effects (font (size 1 1) (thickness 0.15)))
    (tstamp 8cbfc894-8ef6-4121-b719-79072e2f55cb)
  )
  (fp_text value "RockerSwitch_5mmPitch_2x2mm" (at 0 1 unlocked) (layer "F.Fab")
    (effects (font (size 1 1) (thickness 0.15)))
    (tstamp 8229cf0f-f13e-4fa4-b883-d7fe056db563)
  )
  (fp_text user "${REFERENCE}" (at 0 2.5 unlocked) (layer "F.Fab")
    (effects (font (size 1 1) (thickness 0.15)))
    (tstamp b05ab39a-81a2-413d-81a7-9ed4c7df36bd)
  )
  (fp_line (start 6.5 4) (end -6.5 4) (layer "F.SilkS") (width 0.12) (tstamp 56b88fe8-7c86-4458-810a-f7d5a344a463))
  (fp_line (start 6.5 -4) (end 6.5 4) (layer "F.SilkS") (width 0.12) (tstamp 7b5b9a00-e212-49eb-84eb-87afff714582))
  (fp_line (start -6.5 4) (end -6.5 -4) (layer "F.SilkS") (width 0.12) (tstamp 80369c3f-0e91-4737-930e-680c8afc9cb8))
  (fp_line (start -6.5 -4) (end 6.5 -4) (layer "F.SilkS") (width 0.12) (tstamp 871fe201-8570-4ab4-b58c-0d248a209c25))
  (pad "1" thru_hole circle (at -4 0) (size 3.6 3.6) (drill 2.1) (layers *.Cu *.Mask) (tstamp 4a3006ee-6e47-4d80-9167-39c57c7a6d2c))
  (pad "2" thru_hole circle (at 0 0) (size 3.6 3.6) (drill 2.1) (layers *.Cu *.Mask) (tstamp b0690cc9-0fa9-48ff-9516-902622b67690))
  (model "D:/KiCad Libraries/Switches.pretty/powerSwitch v1.step"
    (offset (xyz 0 0 0))
    (scale (xyz 1 1 1))
    (rotate (xyz 0 0 90))
  )
)
