(footprint "SparkfunThumbStickButton" (version 20211014) (generator pcbnew)
  (layer "F.Cu")
  (tedit 6300E4D6)
  (attr through_hole)
  (fp_text reference "M3" (at 0.5 0) (layer "F.SilkS")
    (effects (font (size 1 1) (thickness 0.15)))
    (tstamp 3abc7938-d635-43a7-b2de-55708c908e10)
  )
  (fp_text value "ThumbStickButton" (at 1 2) (layer "F.Fab") hide
    (effects (font (size 1 1) (thickness 0.15)))
    (tstamp ca14d0b0-2600-4ed2-a021-167444e07bec)
  )
  (fp_line (start -4.826 8.89) (end -4.826 11.43) (layer "F.SilkS") (width 0.15) (tstamp 1073e2ab-1f15-45c5-9f39-a4ed310932b4))
  (fp_line (start 7.62 8.89) (end 7.62 4.064) (layer "F.SilkS") (width 0.15) (tstamp 2019d1cb-3f44-4350-b567-07ec343b7ded))
  (fp_line (start -11.176 4.826) (end -7.62 4.826) (layer "F.SilkS") (width 0.15) (tstamp 24798a3e-514c-4324-a45c-9c58f6104d10))
  (fp_line (start -4.826 11.43) (end 4.826 11.43) (layer "F.SilkS") (width 0.15) (tstamp 2d475672-af82-4b88-83ca-3c30f2719f72))
  (fp_line (start 7.62 -6.985) (end 7.62 -4.064) (layer "F.SilkS") (width 0.15) (tstamp 32450ce7-fbe5-4a8a-a4f0-430408f6414a))
  (fp_line (start -7.62 8.89) (end -4.826 8.89) (layer "F.SilkS") (width 0.15) (tstamp 4d4aee85-73f0-4d61-ad79-1fd8c17096f5))
  (fp_line (start -5.588 -13.97) (end 5.588 -13.97) (layer "F.SilkS") (width 0.15) (tstamp 5e6ca305-2b2a-4bbd-8304-3c766e1c0de3))
  (fp_line (start -7.62 -6.985) (end -7.62 -4.826) (layer "F.SilkS") (width 0.15) (tstamp 64b90e1f-b66a-437d-be77-1d73d8d72146))
  (fp_line (start 4.826 8.89) (end 7.62 8.89) (layer "F.SilkS") (width 0.15) (tstamp 673f1a23-6661-4620-90df-f91c1a23f2f1))
  (fp_line (start -5.588 -13.97) (end -5.588 -6.985) (layer "F.SilkS") (width 0.15) (tstamp 6fd79d3f-e027-49e4-a286-deb8cd8d05de))
  (fp_line (start 7.62 -4.064) (end 9.525 -4.064) (layer "F.SilkS") (width 0.15) (tstamp 83eaa170-0f51-4bb4-af91-7a5a243a201c))
  (fp_line (start 9.525 4.064) (end 9.525 -4.064) (layer "F.SilkS") (width 0.15) (tstamp 98c41d91-3f72-4f82-8376-ce2f310a6d96))
  (fp_line (start 4.826 11.43) (end 4.826 8.89) (layer "F.SilkS") (width 0.15) (tstamp a701b068-ffdf-4fe2-82fb-151ca618bb47))
  (fp_line (start -7.62 -4.826) (end -11.176 -4.826) (layer "F.SilkS") (width 0.15) (tstamp bda15ee9-b44d-4dc8-b2b1-024f6516d860))
  (fp_line (start -7.62 4.826) (end -7.62 8.89) (layer "F.SilkS") (width 0.15) (tstamp c1f22372-d0a7-487f-b12d-572047ecc2f5))
  (fp_line (start -11.176 -4.826) (end -11.176 4.826) (layer "F.SilkS") (width 0.15) (tstamp c792d8d9-4817-4d6f-a57e-3c117c43a497))
  (fp_line (start 5.588 -6.985) (end 7.62 -6.985) (layer "F.SilkS") (width 0.15) (tstamp d039efaa-7da5-4a1c-b849-1cadc9110e4a))
  (fp_line (start 5.588 -13.97) (end 5.588 -6.985) (layer "F.SilkS") (width 0.15) (tstamp d8fbedd9-bbf3-4187-842a-3510bcba1e5f))
  (fp_line (start -5.588 -6.985) (end -7.62 -6.985) (layer "F.SilkS") (width 0.15) (tstamp dccf7f09-870a-430e-b3a5-d374b0951e63))
  (fp_line (start 7.62 4.064) (end 9.525 4.064) (layer "F.SilkS") (width 0.15) (tstamp ec315fc0-5fbc-46a7-b61d-3e7ba71487f1))
  (fp_circle (center 0 0) (end 12.7 0) (layer "F.SilkS") (width 0.15) (fill none) (tstamp 20193e1f-fada-4c28-9cae-dcc1516a667c))
  (pad "0" thru_hole circle (at -7.62 6.6675) (size 2.286 2.286) (drill 1.397) (layers *.Cu *.Mask) (tstamp 281cba2a-9a0d-4ba9-ae02-4851a4d5ef54))
  (pad "0" thru_hole circle (at 7.62 6.6675) (size 2.286 2.286) (drill 1.397) (layers *.Cu *.Mask) (tstamp ad0f7d9a-9abf-4866-abfe-c678d2624384))
  (pad "0" thru_hole circle (at 7.62 -6.6675) (size 2.286 2.286) (drill 1.397) (layers *.Cu *.Mask) (tstamp b168ed7f-2c63-4dbc-90bf-bf3adb3795ed))
  (pad "0" thru_hole circle (at -7.62 -6.6675) (size 2.286 2.286) (drill 1.397) (layers *.Cu *.Mask) (tstamp cd446b8a-c08c-42cd-a9a3-cf412885f2b4))
  (pad "1" thru_hole circle (at -3.175 -12.7) (size 1.778 1.778) (drill 0.899922) (layers *.Cu *.Mask) (tstamp 7869f947-883d-43de-ac85-51a8b8bdfb0f))
  (pad "1" thru_hole circle (at 3.175 -12.7) (size 1.778 1.778) (drill 0.899922) (layers *.Cu *.Mask) (tstamp e5a6a0c6-b654-43a9-9bdb-35d265394583))
  (pad "2" thru_hole circle (at 3.175 -7.62) (size 1.778 1.778) (drill 0.899922) (layers *.Cu *.Mask) (tstamp 32b25f66-826b-47bc-9f26-eae4a5f0a5bf))
  (pad "2" thru_hole circle (at -3.175 -7.62) (size 1.778 1.778) (drill 0.899922) (layers *.Cu *.Mask) (tstamp 38d5d713-b94e-4d55-b43a-1a75433f7985))
  (pad "3" thru_hole circle (at -10.16 -2.54) (size 1.778 1.778) (drill 0.889) (layers *.Cu *.Mask) (tstamp 71397e76-b6a2-431e-a781-9527506befc9))
  (pad "4" thru_hole circle (at -10.16 0) (size 1.778 1.778) (drill 0.889) (layers *.Cu *.Mask) (tstamp af85d2f1-0a95-4326-a8f5-d4abec33b0ff))
  (pad "5" thru_hole circle (at -10.16 2.54) (size 1.778 1.778) (drill 0.889) (layers *.Cu *.Mask) (tstamp d38c4111-b22d-4aa6-9f1e-02baca01bfee))
  (pad "6" thru_hole circle (at -2.54 10.16) (size 1.778 1.778) (drill 0.889) (layers *.Cu *.Mask) (tstamp 5591601a-0208-417f-b6e4-bd68e0c1316e))
  (pad "7" thru_hole circle (at 0 10.16) (size 1.778 1.778) (drill 0.889) (layers *.Cu *.Mask) (tstamp d3f99c02-22d0-4155-aa93-2eedfa8072cd))
  (pad "8" thru_hole circle (at 2.54 10.16) (size 1.778 1.778) (drill 0.889) (layers *.Cu *.Mask) (tstamp 23a4b9ee-966e-47a6-b50c-dfc53ee72eff))
  (model "D:/KiCad Libraries/Switches.pretty/SparkfunThumbStickButton.STEP"
    (offset (xyz -8 -8 0))
    (scale (xyz 1 1 1))
    (rotate (xyz 0 0 0))
  )
)
