(module "LED side mount 2-SMD 2.1x0.8" (layer F.Cu) (tedit 5DE135A6)
  (fp_text reference D1 (at -1.5 -1.5) (layer F.SilkS)
    (effects (font (size 1 1) (thickness 0.15)))
  )
  (fp_text value LED (at 0 -0.5) (layer F.Fab)
    (effects (font (size 1 1) (thickness 0.15)))
  )
  (fp_line (start -1.05 0.4) (end 1.05 0.4) (layer F.SilkS) (width 0.2))
  (fp_line (start 1.05 0.4) (end 1.05 -0.4) (layer F.SilkS) (width 0.2))
  (fp_line (start 1.05 -0.4) (end -1.05 -0.4) (layer F.SilkS) (width 0.2))
  (fp_line (start -1.05 -0.4) (end -1.05 0.4) (layer F.SilkS) (width 0.2))
  (fp_circle (center 1.2 -0.8) (end 1.3 -0.8) (layer F.SilkS) (width 0.2))
  (fp_arc (start 0 0.5) (end 0.5 0.5) (angle 180) (layer F.SilkS) (width 0.2))
  (pad 1 smd rect (at 1.3 0) (size 1.5 1) (layers F.Cu F.Paste F.Mask))
  (pad 2 smd rect (at -1.3 0) (size 1.5 1) (layers F.Cu F.Paste F.Mask))
)
