(footprint "ESC_30A_Sidemount" (version 20211014) (generator pcbnew)
  (layer "F.Cu")
  (tedit 62409181)
  (attr smd)
  (fp_text reference "REF**" (at 0 -0.5 unlocked) (layer "F.SilkS")
    (effects (font (size 1 1) (thickness 0.15)))
    (tstamp 8ce8c4f5-ccd2-4a37-8a93-1f1792ad26f1)
  )
  (fp_text value "ESC_30A_Sidemount" (at 0 1 unlocked) (layer "F.Fab")
    (effects (font (size 1 1) (thickness 0.15)))
    (tstamp 4bc41182-a287-466a-b6e5-274bf6b3ff53)
  )
  (fp_text user "${REFERENCE}" (at 0 2.5 unlocked) (layer "F.Fab")
    (effects (font (size 1 1) (thickness 0.15)))
    (tstamp 531f46ba-2864-4f19-99af-2b1bdbf30672)
  )
  (fp_line (start 28 -6.25) (end 28 6.25) (layer "Cmts.User") (width 0.12) (tstamp 660d6c1a-23d4-4c44-b204-bc075bb6d468))
  (fp_line (start 2 6.25) (end 2 -6.25) (layer "Cmts.User") (width 0.12) (tstamp 7ea69b90-f405-44d0-94c2-621aca86cfdd))
  (fp_line (start 2 -6.25) (end 28 -6.25) (layer "Cmts.User") (width 0.12) (tstamp a5d07ba6-1e99-4658-ac7e-d85cf89129b5))
  (fp_line (start 2 6.25) (end 28 6.25) (layer "Cmts.User") (width 0.12) (tstamp d0010988-9801-4cb8-a8c6-da7c1a1b5803))
  (pad "1" smd roundrect (at 0 -4.5) (size 2.5 3) (layers "F.Cu" "F.Mask") (roundrect_rratio 0.25) (tstamp 01daeee7-951a-4f78-8d50-0052f3542a20))
  (pad "2" smd roundrect (at 0 1.75) (size 2.5 1.5) (layers "F.Cu" "F.Mask") (roundrect_rratio 0.25) (tstamp bfa5f33d-0368-4d59-8a29-8c1677f63ada))
  (pad "3" smd roundrect (at 0 4.5) (size 2.5 3) (layers "F.Cu" "F.Mask") (roundrect_rratio 0.25) (tstamp 4449ae84-e5ed-4523-b001-2b888c9dbc59))
)
