ISO-10303-21;
HEADER;
/* Generated by software containing ST-Developer
 * from STEP Tools, Inc. (www.steptools.com) 
 */

FILE_DESCRIPTION(
/* description */ (''),
/* implementation_level */ '2;1');

FILE_NAME(
/* name */ 'esp32_cam.step',
/* time_stamp */ '2022-12-16T15:01:54-05:00',
/* author */ (''),
/* organization */ (''),
/* preprocessor_version */ 'ST-DEVELOPER v19.2',
/* originating_system */ 'Autodesk Translation Framework v11.17.0.187',

/* authorisation */ '');

FILE_SCHEMA (('AUTOMOTIVE_DESIGN { 1 0 10303 214 3 1 1 }'));
ENDSEC;

DATA;
#10=MECHANICAL_DESIGN_GEOMETRIC_PRESENTATION_REPRESENTATION('',(#13),#609);
#11=SHAPE_REPRESENTATION_RELATIONSHIP('SRR','None',#616,#12);
#12=ADVANCED_BREP_SHAPE_REPRESENTATION('',(#14),#608);
#13=STYLED_ITEM('',(#625),#14);
#14=MANIFOLD_SOLID_BREP('Body1',#377);
#15=FACE_BOUND('',#59,.T.);
#16=FACE_BOUND('',#61,.T.);
#17=FACE_BOUND('',#62,.T.);
#18=FACE_OUTER_BOUND('',#39,.T.);
#19=FACE_OUTER_BOUND('',#40,.T.);
#20=FACE_OUTER_BOUND('',#41,.T.);
#21=FACE_OUTER_BOUND('',#42,.T.);
#22=FACE_OUTER_BOUND('',#43,.T.);
#23=FACE_OUTER_BOUND('',#44,.T.);
#24=FACE_OUTER_BOUND('',#45,.T.);
#25=FACE_OUTER_BOUND('',#46,.T.);
#26=FACE_OUTER_BOUND('',#47,.T.);
#27=FACE_OUTER_BOUND('',#48,.T.);
#28=FACE_OUTER_BOUND('',#49,.T.);
#29=FACE_OUTER_BOUND('',#50,.T.);
#30=FACE_OUTER_BOUND('',#51,.T.);
#31=FACE_OUTER_BOUND('',#52,.T.);
#32=FACE_OUTER_BOUND('',#53,.T.);
#33=FACE_OUTER_BOUND('',#54,.T.);
#34=FACE_OUTER_BOUND('',#55,.T.);
#35=FACE_OUTER_BOUND('',#56,.T.);
#36=FACE_OUTER_BOUND('',#57,.T.);
#37=FACE_OUTER_BOUND('',#58,.T.);
#38=FACE_OUTER_BOUND('',#60,.T.);
#39=EDGE_LOOP('',(#239,#240,#241,#242));
#40=EDGE_LOOP('',(#243,#244,#245,#246));
#41=EDGE_LOOP('',(#247,#248,#249,#250));
#42=EDGE_LOOP('',(#251,#252,#253,#254));
#43=EDGE_LOOP('',(#255,#256,#257,#258));
#44=EDGE_LOOP('',(#259,#260,#261,#262));
#45=EDGE_LOOP('',(#263,#264,#265,#266));
#46=EDGE_LOOP('',(#267,#268,#269,#270));
#47=EDGE_LOOP('',(#271,#272,#273,#274));
#48=EDGE_LOOP('',(#275,#276,#277,#278));
#49=EDGE_LOOP('',(#279,#280,#281,#282));
#50=EDGE_LOOP('',(#283,#284,#285,#286));
#51=EDGE_LOOP('',(#287,#288,#289,#290));
#52=EDGE_LOOP('',(#291,#292,#293,#294));
#53=EDGE_LOOP('',(#295,#296,#297,#298));
#54=EDGE_LOOP('',(#299,#300,#301,#302));
#55=EDGE_LOOP('',(#303,#304,#305,#306));
#56=EDGE_LOOP('',(#307,#308,#309,#310));
#57=EDGE_LOOP('',(#311,#312,#313,#314));
#58=EDGE_LOOP('',(#315,#316,#317,#318));
#59=EDGE_LOOP('',(#319,#320,#321,#322));
#60=EDGE_LOOP('',(#323,#324,#325,#326));
#61=EDGE_LOOP('',(#327,#328,#329,#330));
#62=EDGE_LOOP('',(#331,#332,#333,#334));
#63=LINE('',#508,#111);
#64=LINE('',#510,#112);
#65=LINE('',#512,#113);
#66=LINE('',#513,#114);
#67=LINE('',#516,#115);
#68=LINE('',#518,#116);
#69=LINE('',#519,#117);
#70=LINE('',#522,#118);
#71=LINE('',#524,#119);
#72=LINE('',#525,#120);
#73=LINE('',#527,#121);
#74=LINE('',#528,#122);
#75=LINE('',#533,#123);
#76=LINE('',#535,#124);
#77=LINE('',#537,#125);
#78=LINE('',#538,#126);
#79=LINE('',#541,#127);
#80=LINE('',#543,#128);
#81=LINE('',#544,#129);
#82=LINE('',#547,#130);
#83=LINE('',#549,#131);
#84=LINE('',#550,#132);
#85=LINE('',#552,#133);
#86=LINE('',#553,#134);
#87=LINE('',#558,#135);
#88=LINE('',#560,#136);
#89=LINE('',#562,#137);
#90=LINE('',#563,#138);
#91=LINE('',#566,#139);
#92=LINE('',#568,#140);
#93=LINE('',#569,#141);
#94=LINE('',#572,#142);
#95=LINE('',#574,#143);
#96=LINE('',#575,#144);
#97=LINE('',#577,#145);
#98=LINE('',#578,#146);
#99=LINE('',#583,#147);
#100=LINE('',#585,#148);
#101=LINE('',#587,#149);
#102=LINE('',#588,#150);
#103=LINE('',#591,#151);
#104=LINE('',#593,#152);
#105=LINE('',#594,#153);
#106=LINE('',#597,#154);
#107=LINE('',#599,#155);
#108=LINE('',#600,#156);
#109=LINE('',#602,#157);
#110=LINE('',#603,#158);
#111=VECTOR('',#416,10.);
#112=VECTOR('',#417,10.);
#113=VECTOR('',#418,10.);
#114=VECTOR('',#419,10.);
#115=VECTOR('',#422,10.);
#116=VECTOR('',#423,10.);
#117=VECTOR('',#424,10.);
#118=VECTOR('',#427,10.);
#119=VECTOR('',#428,10.);
#120=VECTOR('',#429,10.);
#121=VECTOR('',#432,10.);
#122=VECTOR('',#433,10.);
#123=VECTOR('',#438,10.);
#124=VECTOR('',#439,10.);
#125=VECTOR('',#440,10.);
#126=VECTOR('',#441,10.);
#127=VECTOR('',#444,10.);
#128=VECTOR('',#445,10.);
#129=VECTOR('',#446,10.);
#130=VECTOR('',#449,10.);
#131=VECTOR('',#450,10.);
#132=VECTOR('',#451,10.);
#133=VECTOR('',#454,10.);
#134=VECTOR('',#455,10.);
#135=VECTOR('',#460,10.);
#136=VECTOR('',#461,10.);
#137=VECTOR('',#462,10.);
#138=VECTOR('',#463,10.);
#139=VECTOR('',#466,10.);
#140=VECTOR('',#467,10.);
#141=VECTOR('',#468,10.);
#142=VECTOR('',#471,10.);
#143=VECTOR('',#472,10.);
#144=VECTOR('',#473,10.);
#145=VECTOR('',#476,10.);
#146=VECTOR('',#477,10.);
#147=VECTOR('',#482,10.);
#148=VECTOR('',#483,10.);
#149=VECTOR('',#484,10.);
#150=VECTOR('',#485,10.);
#151=VECTOR('',#488,10.);
#152=VECTOR('',#489,10.);
#153=VECTOR('',#490,10.);
#154=VECTOR('',#493,10.);
#155=VECTOR('',#494,10.);
#156=VECTOR('',#495,10.);
#157=VECTOR('',#498,10.);
#158=VECTOR('',#499,10.);
#159=VERTEX_POINT('',#506);
#160=VERTEX_POINT('',#507);
#161=VERTEX_POINT('',#509);
#162=VERTEX_POINT('',#511);
#163=VERTEX_POINT('',#515);
#164=VERTEX_POINT('',#517);
#165=VERTEX_POINT('',#521);
#166=VERTEX_POINT('',#523);
#167=VERTEX_POINT('',#531);
#168=VERTEX_POINT('',#532);
#169=VERTEX_POINT('',#534);
#170=VERTEX_POINT('',#536);
#171=VERTEX_POINT('',#540);
#172=VERTEX_POINT('',#542);
#173=VERTEX_POINT('',#546);
#174=VERTEX_POINT('',#548);
#175=VERTEX_POINT('',#556);
#176=VERTEX_POINT('',#557);
#177=VERTEX_POINT('',#559);
#178=VERTEX_POINT('',#561);
#179=VERTEX_POINT('',#565);
#180=VERTEX_POINT('',#567);
#181=VERTEX_POINT('',#571);
#182=VERTEX_POINT('',#573);
#183=VERTEX_POINT('',#581);
#184=VERTEX_POINT('',#582);
#185=VERTEX_POINT('',#584);
#186=VERTEX_POINT('',#586);
#187=VERTEX_POINT('',#590);
#188=VERTEX_POINT('',#592);
#189=VERTEX_POINT('',#596);
#190=VERTEX_POINT('',#598);
#191=EDGE_CURVE('',#159,#160,#63,.T.);
#192=EDGE_CURVE('',#159,#161,#64,.T.);
#193=EDGE_CURVE('',#162,#161,#65,.T.);
#194=EDGE_CURVE('',#160,#162,#66,.T.);
#195=EDGE_CURVE('',#160,#163,#67,.T.);
#196=EDGE_CURVE('',#164,#162,#68,.T.);
#197=EDGE_CURVE('',#163,#164,#69,.T.);
#198=EDGE_CURVE('',#163,#165,#70,.T.);
#199=EDGE_CURVE('',#166,#164,#71,.T.);
#200=EDGE_CURVE('',#165,#166,#72,.T.);
#201=EDGE_CURVE('',#165,#159,#73,.T.);
#202=EDGE_CURVE('',#161,#166,#74,.T.);
#203=EDGE_CURVE('',#167,#168,#75,.T.);
#204=EDGE_CURVE('',#167,#169,#76,.T.);
#205=EDGE_CURVE('',#170,#169,#77,.T.);
#206=EDGE_CURVE('',#168,#170,#78,.T.);
#207=EDGE_CURVE('',#168,#171,#79,.T.);
#208=EDGE_CURVE('',#172,#170,#80,.T.);
#209=EDGE_CURVE('',#171,#172,#81,.T.);
#210=EDGE_CURVE('',#171,#173,#82,.T.);
#211=EDGE_CURVE('',#174,#172,#83,.T.);
#212=EDGE_CURVE('',#173,#174,#84,.T.);
#213=EDGE_CURVE('',#173,#167,#85,.T.);
#214=EDGE_CURVE('',#169,#174,#86,.T.);
#215=EDGE_CURVE('',#175,#176,#87,.T.);
#216=EDGE_CURVE('',#175,#177,#88,.T.);
#217=EDGE_CURVE('',#178,#177,#89,.T.);
#218=EDGE_CURVE('',#176,#178,#90,.T.);
#219=EDGE_CURVE('',#176,#179,#91,.T.);
#220=EDGE_CURVE('',#180,#178,#92,.T.);
#221=EDGE_CURVE('',#179,#180,#93,.T.);
#222=EDGE_CURVE('',#179,#181,#94,.T.);
#223=EDGE_CURVE('',#182,#180,#95,.T.);
#224=EDGE_CURVE('',#181,#182,#96,.T.);
#225=EDGE_CURVE('',#181,#175,#97,.T.);
#226=EDGE_CURVE('',#177,#182,#98,.T.);
#227=EDGE_CURVE('',#183,#184,#99,.T.);
#228=EDGE_CURVE('',#184,#185,#100,.T.);
#229=EDGE_CURVE('',#186,#185,#101,.T.);
#230=EDGE_CURVE('',#183,#186,#102,.T.);
#231=EDGE_CURVE('',#187,#183,#103,.T.);
#232=EDGE_CURVE('',#188,#186,#104,.T.);
#233=EDGE_CURVE('',#187,#188,#105,.T.);
#234=EDGE_CURVE('',#189,#187,#106,.T.);
#235=EDGE_CURVE('',#190,#188,#107,.T.);
#236=EDGE_CURVE('',#189,#190,#108,.T.);
#237=EDGE_CURVE('',#184,#189,#109,.T.);
#238=EDGE_CURVE('',#185,#190,#110,.T.);
#239=ORIENTED_EDGE('',*,*,#191,.F.);
#240=ORIENTED_EDGE('',*,*,#192,.T.);
#241=ORIENTED_EDGE('',*,*,#193,.F.);
#242=ORIENTED_EDGE('',*,*,#194,.F.);
#243=ORIENTED_EDGE('',*,*,#195,.F.);
#244=ORIENTED_EDGE('',*,*,#194,.T.);
#245=ORIENTED_EDGE('',*,*,#196,.F.);
#246=ORIENTED_EDGE('',*,*,#197,.F.);
#247=ORIENTED_EDGE('',*,*,#198,.F.);
#248=ORIENTED_EDGE('',*,*,#197,.T.);
#249=ORIENTED_EDGE('',*,*,#199,.F.);
#250=ORIENTED_EDGE('',*,*,#200,.F.);
#251=ORIENTED_EDGE('',*,*,#201,.F.);
#252=ORIENTED_EDGE('',*,*,#200,.T.);
#253=ORIENTED_EDGE('',*,*,#202,.F.);
#254=ORIENTED_EDGE('',*,*,#192,.F.);
#255=ORIENTED_EDGE('',*,*,#202,.T.);
#256=ORIENTED_EDGE('',*,*,#199,.T.);
#257=ORIENTED_EDGE('',*,*,#196,.T.);
#258=ORIENTED_EDGE('',*,*,#193,.T.);
#259=ORIENTED_EDGE('',*,*,#203,.F.);
#260=ORIENTED_EDGE('',*,*,#204,.T.);
#261=ORIENTED_EDGE('',*,*,#205,.F.);
#262=ORIENTED_EDGE('',*,*,#206,.F.);
#263=ORIENTED_EDGE('',*,*,#207,.F.);
#264=ORIENTED_EDGE('',*,*,#206,.T.);
#265=ORIENTED_EDGE('',*,*,#208,.F.);
#266=ORIENTED_EDGE('',*,*,#209,.F.);
#267=ORIENTED_EDGE('',*,*,#210,.F.);
#268=ORIENTED_EDGE('',*,*,#209,.T.);
#269=ORIENTED_EDGE('',*,*,#211,.F.);
#270=ORIENTED_EDGE('',*,*,#212,.F.);
#271=ORIENTED_EDGE('',*,*,#213,.F.);
#272=ORIENTED_EDGE('',*,*,#212,.T.);
#273=ORIENTED_EDGE('',*,*,#214,.F.);
#274=ORIENTED_EDGE('',*,*,#204,.F.);
#275=ORIENTED_EDGE('',*,*,#214,.T.);
#276=ORIENTED_EDGE('',*,*,#211,.T.);
#277=ORIENTED_EDGE('',*,*,#208,.T.);
#278=ORIENTED_EDGE('',*,*,#205,.T.);
#279=ORIENTED_EDGE('',*,*,#215,.F.);
#280=ORIENTED_EDGE('',*,*,#216,.T.);
#281=ORIENTED_EDGE('',*,*,#217,.F.);
#282=ORIENTED_EDGE('',*,*,#218,.F.);
#283=ORIENTED_EDGE('',*,*,#219,.F.);
#284=ORIENTED_EDGE('',*,*,#218,.T.);
#285=ORIENTED_EDGE('',*,*,#220,.F.);
#286=ORIENTED_EDGE('',*,*,#221,.F.);
#287=ORIENTED_EDGE('',*,*,#222,.F.);
#288=ORIENTED_EDGE('',*,*,#221,.T.);
#289=ORIENTED_EDGE('',*,*,#223,.F.);
#290=ORIENTED_EDGE('',*,*,#224,.F.);
#291=ORIENTED_EDGE('',*,*,#225,.F.);
#292=ORIENTED_EDGE('',*,*,#224,.T.);
#293=ORIENTED_EDGE('',*,*,#226,.F.);
#294=ORIENTED_EDGE('',*,*,#216,.F.);
#295=ORIENTED_EDGE('',*,*,#226,.T.);
#296=ORIENTED_EDGE('',*,*,#223,.T.);
#297=ORIENTED_EDGE('',*,*,#220,.T.);
#298=ORIENTED_EDGE('',*,*,#217,.T.);
#299=ORIENTED_EDGE('',*,*,#227,.T.);
#300=ORIENTED_EDGE('',*,*,#228,.T.);
#301=ORIENTED_EDGE('',*,*,#229,.F.);
#302=ORIENTED_EDGE('',*,*,#230,.F.);
#303=ORIENTED_EDGE('',*,*,#231,.T.);
#304=ORIENTED_EDGE('',*,*,#230,.T.);
#305=ORIENTED_EDGE('',*,*,#232,.F.);
#306=ORIENTED_EDGE('',*,*,#233,.F.);
#307=ORIENTED_EDGE('',*,*,#234,.T.);
#308=ORIENTED_EDGE('',*,*,#233,.T.);
#309=ORIENTED_EDGE('',*,*,#235,.F.);
#310=ORIENTED_EDGE('',*,*,#236,.F.);
#311=ORIENTED_EDGE('',*,*,#237,.T.);
#312=ORIENTED_EDGE('',*,*,#236,.T.);
#313=ORIENTED_EDGE('',*,*,#238,.F.);
#314=ORIENTED_EDGE('',*,*,#228,.F.);
#315=ORIENTED_EDGE('',*,*,#238,.T.);
#316=ORIENTED_EDGE('',*,*,#235,.T.);
#317=ORIENTED_EDGE('',*,*,#232,.T.);
#318=ORIENTED_EDGE('',*,*,#229,.T.);
#319=ORIENTED_EDGE('',*,*,#215,.T.);
#320=ORIENTED_EDGE('',*,*,#219,.T.);
#321=ORIENTED_EDGE('',*,*,#222,.T.);
#322=ORIENTED_EDGE('',*,*,#225,.T.);
#323=ORIENTED_EDGE('',*,*,#237,.F.);
#324=ORIENTED_EDGE('',*,*,#227,.F.);
#325=ORIENTED_EDGE('',*,*,#231,.F.);
#326=ORIENTED_EDGE('',*,*,#234,.F.);
#327=ORIENTED_EDGE('',*,*,#191,.T.);
#328=ORIENTED_EDGE('',*,*,#195,.T.);
#329=ORIENTED_EDGE('',*,*,#198,.T.);
#330=ORIENTED_EDGE('',*,*,#201,.T.);
#331=ORIENTED_EDGE('',*,*,#203,.T.);
#332=ORIENTED_EDGE('',*,*,#207,.T.);
#333=ORIENTED_EDGE('',*,*,#210,.T.);
#334=ORIENTED_EDGE('',*,*,#213,.T.);
#335=PLANE('',#391);
#336=PLANE('',#392);
#337=PLANE('',#393);
#338=PLANE('',#394);
#339=PLANE('',#395);
#340=PLANE('',#396);
#341=PLANE('',#397);
#342=PLANE('',#398);
#343=PLANE('',#399);
#344=PLANE('',#400);
#345=PLANE('',#401);
#346=PLANE('',#402);
#347=PLANE('',#403);
#348=PLANE('',#404);
#349=PLANE('',#405);
#350=PLANE('',#406);
#351=PLANE('',#407);
#352=PLANE('',#408);
#353=PLANE('',#409);
#354=PLANE('',#410);
#355=PLANE('',#411);
#356=ADVANCED_FACE('',(#18),#335,.T.);
#357=ADVANCED_FACE('',(#19),#336,.T.);
#358=ADVANCED_FACE('',(#20),#337,.T.);
#359=ADVANCED_FACE('',(#21),#338,.T.);
#360=ADVANCED_FACE('',(#22),#339,.T.);
#361=ADVANCED_FACE('',(#23),#340,.T.);
#362=ADVANCED_FACE('',(#24),#341,.T.);
#363=ADVANCED_FACE('',(#25),#342,.T.);
#364=ADVANCED_FACE('',(#26),#343,.T.);
#365=ADVANCED_FACE('',(#27),#344,.T.);
#366=ADVANCED_FACE('',(#28),#345,.T.);
#367=ADVANCED_FACE('',(#29),#346,.T.);
#368=ADVANCED_FACE('',(#30),#347,.T.);
#369=ADVANCED_FACE('',(#31),#348,.T.);
#370=ADVANCED_FACE('',(#32),#349,.T.);
#371=ADVANCED_FACE('',(#33),#350,.T.);
#372=ADVANCED_FACE('',(#34),#351,.T.);
#373=ADVANCED_FACE('',(#35),#352,.T.);
#374=ADVANCED_FACE('',(#36),#353,.T.);
#375=ADVANCED_FACE('',(#37,#15),#354,.T.);
#376=ADVANCED_FACE('',(#38,#16,#17),#355,.F.);
#377=CLOSED_SHELL('',(#356,#357,#358,#359,#360,#361,#362,#363,#364,#365,
#366,#367,#368,#369,#370,#371,#372,#373,#374,#375,#376));
#378=DERIVED_UNIT_ELEMENT(#380,1.);
#379=DERIVED_UNIT_ELEMENT(#611,-3.);
#380=(
MASS_UNIT()
NAMED_UNIT(*)
SI_UNIT(.KILO.,.GRAM.)
);
#381=DERIVED_UNIT((#378,#379));
#382=MEASURE_REPRESENTATION_ITEM('density measure',
POSITIVE_RATIO_MEASURE(7850.),#381);
#383=PROPERTY_DEFINITION_REPRESENTATION(#388,#385);
#384=PROPERTY_DEFINITION_REPRESENTATION(#389,#386);
#385=REPRESENTATION('material name',(#387),#608);
#386=REPRESENTATION('density',(#382),#608);
#387=DESCRIPTIVE_REPRESENTATION_ITEM('Steel','Steel');
#388=PROPERTY_DEFINITION('material property','material name',#618);
#389=PROPERTY_DEFINITION('material property','density of part',#618);
#390=AXIS2_PLACEMENT_3D('placement',#504,#412,#413);
#391=AXIS2_PLACEMENT_3D('',#505,#414,#415);
#392=AXIS2_PLACEMENT_3D('',#514,#420,#421);
#393=AXIS2_PLACEMENT_3D('',#520,#425,#426);
#394=AXIS2_PLACEMENT_3D('',#526,#430,#431);
#395=AXIS2_PLACEMENT_3D('',#529,#434,#435);
#396=AXIS2_PLACEMENT_3D('',#530,#436,#437);
#397=AXIS2_PLACEMENT_3D('',#539,#442,#443);
#398=AXIS2_PLACEMENT_3D('',#545,#447,#448);
#399=AXIS2_PLACEMENT_3D('',#551,#452,#453);
#400=AXIS2_PLACEMENT_3D('',#554,#456,#457);
#401=AXIS2_PLACEMENT_3D('',#555,#458,#459);
#402=AXIS2_PLACEMENT_3D('',#564,#464,#465);
#403=AXIS2_PLACEMENT_3D('',#570,#469,#470);
#404=AXIS2_PLACEMENT_3D('',#576,#474,#475);
#405=AXIS2_PLACEMENT_3D('',#579,#478,#479);
#406=AXIS2_PLACEMENT_3D('',#580,#480,#481);
#407=AXIS2_PLACEMENT_3D('',#589,#486,#487);
#408=AXIS2_PLACEMENT_3D('',#595,#491,#492);
#409=AXIS2_PLACEMENT_3D('',#601,#496,#497);
#410=AXIS2_PLACEMENT_3D('',#604,#500,#501);
#411=AXIS2_PLACEMENT_3D('',#605,#502,#503);
#412=DIRECTION('axis',(0.,0.,1.));
#413=DIRECTION('refdir',(1.,0.,0.));
#414=DIRECTION('center_axis',(1.,0.,0.));
#415=DIRECTION('ref_axis',(0.,-1.,0.));
#416=DIRECTION('',(0.,1.,0.));
#417=DIRECTION('',(0.,0.,-1.));
#418=DIRECTION('',(0.,-1.,0.));
#419=DIRECTION('',(0.,0.,-1.));
#420=DIRECTION('center_axis',(0.,1.,0.));
#421=DIRECTION('ref_axis',(1.,0.,0.));
#422=DIRECTION('',(-1.,0.,0.));
#423=DIRECTION('',(1.,0.,0.));
#424=DIRECTION('',(0.,0.,-1.));
#425=DIRECTION('center_axis',(-1.,0.,0.));
#426=DIRECTION('ref_axis',(0.,1.,0.));
#427=DIRECTION('',(0.,-1.,0.));
#428=DIRECTION('',(0.,1.,0.));
#429=DIRECTION('',(0.,0.,-1.));
#430=DIRECTION('center_axis',(0.,-1.,0.));
#431=DIRECTION('ref_axis',(-1.,0.,0.));
#432=DIRECTION('',(1.,0.,0.));
#433=DIRECTION('',(-1.,0.,0.));
#434=DIRECTION('center_axis',(0.,0.,-1.));
#435=DIRECTION('ref_axis',(-1.,0.,0.));
#436=DIRECTION('center_axis',(-1.,-2.18547839493141E-16,0.));
#437=DIRECTION('ref_axis',(-2.18547839493141E-16,1.,0.));
#438=DIRECTION('',(2.18547839493141E-16,-1.,0.));
#439=DIRECTION('',(0.,0.,-1.));
#440=DIRECTION('',(-2.18547839493141E-16,1.,0.));
#441=DIRECTION('',(0.,0.,-1.));
#442=DIRECTION('center_axis',(2.18547839493141E-16,-1.,0.));
#443=DIRECTION('ref_axis',(-1.,-2.18547839493141E-16,0.));
#444=DIRECTION('',(1.,2.18547839493141E-16,0.));
#445=DIRECTION('',(-1.,-2.18547839493141E-16,0.));
#446=DIRECTION('',(0.,0.,-1.));
#447=DIRECTION('center_axis',(1.,2.18547839493141E-16,0.));
#448=DIRECTION('ref_axis',(2.18547839493141E-16,-1.,0.));
#449=DIRECTION('',(-2.18547839493141E-16,1.,0.));
#450=DIRECTION('',(2.18547839493141E-16,-1.,0.));
#451=DIRECTION('',(0.,0.,-1.));
#452=DIRECTION('center_axis',(0.,1.,0.));
#453=DIRECTION('ref_axis',(1.,0.,0.));
#454=DIRECTION('',(-1.,0.,0.));
#455=DIRECTION('',(1.,0.,0.));
#456=DIRECTION('center_axis',(0.,0.,-1.));
#457=DIRECTION('ref_axis',(-1.,0.,0.));
#458=DIRECTION('center_axis',(-1.,0.,0.));
#459=DIRECTION('ref_axis',(0.,-1.,0.));
#460=DIRECTION('',(0.,1.,0.));
#461=DIRECTION('',(0.,0.,1.));
#462=DIRECTION('',(0.,-1.,0.));
#463=DIRECTION('',(0.,0.,1.));
#464=DIRECTION('center_axis',(0.,1.,0.));
#465=DIRECTION('ref_axis',(-1.,0.,0.));
#466=DIRECTION('',(1.,0.,0.));
#467=DIRECTION('',(-1.,0.,0.));
#468=DIRECTION('',(0.,0.,1.));
#469=DIRECTION('center_axis',(1.,0.,0.));
#470=DIRECTION('ref_axis',(0.,1.,0.));
#471=DIRECTION('',(0.,-1.,0.));
#472=DIRECTION('',(0.,1.,0.));
#473=DIRECTION('',(0.,0.,1.));
#474=DIRECTION('center_axis',(0.,-1.,0.));
#475=DIRECTION('ref_axis',(1.,0.,0.));
#476=DIRECTION('',(-1.,0.,0.));
#477=DIRECTION('',(1.,0.,0.));
#478=DIRECTION('center_axis',(0.,0.,1.));
#479=DIRECTION('ref_axis',(1.,0.,0.));
#480=DIRECTION('center_axis',(0.,-1.,0.));
#481=DIRECTION('ref_axis',(1.,0.,0.));
#482=DIRECTION('',(1.,0.,0.));
#483=DIRECTION('',(0.,0.,1.));
#484=DIRECTION('',(1.,0.,0.));
#485=DIRECTION('',(0.,0.,1.));
#486=DIRECTION('center_axis',(-1.,-5.55111512312578E-17,0.));
#487=DIRECTION('ref_axis',(5.55111512312578E-17,-1.,0.));
#488=DIRECTION('',(5.55111512312578E-17,-1.,0.));
#489=DIRECTION('',(5.55111512312578E-17,-1.,0.));
#490=DIRECTION('',(0.,0.,1.));
#491=DIRECTION('center_axis',(0.,1.,0.));
#492=DIRECTION('ref_axis',(-1.,0.,0.));
#493=DIRECTION('',(-1.,0.,0.));
#494=DIRECTION('',(-1.,0.,0.));
#495=DIRECTION('',(0.,0.,1.));
#496=DIRECTION('center_axis',(1.,0.,0.));
#497=DIRECTION('ref_axis',(0.,1.,0.));
#498=DIRECTION('',(0.,1.,0.));
#499=DIRECTION('',(0.,1.,0.));
#500=DIRECTION('center_axis',(0.,0.,1.));
#501=DIRECTION('ref_axis',(1.,0.,0.));
#502=DIRECTION('center_axis',(0.,0.,1.));
#503=DIRECTION('ref_axis',(1.,0.,0.));
#504=CARTESIAN_POINT('',(0.,0.,0.));
#505=CARTESIAN_POINT('Origin',(12.7,16.69,0.));
#506=CARTESIAN_POINT('',(12.7,-3.63,0.));
#507=CARTESIAN_POINT('',(12.7,16.69,0.));
#508=CARTESIAN_POINT('',(12.7,8.345,0.));
#509=CARTESIAN_POINT('',(12.7,-3.63,-9.));
#510=CARTESIAN_POINT('',(12.7,-3.63,0.));
#511=CARTESIAN_POINT('',(12.7,16.69,-9.));
#512=CARTESIAN_POINT('',(12.7,-3.63,-9.));
#513=CARTESIAN_POINT('',(12.7,16.69,0.));
#514=CARTESIAN_POINT('Origin',(10.16,16.69,0.));
#515=CARTESIAN_POINT('',(10.16,16.69,0.));
#516=CARTESIAN_POINT('',(5.08,16.69,0.));
#517=CARTESIAN_POINT('',(10.16,16.69,-9.));
#518=CARTESIAN_POINT('',(12.7,16.69,-9.));
#519=CARTESIAN_POINT('',(10.16,16.69,0.));
#520=CARTESIAN_POINT('Origin',(10.16,-3.63,0.));
#521=CARTESIAN_POINT('',(10.16,-3.63,0.));
#522=CARTESIAN_POINT('',(10.16,-1.815,0.));
#523=CARTESIAN_POINT('',(10.16,-3.63,-9.));
#524=CARTESIAN_POINT('',(10.16,16.69,-9.));
#525=CARTESIAN_POINT('',(10.16,-3.63,0.));
#526=CARTESIAN_POINT('Origin',(12.7,-3.63,0.));
#527=CARTESIAN_POINT('',(6.35,-3.63,0.));
#528=CARTESIAN_POINT('',(10.16,-3.63,-9.));
#529=CARTESIAN_POINT('Origin',(11.43,6.53,-9.));
#530=CARTESIAN_POINT('Origin',(-12.7,-3.63,0.));
#531=CARTESIAN_POINT('',(-12.7,16.69,0.));
#532=CARTESIAN_POINT('',(-12.7,-3.63,0.));
#533=CARTESIAN_POINT('',(-12.7,-1.815,0.));
#534=CARTESIAN_POINT('',(-12.7,16.69,-9.));
#535=CARTESIAN_POINT('',(-12.7,16.69,0.));
#536=CARTESIAN_POINT('',(-12.7,-3.63,-9.));
#537=CARTESIAN_POINT('',(-12.7,-3.63,-9.));
#538=CARTESIAN_POINT('',(-12.7,-3.63,0.));
#539=CARTESIAN_POINT('Origin',(-10.16,-3.63,0.));
#540=CARTESIAN_POINT('',(-10.16,-3.63,0.));
#541=CARTESIAN_POINT('',(-5.08,-3.63,0.));
#542=CARTESIAN_POINT('',(-10.16,-3.63,-9.));
#543=CARTESIAN_POINT('',(-10.16,-3.63,-9.));
#544=CARTESIAN_POINT('',(-10.16,-3.63,0.));
#545=CARTESIAN_POINT('Origin',(-10.16,16.69,0.));
#546=CARTESIAN_POINT('',(-10.16,16.69,0.));
#547=CARTESIAN_POINT('',(-10.16,8.345,0.));
#548=CARTESIAN_POINT('',(-10.16,16.69,-9.));
#549=CARTESIAN_POINT('',(-10.16,16.69,-9.));
#550=CARTESIAN_POINT('',(-10.16,16.69,0.));
#551=CARTESIAN_POINT('Origin',(-12.7,16.69,0.));
#552=CARTESIAN_POINT('',(-6.35,16.69,0.));
#553=CARTESIAN_POINT('',(-12.7,16.69,-9.));
#554=CARTESIAN_POINT('Origin',(-11.43,6.53,-9.));
#555=CARTESIAN_POINT('Origin',(-5.,12.,4.5));
#556=CARTESIAN_POINT('',(-5.,2.,4.5));
#557=CARTESIAN_POINT('',(-5.,12.,4.5));
#558=CARTESIAN_POINT('',(-5.,6.,4.5));
#559=CARTESIAN_POINT('',(-5.,2.,6.5));
#560=CARTESIAN_POINT('',(-5.,2.,4.5));
#561=CARTESIAN_POINT('',(-5.,12.,6.5));
#562=CARTESIAN_POINT('',(-5.,2.,6.5));
#563=CARTESIAN_POINT('',(-5.,12.,4.5));
#564=CARTESIAN_POINT('Origin',(5.,12.,4.5));
#565=CARTESIAN_POINT('',(5.,12.,4.5));
#566=CARTESIAN_POINT('',(2.5,12.,4.5));
#567=CARTESIAN_POINT('',(5.,12.,6.5));
#568=CARTESIAN_POINT('',(-5.,12.,6.5));
#569=CARTESIAN_POINT('',(5.,12.,4.5));
#570=CARTESIAN_POINT('Origin',(5.,2.,4.5));
#571=CARTESIAN_POINT('',(5.,2.,4.5));
#572=CARTESIAN_POINT('',(5.,1.,4.5));
#573=CARTESIAN_POINT('',(5.,2.,6.5));
#574=CARTESIAN_POINT('',(5.,12.,6.5));
#575=CARTESIAN_POINT('',(5.,2.,4.5));
#576=CARTESIAN_POINT('Origin',(-5.,2.,4.5));
#577=CARTESIAN_POINT('',(-2.5,2.,4.5));
#578=CARTESIAN_POINT('',(5.,2.,6.5));
#579=CARTESIAN_POINT('Origin',(0.,7.,6.5));
#580=CARTESIAN_POINT('Origin',(-13.5,-20.,0.));
#581=CARTESIAN_POINT('',(-13.5,-20.,0.));
#582=CARTESIAN_POINT('',(13.5,-20.,0.));
#583=CARTESIAN_POINT('',(-13.5,-20.,0.));
#584=CARTESIAN_POINT('',(13.5,-20.,4.5));
#585=CARTESIAN_POINT('',(13.5,-20.,0.));
#586=CARTESIAN_POINT('',(-13.5,-20.,4.5));
#587=CARTESIAN_POINT('',(-13.5,-20.,4.5));
#588=CARTESIAN_POINT('',(-13.5,-20.,0.));
#589=CARTESIAN_POINT('Origin',(-13.5,20.,0.));
#590=CARTESIAN_POINT('',(-13.5,20.,0.));
#591=CARTESIAN_POINT('',(-13.5,20.,0.));
#592=CARTESIAN_POINT('',(-13.5,20.,4.5));
#593=CARTESIAN_POINT('',(-13.5,20.,4.5));
#594=CARTESIAN_POINT('',(-13.5,20.,0.));
#595=CARTESIAN_POINT('Origin',(13.5,20.,0.));
#596=CARTESIAN_POINT('',(13.5,20.,0.));
#597=CARTESIAN_POINT('',(13.5,20.,0.));
#598=CARTESIAN_POINT('',(13.5,20.,4.5));
#599=CARTESIAN_POINT('',(13.5,20.,4.5));
#600=CARTESIAN_POINT('',(13.5,20.,0.));
#601=CARTESIAN_POINT('Origin',(13.5,-20.,0.));
#602=CARTESIAN_POINT('',(13.5,-20.,0.));
#603=CARTESIAN_POINT('',(13.5,-20.,4.5));
#604=CARTESIAN_POINT('Origin',(-2.22044604925031E-15,0.,4.5));
#605=CARTESIAN_POINT('Origin',(-2.22044604925031E-15,0.,0.));
#606=UNCERTAINTY_MEASURE_WITH_UNIT(LENGTH_MEASURE(0.01),#610,
'DISTANCE_ACCURACY_VALUE',
'Maximum model space distance between geometric entities at asserted c
onnectivities');
#607=UNCERTAINTY_MEASURE_WITH_UNIT(LENGTH_MEASURE(0.01),#610,
'DISTANCE_ACCURACY_VALUE',
'Maximum model space distance between geometric entities at asserted c
onnectivities');
#608=(
GEOMETRIC_REPRESENTATION_CONTEXT(3)
GLOBAL_UNCERTAINTY_ASSIGNED_CONTEXT((#606))
GLOBAL_UNIT_ASSIGNED_CONTEXT((#610,#612,#613))
REPRESENTATION_CONTEXT('','3D')
);
#609=(
GEOMETRIC_REPRESENTATION_CONTEXT(3)
GLOBAL_UNCERTAINTY_ASSIGNED_CONTEXT((#607))
GLOBAL_UNIT_ASSIGNED_CONTEXT((#610,#612,#613))
REPRESENTATION_CONTEXT('','3D')
);
#610=(
LENGTH_UNIT()
NAMED_UNIT(*)
SI_UNIT(.MILLI.,.METRE.)
);
#611=(
LENGTH_UNIT()
NAMED_UNIT(*)
SI_UNIT($,.METRE.)
);
#612=(
NAMED_UNIT(*)
PLANE_ANGLE_UNIT()
SI_UNIT($,.RADIAN.)
);
#613=(
NAMED_UNIT(*)
SI_UNIT($,.STERADIAN.)
SOLID_ANGLE_UNIT()
);
#614=SHAPE_DEFINITION_REPRESENTATION(#615,#616);
#615=PRODUCT_DEFINITION_SHAPE('',$,#618);
#616=SHAPE_REPRESENTATION('',(#390),#608);
#617=PRODUCT_DEFINITION_CONTEXT('part definition',#622,'design');
#618=PRODUCT_DEFINITION('(Unsaved)','(Unsaved)',#619,#617);
#619=PRODUCT_DEFINITION_FORMATION('',$,#624);
#620=PRODUCT_RELATED_PRODUCT_CATEGORY('(Unsaved)','(Unsaved)',(#624));
#621=APPLICATION_PROTOCOL_DEFINITION('international standard',
'automotive_design',2009,#622);
#622=APPLICATION_CONTEXT(
'Core Data for Automotive Mechanical Design Process');
#623=PRODUCT_CONTEXT('part definition',#622,'mechanical');
#624=PRODUCT('(Unsaved)','(Unsaved)',$,(#623));
#625=PRESENTATION_STYLE_ASSIGNMENT((#626));
#626=SURFACE_STYLE_USAGE(.BOTH.,#627);
#627=SURFACE_SIDE_STYLE('',(#628));
#628=SURFACE_STYLE_FILL_AREA(#629);
#629=FILL_AREA_STYLE('Steel - Satin',(#630));
#630=FILL_AREA_STYLE_COLOUR('Steel - Satin',#631);
#631=COLOUR_RGB('Steel - Satin',0.627450980392157,0.627450980392157,0.627450980392157);
ENDSEC;
END-ISO-10303-21;
