(module "QFN-32 5x5" (layer F.Cu) (tedit 5C32339A)
  (fp_text reference U1 (at -0.5 -3.5) (layer F.SilkS)
    (effects (font (size 1 1) (thickness 0.15)))
  )
  (fp_text value DRV8320H (at 0 -0.5) (layer F.Fab) hide
    (effects (font (size 1 1) (thickness 0.15)))
  )
  (fp_line (start -2.5 2.5) (end -2 2.5) (layer F.SilkS) (width 0.15))
  (fp_line (start -2.5 2) (end -2.5 2.5) (layer F.SilkS) (width 0.15))
  (fp_line (start -2.5 -2.5) (end -2.5 -2) (layer F.SilkS) (width 0.15))
  (fp_line (start -2 -2.5) (end -2.5 -2.5) (layer F.SilkS) (width 0.15))
  (fp_line (start 2.5 -2.5) (end 2 -2.5) (layer F.SilkS) (width 0.15))
  (fp_line (start 2.5 -2) (end 2.5 -2.5) (layer F.SilkS) (width 0.15))
  (fp_line (start 2.5 2.5) (end 2.5 2) (layer F.SilkS) (width 0.15))
  (fp_line (start 2 2.5) (end 2.5 2.5) (layer F.SilkS) (width 0.15))
  (pad 32 smd roundrect (at -2.475 -1.75 90) (size 0.23 0.8) (layers F.Cu F.Paste F.Mask) (roundrect_rratio 0.5)
    (solder_mask_margin 0.1) (solder_paste_margin -0.1))
  (pad 31 smd roundrect (at -2.475 -1.25 90) (size 0.23 0.8) (layers F.Cu F.Paste F.Mask) (roundrect_rratio 0.5)
    (solder_mask_margin 0.1) (solder_paste_margin -0.1))
  (pad 30 smd roundrect (at -2.475 -0.75 90) (size 0.23 0.8) (layers F.Cu F.Paste F.Mask) (roundrect_rratio 0.5)
    (solder_mask_margin 0.1) (solder_paste_margin -0.1))
  (pad 29 smd roundrect (at -2.475 -0.25 90) (size 0.23 0.8) (layers F.Cu F.Paste F.Mask) (roundrect_rratio 0.5)
    (solder_mask_margin 0.1) (solder_paste_margin -0.1))
  (pad 28 smd roundrect (at -2.475 0.25 90) (size 0.23 0.8) (layers F.Cu F.Paste F.Mask) (roundrect_rratio 0.5)
    (solder_mask_margin 0.1) (solder_paste_margin -0.1))
  (pad 27 smd roundrect (at -2.475 0.75 90) (size 0.23 0.8) (layers F.Cu F.Paste F.Mask) (roundrect_rratio 0.5)
    (solder_mask_margin 0.1) (solder_paste_margin -0.1))
  (pad 26 smd roundrect (at -2.475 1.25 90) (size 0.23 0.8) (layers F.Cu F.Paste F.Mask) (roundrect_rratio 0.5)
    (solder_mask_margin 0.1) (solder_paste_margin -0.1))
  (pad 25 smd roundrect (at -2.475 1.75 90) (size 0.23 0.8) (layers F.Cu F.Paste F.Mask) (roundrect_rratio 0.5)
    (solder_mask_margin 0.1) (solder_paste_margin -0.1))
  (pad 24 smd roundrect (at -1.75 2.475) (size 0.23 0.8) (layers F.Cu F.Paste F.Mask) (roundrect_rratio 0.5)
    (solder_mask_margin 0.1) (solder_paste_margin -0.1))
  (pad 23 smd roundrect (at -1.25 2.475) (size 0.23 0.8) (layers F.Cu F.Paste F.Mask) (roundrect_rratio 0.5)
    (solder_mask_margin 0.1) (solder_paste_margin -0.1))
  (pad 22 smd roundrect (at -0.75 2.475) (size 0.23 0.8) (layers F.Cu F.Paste F.Mask) (roundrect_rratio 0.5)
    (solder_mask_margin 0.1) (solder_paste_margin -0.1))
  (pad 21 smd roundrect (at -0.25 2.475) (size 0.23 0.8) (layers F.Cu F.Paste F.Mask) (roundrect_rratio 0.5)
    (solder_mask_margin 0.1) (solder_paste_margin -0.1))
  (pad 20 smd roundrect (at 0.25 2.475) (size 0.23 0.8) (layers F.Cu F.Paste F.Mask) (roundrect_rratio 0.5)
    (solder_mask_margin 0.1) (solder_paste_margin -0.1))
  (pad 19 smd roundrect (at 0.75 2.475) (size 0.23 0.8) (layers F.Cu F.Paste F.Mask) (roundrect_rratio 0.5)
    (solder_mask_margin 0.1) (solder_paste_margin -0.1))
  (pad 18 smd roundrect (at 1.25 2.475) (size 0.23 0.8) (layers F.Cu F.Paste F.Mask) (roundrect_rratio 0.5)
    (solder_mask_margin 0.1) (solder_paste_margin -0.1))
  (pad 17 smd roundrect (at 1.75 2.475) (size 0.23 0.8) (layers F.Cu F.Paste F.Mask) (roundrect_rratio 0.5)
    (solder_mask_margin 0.1) (solder_paste_margin -0.1))
  (pad 16 smd roundrect (at 2.475 1.75 90) (size 0.23 0.8) (layers F.Cu F.Paste F.Mask) (roundrect_rratio 0.5)
    (solder_mask_margin 0.1) (solder_paste_margin -0.1))
  (pad 15 smd roundrect (at 2.475 1.25 90) (size 0.23 0.8) (layers F.Cu F.Paste F.Mask) (roundrect_rratio 0.5)
    (solder_mask_margin 0.1) (solder_paste_margin -0.1))
  (pad 14 smd roundrect (at 2.475 0.75 90) (size 0.23 0.8) (layers F.Cu F.Paste F.Mask) (roundrect_rratio 0.5)
    (solder_mask_margin 0.1) (solder_paste_margin -0.1))
  (pad 13 smd roundrect (at 2.475 0.25 90) (size 0.23 0.8) (layers F.Cu F.Paste F.Mask) (roundrect_rratio 0.5)
    (solder_mask_margin 0.1) (solder_paste_margin -0.1))
  (pad 12 smd roundrect (at 2.475 -0.25 90) (size 0.23 0.8) (layers F.Cu F.Paste F.Mask) (roundrect_rratio 0.5)
    (solder_mask_margin 0.1) (solder_paste_margin -0.1))
  (pad 11 smd roundrect (at 2.475 -0.75 90) (size 0.23 0.8) (layers F.Cu F.Paste F.Mask) (roundrect_rratio 0.5)
    (solder_mask_margin 0.1) (solder_paste_margin -0.1))
  (pad 10 smd roundrect (at 2.475 -1.25 90) (size 0.23 0.8) (layers F.Cu F.Paste F.Mask) (roundrect_rratio 0.5)
    (solder_mask_margin 0.1) (solder_paste_margin -0.1))
  (pad 9 smd roundrect (at 2.475 -1.75 90) (size 0.23 0.8) (layers F.Cu F.Paste F.Mask) (roundrect_rratio 0.5)
    (solder_mask_margin 0.1) (solder_paste_margin -0.1))
  (pad 8 smd roundrect (at 1.75 -2.475) (size 0.23 0.8) (layers F.Cu F.Paste F.Mask) (roundrect_rratio 0.5)
    (solder_mask_margin 0.1) (solder_paste_margin -0.1))
  (pad 7 smd roundrect (at 1.25 -2.475) (size 0.23 0.8) (layers F.Cu F.Paste F.Mask) (roundrect_rratio 0.5)
    (solder_mask_margin 0.1) (solder_paste_margin -0.1))
  (pad 6 smd roundrect (at 0.75 -2.475) (size 0.23 0.8) (layers F.Cu F.Paste F.Mask) (roundrect_rratio 0.5)
    (solder_mask_margin 0.1) (solder_paste_margin -0.1))
  (pad 5 smd roundrect (at 0.25 -2.475) (size 0.23 0.8) (layers F.Cu F.Paste F.Mask) (roundrect_rratio 0.5)
    (solder_mask_margin 0.1) (solder_paste_margin -0.1))
  (pad 4 smd roundrect (at -0.25 -2.475) (size 0.23 0.8) (layers F.Cu F.Paste F.Mask) (roundrect_rratio 0.5)
    (solder_mask_margin 0.1) (solder_paste_margin -0.1))
  (pad 3 smd roundrect (at -0.75 -2.475) (size 0.23 0.8) (layers F.Cu F.Paste F.Mask) (roundrect_rratio 0.5)
    (solder_mask_margin 0.1) (solder_paste_margin -0.1))
  (pad 2 smd roundrect (at -1.25 -2.475) (size 0.23 0.8) (layers F.Cu F.Paste F.Mask) (roundrect_rratio 0.5)
    (solder_mask_margin 0.1) (solder_paste_margin -0.1))
  (pad 1 smd roundrect (at -1.75 -2.475) (size 0.23 0.8) (layers F.Cu F.Paste F.Mask) (roundrect_rratio 0.5)
    (solder_mask_margin 0.1) (solder_paste_margin -0.1))
  (pad 33 smd rect (at 0 0) (size 3.45 3.45) (layers F.Cu F.Paste F.Mask)
    (solder_mask_margin 0.1) (solder_paste_margin -0.1))
)
